Gridcv - forages2 - Plsrda
…
julia> path_jdat = dirname(dirname(pathof(JchemoData)))
"C:\\Users\\lesnoff\\.julia\\packages\\JchemoData\\mSmTv"

julia> db = joinpath(path_jdat, "data/forages2.jld2")
"C:\\Users\\lesnoff\\.julia\\packages\\JchemoData\\mSmTv\\data/forages2.jld2"

julia> @load db dat
1-element Vector{Symbol}:
 :dat

julia> @names dat
(:X, :Y)

julia> X = dat.X
485×700 DataFrame
 Row │ 1100          1102          1104          1106          1108          1 ⋯
     │ Float64       Float64       Float64       Float64       Float64       F ⋯
─────┼──────────────────────────────────────────────────────────────────────────
   1 │ -0.000231591  -0.000175945  -8.48176e-5    2.05217e-5    0.000110094  0 ⋯
   2 │ -9.66352e-5   -3.30928e-5    5.64966e-5    0.000154135   0.000237725  0
   3 │ -0.000131769  -7.8398e-5     7.92223e-7    8.90044e-5    0.000160022  0
   4 │ -5.27109e-5   -1.38838e-5    3.73562e-5    8.87785e-5    0.000121518  0
   5 │ -4.13284e-5    1.46607e-5    8.7976e-5     0.000161825   0.000213816  0 ⋯
   6 │ -0.000562333  -0.000451182  -0.000256137  -1.91839e-5    0.000196847  0
   7 │  5.93643e-5    9.60385e-5    0.000130646   0.000152627   0.000151603  0
   8 │  4.55359e-5    7.99932e-5    0.000115881   0.000141024   0.000143214  0
  ⋮  │      ⋮             ⋮             ⋮             ⋮             ⋮          ⋱
 479 │ -0.00049819   -0.000428954  -0.000289552  -9.97032e-5    9.35608e-5   0 ⋯
 480 │ -1.30599e-5    1.87642e-5    6.16364e-5    0.000115375   0.000167888  0
 481 │ -0.000790809  -0.000707089  -0.000525597  -0.000272477  -1.50495e-5   0
 482 │ -0.000866662  -0.000767647  -0.000559022  -0.000274144   1.49724e-5   0
 483 │ -0.000788774  -0.000703783  -0.000521761  -0.000270395  -1.43285e-5   0 ⋯
 484 │ -0.00033791   -0.00028799   -0.000190344  -5.73166e-5    7.69177e-5   0
 485 │ -0.000790261  -0.000703107  -0.000519605  -0.000268478  -1.25069e-5   0
                                                695 columns and 470 rows omitted

julia> Y = dat.Y
485×4 DataFrame
 Row │ dm        ndf       typ                       test
     │ Float64?  Float64?  String                    Int64
─────┼─────────────────────────────────────────────────────
   1 │  92.23     37.58    Legume forages                1
   2 │  93.26     49.6462  Legume forages                0
   3 │  92.9      63.2939  Forage trees                  0
   4 │  94.44     51.6413  Cereal and grass forages      0
   5 │  93.16     46.5114  Legume forages                0
   6 │  93.44     40.8176  Legume forages                0
   7 │  94.02     56.9985  Cereal and grass forages      1
   8 │  94.18     69.1973  Cereal and grass forages      0
  ⋮  │    ⋮         ⋮                 ⋮                ⋮
 479 │  91.8668   26.1332  Legume forages                0
 480 │  91.4758   35.7111  Legume forages                1
 481 │  93.7303   55.5358  Legume forages                1
 482 │  93.2967   68.9812  Legume forages                0
 483 │  93.1954   39.1038  Legume forages                0
 484 │  93.17     48.8868  Legume forages                0
 485 │  93.2842   34.6457  Legume forages                1
                                           470 rows omitted
…
julia> segm = segmkf(ntrain, K; rep = rep) ;

julia> nlv = 0:30
0:30

julia> model = plsrda()
Jchemo.JchemoModel{typeof(plsrda), Base.Pairs{Symbol, Union{}, Tuple{}, @NamedTuple{}}}(Jchemo.plsrda, nothing, Base.Pairs{Symbol, Union{}, Tuple{}, @NamedTuple{}}())

julia> rescv = gridcv(model, Xtrain, ytrain; segm, score = errp, nlv) ;

julia> @names rescv
(:res, :res_rep)

julia> res = rescv.res
31×2 DataFrame
 Row │ nlv    y1
     │ Int64  Float64
─────┼──────────────────
   1 │     0  0.482951
   2 │     1  0.286679
   3 │     2  0.232333
   4 │     3  0.206199
   5 │     4  0.145021
   6 │     5  0.133124
   7 │     6  0.127796
   8 │     7  0.118126
  ⋮  │   ⋮        ⋮
  25 │    24  0.102291
  26 │    25  0.102049
  27 │    26  0.101428
  28 │    27  0.102048
  29 │    28  0.101436
  30 │    29  0.0983374
  31 │    30  0.100073
         16 rows omitted

julia> res_rep = rescv.res_rep
2325×4 DataFrame
  Row │ rep    segm   nlv    y1
      │ Int64  Int64  Int64  Float64
──────┼───────────────────────────────
    1 │     1      1      0  0.490741
    2 │     1      1      1  0.287037
    3 │     1      1      2  0.175926
    4 │     1      1      3  0.212963
    5 │     1      1      4  0.185185
    6 │     1      1      5  0.175926
    7 │     1      1      6  0.12963
    8 │     1      1      7  0.148148
  ⋮   │   ⋮      ⋮      ⋮       ⋮
 2319 │    25      3     24  0.158879
 2320 │    25      3     25  0.149533
 2321 │    25      3     26  0.140187
 2322 │    25      3     27  0.130841
 2323 │    25      3     28  0.130841
 2324 │    25      3     29  0.140187
 2325 │    25      3     30  0.130841
                     2310 rows omitted
…
julia> prior = [:unif]
1-element Vector{Symbol}:
 :unif

julia> pars = mpar(prior = prior)
(prior = [:unif],)

julia> nlv = 0:30
0:30

julia> model = plsrda()
Jchemo.JchemoModel{typeof(plsrda), Base.Pairs{Symbol, Union{}, Tuple{}, @NamedTuple{}}}(Jchemo.plsrda, nothing, Base.Pairs{Symbol, Union{}, Tuple{}, @NamedTuple{}}())

julia> res = gridcv(model, Xtrain, ytrain; segm, score = merrp, pars, nlv).res
31×3 DataFrame
 Row │ nlv    prior   y1
     │ Int64  Symbol  Float64
─────┼─────────────────────────
   1 │     0  unif    0.666667
   2 │     1  unif    0.369484
   3 │     2  unif    0.206274
   4 │     3  unif    0.182826
   5 │     4  unif    0.154149
   6 │     5  unif    0.118162
   7 │     6  unif    0.112475
   8 │     7  unif    0.114894
  ⋮  │   ⋮      ⋮        ⋮
  25 │    24  unif    0.124104
  26 │    25  unif    0.124332
  27 │    26  unif    0.123903
  28 │    27  unif    0.12383
  29 │    28  unif    0.125999
  30 │    29  unif    0.123375
  31 │    30  unif    0.12418
                16 rows omitted
…
