tecator - Gridscore all models
…
julia> nlv = 0:20
0:20

julia> pars = mpar(scal = [false; true])
(scal = Bool[0, 1],)

julia> length(pars[1])
2

julia> model = plskern()
Jchemo.JchemoModel{typeof(plskern), Base.Pairs{Symbol, Union{}, Tuple{}, @NamedTuple{}}}(Jchemo.plskern, nothing, Base.Pairs{Symbol, Union{}, Tuple{}, @NamedTuple{}}())

julia> res = gridscore(model, Xcal, ycal, Xval, yval; score = rmsep, pars, nlv)
42×3 DataFrame
 Row │ scal   nlv    y1
     │ Bool   Int64  Float64
─────┼────────────────────────
   1 │ false      0  13.9835
   2 │ false      1   2.73068
   3 │ false      2   2.60506
   4 │ false      3   2.50108
   5 │ false      4   2.52736
   6 │ false      5   2.43115
   7 │ false      6   2.50356
   8 │ false      7   2.50315
  ⋮  │   ⋮      ⋮       ⋮
  36 │  true     14   2.18836
  37 │  true     15   2.36848
  38 │  true     16   1.94946
  39 │  true     17   1.91916
  40 │  true     18   2.13309
  41 │  true     19   2.4625
  42 │  true     20   2.08035
               27 rows omitted
…
julia> model = rr()
Jchemo.JchemoModel{typeof(rr), Base.Pairs{Symbol, Union{}, Tuple{}, @NamedTuple{}}}(Jchemo.rr, nothing, Base.Pairs{Symbol, Union{}, Tuple{}, @NamedTuple{}}())

julia> res = gridscore(model, Xcal, ycal, Xval, yval; score = rmsep, lb)
181×2 DataFrame
 Row │ lb              y1
     │ Float64         Float64
─────┼──────────────────────────
   1 │    1.0e-15       8.15052
   2 │    1.25893e-15   8.15052
   3 │    1.58489e-15   8.15051
   4 │    1.99526e-15   8.15051
   5 │    2.51189e-15   8.15051
   6 │    3.16228e-15   8.15051
   7 │    3.98107e-15   8.15051
   8 │    5.01187e-15   8.15051
  ⋮  │       ⋮            ⋮
 175 │  251.189        13.9835
 176 │  316.228        13.9835
 177 │  398.107        13.9835
 178 │  501.187        13.9835
 179 │  630.957        13.9835
 180 │  794.328        13.9835
 181 │ 1000.0          13.9835
                166 rows omitted
…
Covselr

julia> nlv = 0:20
0:20

julia> pars = mpar(msparse = [:hard], nvar = [1])
(msparse = Any[:hard], nvar = Any[1])

julia> model = splsr()
Jchemo.JchemoModel{typeof(splsr), Base.Pairs{Symbol, Union{}, Tuple{}, @NamedTuple{}}}(Jchemo.splsr, nothing, Base.Pairs{Symbol, Union{}, Tuple{}, @NamedTuple{}}())

julia> res = gridscore(model, Xcal, ycal, Xval, yval; score = rmsep, pars, nlv, verbose = false)
21×4 DataFrame
 Row │ msparse  nvar  nlv    y1
     │ Any      Any   Int64  Float64
─────┼────────────────────────────────
   1 │ hard     1         0  13.9835
   2 │ hard     1         1   2.66889
   3 │ hard     1         2   2.62958
   4 │ hard     1         3   2.49765
   5 │ hard     1         4   2.43156
   6 │ hard     1         5   2.50253
   7 │ hard     1         6   2.49578
   8 │ hard     1         7   2.54192
  ⋮  │    ⋮      ⋮      ⋮       ⋮
  15 │ hard     1        14   3.28249
  16 │ hard     1        15   2.69061
  17 │ hard     1        16   2.98831
  18 │ hard     1        17   2.13759
  19 │ hard     1        18   2.41069
  20 │ hard     1        19   2.09472
  21 │ hard     1        20   1.99464
                        6 rows omitted
…
julia> pars = mpar(gamma = gamma)
(gamma = [0.001, 0.010000000000000002, 0.1, 1.0, 10.0, 100.0, 1000.0, 10000.0, 100000.0],)

julia> length(pars[1])
9

julia> model = krr()
Jchemo.JchemoModel{typeof(krr), Base.Pairs{Symbol, Union{}, Tuple{}, @NamedTuple{}}}(Jchemo.krr, nothing, Base.Pairs{Symbol, Union{}, Tuple{}, @NamedTuple{}}())

julia> res = gridscore(model, Xcal, ycal, Xval, yval; score = rmsep, pars, lb, verbose = false)
189×3 DataFrame
 Row │ gamma       lb            y1
     │ Float64     Float64       Float64
─────┼─────────────────────────────────────
   1 │      0.001       1.0e-15  236.516
   2 │      0.001       1.0e-14  236.516
   3 │      0.001       1.0e-13  236.516
   4 │      0.001       1.0e-12  236.516
   5 │      0.001       1.0e-11  236.515
   6 │      0.001       1.0e-10  236.398
   7 │      0.001       1.0e-9   225.216
   8 │      0.001       1.0e-8    35.3569
  ⋮  │     ⋮            ⋮            ⋮
 183 │ 100000.0         0.1       11.8357
 184 │ 100000.0         1.0       13.905
 185 │ 100000.0        10.0       13.9827
 186 │ 100000.0       100.0       13.9835
 187 │ 100000.0      1000.0       13.9835
 188 │ 100000.0     10000.0       13.9835
 189 │ 100000.0    100000.0       13.9835
                           174 rows omitted
…
julia> pars = mpar(gamma = gamma)
(gamma = [0.001, 0.010000000000000002, 0.1, 1.0, 10.0, 100.0, 1000.0, 10000.0, 100000.0],)

julia> length(pars[1])
9

julia> model = kplsr()
Jchemo.JchemoModel{typeof(kplsr), Base.Pairs{Symbol, Union{}, Tuple{}, @NamedTuple{}}}(Jchemo.kplsr, nothing, Base.Pairs{Symbol, Union{}, Tuple{}, @NamedTuple{}}())

julia> res = gridscore(model, Xcal, ycal, Xval, yval; score = rmsep, pars, nlv, verbose = false)
279×3 DataFrame
 Row │ gamma       nlv    y1
     │ Float64     Int64  Float64
─────┼─────────────────────────────
   1 │      0.001      0  13.9835
   2 │      0.001      1   2.73068
   3 │      0.001      2   2.60504
   4 │      0.001      3   2.501
   5 │      0.001      4   2.52721
   6 │      0.001      5   2.43078
   7 │      0.001      6   2.50327
   8 │      0.001      7   2.50248
  ⋮  │     ⋮         ⋮       ⋮
 273 │ 100000.0       24  11.0333
 274 │ 100000.0       25  11.0332
 275 │ 100000.0       26  11.0332
 276 │ 100000.0       27  11.0332
 277 │ 100000.0       28  11.0332
 278 │ 100000.0       29  11.0332
 279 │ 100000.0       30  11.0332
                   264 rows omitted
…
julia> pars = mpar(gamma = gamma)
(gamma = [0.001, 0.010000000000000002, 0.1, 1.0, 10.0, 100.0, 1000.0, 10000.0, 100000.0],)

julia> length(pars[1])
9

julia> model = dkplsr()
Jchemo.JchemoModel{typeof(dkplsr), Base.Pairs{Symbol, Union{}, Tuple{}, @NamedTuple{}}}(Jchemo.dkplsr, nothing, Base.Pairs{Symbol, Union{}, Tuple{}, @NamedTuple{}}())

julia> res = gridscore(model, Xcal, ycal, Xval, yval; score = rmsep, pars, nlv, verbose = false)
279×3 DataFrame
 Row │ gamma       nlv    y1
     │ Float64     Int64  Float64
─────┼─────────────────────────────
   1 │      0.001      0  13.9835
   2 │      0.001      1   5.58748
   3 │      0.001      2   2.08289
   4 │      0.001      3   1.65057
   5 │      0.001      4   1.54703
   6 │      0.001      5   1.78417
   7 │      0.001      6   1.6275
   8 │      0.001      7   1.68606
  ⋮  │     ⋮         ⋮       ⋮
 273 │ 100000.0       24  10.6653
 274 │ 100000.0       25  10.6653
 275 │ 100000.0       26  10.6691
 276 │ 100000.0       27  10.6696
 277 │ 100000.0       28  10.6702
 278 │ 100000.0       29  10.6708
 279 │ 100000.0       30  10.6712
                   264 rows omitted
…
:nlvdis => 15:metric => :mah:h => 6.0:k => 50
:nlvdis => 10:metric => :mah:h => Inf:k => 50
:nlvdis => 15:metric => :mah:h => Inf:k => 50
:nlvdis => 10:metric => :mah:h => 1.0:k => 100
:nlvdis => 15:metric => :mah:h => 1.0:k => 100
:nlvdis => 10:metric => :mah:h => 2.0:k => 100
:nlvdis => 15:metric => :mah:h => 2.0:k => 100
:nlvdis => 10:metric => :mah:h => 4.0:k => 100
:nlvdis => 15:metric => :mah:h => 4.0:k => 100
:nlvdis => 10:metric => :mah:h => 6.0:k => 100
:nlvdis => 15:metric => :mah:h => 6.0:k => 100
:nlvdis => 10:metric => :mah:h => Inf:k => 100
:nlvdis => 15:metric => :mah:h => Inf:k => 100
-- End.
480×6 DataFrame
 Row │ nlvdis  metric  h    k    nlv    y1
     │ Any     Any     Any  Any  Int64  Float64
─────┼──────────────────────────────────────────
   1 │ 10      mah     1.0  30       0  6.22701
   2 │ 10      mah     1.0  30       1  1.18723
   3 │ 10      mah     1.0  30       2  1.11411
   4 │ 10      mah     1.0  30       3  1.04202
   5 │ 10      mah     1.0  30       4  1.45867
   6 │ 10      mah     1.0  30       5  1.43276
   7 │ 10      mah     1.0  30       6  1.55123
   8 │ 10      mah     1.0  30       7  1.8492
  ⋮  │   ⋮       ⋮      ⋮    ⋮     ⋮       ⋮
 474 │ 15      mah     Inf  100      9  2.27473
 475 │ 15      mah     Inf  100     10  2.23594
 476 │ 15      mah     Inf  100     11  2.48599
 477 │ 15      mah     Inf  100     12  2.30621
 478 │ 15      mah     Inf  100     13  2.55155
 479 │ 15      mah     Inf  100     14  3.04841
 480 │ 15      mah     Inf  100     15  2.773
                                465 rows omitted
…
:nlv => 1:10:nlvdis => 10:metric => :mah:h => 5.0:k => 100
:nlv => 0:5:nlvdis => 15:metric => :mah:h => 5.0:k => 100
:nlv => 0:10:nlvdis => 15:metric => :mah:h => 5.0:k => 100
:nlv => 1:5:nlvdis => 15:metric => :mah:h => 5.0:k => 100
:nlv => 1:10:nlvdis => 15:metric => :mah:h => 5.0:k => 100
:nlv => 0:5:nlvdis => 10:metric => :mah:h => Inf:k => 100
:nlv => 0:10:nlvdis => 10:metric => :mah:h => Inf:k => 100
:nlv => 1:5:nlvdis => 10:metric => :mah:h => Inf:k => 100
:nlv => 1:10:nlvdis => 10:metric => :mah:h => Inf:k => 100
:nlv => 0:5:nlvdis => 15:metric => :mah:h => Inf:k => 100
:nlv => 0:10:nlvdis => 15:metric => :mah:h => Inf:k => 100
:nlv => 1:5:nlvdis => 15:metric => :mah:h => Inf:k => 100
:nlv => 1:10:nlvdis => 15:metric => :mah:h => Inf:k => 100
-- End.
96×6 DataFrame
 Row │ nlv   nlvdis  metric  h    k    y1
     │ Any   Any     Any     Any  Any  Float64
─────┼──────────────────────────────────────────
   1 │ 0:5   10      mah     1.0  30   1.54762
   2 │ 0:10  10      mah     1.0  30   1.4935
   3 │ 1:5   10      mah     1.0  30   0.935166
   4 │ 1:10  10      mah     1.0  30   1.26994
   5 │ 0:5   15      mah     1.0  30   2.13358
   6 │ 0:10  15      mah     1.0  30   1.67591
   7 │ 1:5   15      mah     1.0  30   1.84244
   8 │ 1:10  15      mah     1.0  30   1.56552
  ⋮  │  ⋮      ⋮       ⋮      ⋮    ⋮      ⋮
  90 │ 0:10  10      mah     Inf  100  2.76626
  91 │ 1:5   10      mah     Inf  100  2.46397
  92 │ 1:10  10      mah     Inf  100  2.36376
  93 │ 0:5   15      mah     Inf  100  3.38194
  94 │ 0:10  15      mah     Inf  100  2.77468
  95 │ 1:5   15      mah     Inf  100  2.47551
  96 │ 1:10  15      mah     Inf  100  2.37368
                                 81 rows omitted
…
julia> pars = mpar(nlvdis = nlvdis, metric = metric, h = h, k = k)
(nlvdis = Any[15, 20, 15, 20, 15, 20, 15, 20, 15, 20  …  15, 20, 15, 20, 15, 20, 15, 20, 15, 20], metric = Any[:eucl, :eucl, :mah, :mah, :eucl, :eucl, :mah, :mah, :eucl, :eucl  …  :mah, :mah, :eucl, :eucl, :mah, :mah, :eucl, :eucl, :mah, :mah], h = Any[1.0, 1.0, 1.0, 1.0, 2.0, 2.0, 2.0, 2.0, 4.0, 4.0  …  4.0, 4.0, 6.0, 6.0, 6.0, 6.0, Inf, Inf, Inf, Inf], k = Any[1, 1, 1, 1, 1, 1, 1, 1, 1, 1  …  45, 45, 45, 45, 45, 45, 45, 45, 45, 45])

julia> length(pars[1])
120

julia> model = knnr()
Jchemo.JchemoModel{typeof(knnr), Base.Pairs{Symbol, Union{}, Tuple{}, @NamedTuple{}}}(Jchemo.knnr, nothing, Base.Pairs{Symbol, Union{}, Tuple{}, @NamedTuple{}}())

julia> res = gridscore(model, Xcal, ycal, Xval, yval; score = rmsep, pars)
120×5 DataFrame
 Row │ nlvdis  metric  h    k    y1
     │ Any     Any     Any  Any  Float64
─────┼───────────────────────────────────
   1 │ 15      eucl    1.0  1    2.06846
   2 │ 20      eucl    1.0  1    2.06846
   3 │ 15      mah     1.0  1    2.846
   4 │ 20      mah     1.0  1    2.846
   5 │ 15      eucl    2.0  1    2.06846
   6 │ 20      eucl    2.0  1    2.06846
   7 │ 15      mah     2.0  1    2.846
   8 │ 20      mah     2.0  1    2.846
  ⋮  │   ⋮       ⋮      ⋮    ⋮      ⋮
 114 │ 20      eucl    6.0  45   8.3829
 115 │ 15      mah     6.0  45   9.01982
 116 │ 20      mah     6.0  45   9.01982
 117 │ 15      eucl    Inf  45   9.07626
 118 │ 20      eucl    Inf  45   9.07626
 119 │ 15      mah     Inf  45   9.78312
 120 │ 20      mah     Inf  45   9.78312
                         105 rows omitted
…
julia> model = rfr()
Jchemo.JchemoModel{typeof(rfr), Base.Pairs{Symbol, Union{}, Tuple{}, @NamedTuple{}}}(Jchemo.rfr, nothing, Base.Pairs{Symbol, Union{}, Tuple{}, @NamedTuple{}}())

julia> pars = mpar(n_trees = n_trees, n_subfeatures = n_subfeatures, max_depth = max_depth)
(n_trees = Real[200, 200, 200, 200, 200, 200, 200, 200, 200, 200  …  200, 200, 200, 200, 200, 200, 200, 200, 200, 200], n_subfeatures = Real[10.0, 20.0, 30.0, 40.0, 50.0, 60.0, 69.99999999999999, 80.00000000000001, 90.0, 100.0  …  10.0, 20.0, 30.0, 40.0, 50.0, 60.0, 69.99999999999999, 80.00000000000001, 90.0, 100.0], max_depth = Real[6, 6, 6, 6, 6, 6, 6, 6, 6, 6  …  2000, 2000, 2000, 2000, 2000, 2000, 2000, 2000, 2000, 2000])

julia> length(pars[1])
50

julia> res = gridscore(model, Xcal, ycal, Xval, yval; score = rmsep, pars)
50×4 DataFrame
 Row │ n_trees  n_subfeatures  max_depth  y1
     │ Real     Real           Real       Float64
─────┼────────────────────────────────────────────
   1 │     200           10.0          6  2.4103
   2 │     200           20.0          6  2.35818
   3 │     200           30.0          6  2.42569
   4 │     200           40.0          6  2.19757
   5 │     200           50.0          6  2.31443
   6 │     200           60.0          6  2.3543
   7 │     200           70.0          6  2.34413
   8 │     200           80.0          6  2.32733
  ⋮  │    ⋮           ⋮            ⋮         ⋮
  44 │     200           40.0       2000  2.45165
  45 │     200           50.0       2000  2.29732
  46 │     200           60.0       2000  2.18804
  47 │     200           70.0       2000  2.30027
  48 │     200           80.0       2000  2.27223
  49 │     200           90.0       2000  2.23711
  50 │     200          100.0       2000  2.31446
                                   35 rows omitted
…
