tecator - Gridcv all models
…
julia> nlv = 0:50
0:50

julia> pars = mpar(scal = [false; true])
(scal = Bool[0, 1],)

julia> length(pars[1])
2

julia> model = plskern()
Jchemo.JchemoModel{typeof(plskern), Base.Pairs{Symbol, Union{}, Tuple{}, @NamedTuple{}}}(Jchemo.plskern, nothing, Base.Pairs{Symbol, Union{}, Tuple{}, @NamedTuple{}}())

julia> res = gridcv(model, Xtrain, ytrain; segm, score = rmsep, pars, nlv).res
102×3 DataFrame
 Row │ nlv    scal   y1
     │ Int64  Bool   Float64
─────┼────────────────────────
   1 │     0  false  12.6354
   2 │     0   true  12.6354
   3 │     1  false   2.50513
   4 │     1   true   2.7568
   5 │     2  false   2.34778
   6 │     2   true   2.37427
   7 │     3  false   2.3016
   8 │     3   true   2.41767
  ⋮  │   ⋮      ⋮       ⋮
  96 │    47   true   4.94951
  97 │    48  false   5.54075
  98 │    48   true   5.10675
  99 │    49  false   5.66866
 100 │    49   true   5.31135
 101 │    50  false   5.78328
 102 │    50   true   5.4695
               87 rows omitted
…
julia> model = rr()
Jchemo.JchemoModel{typeof(rr), Base.Pairs{Symbol, Union{}, Tuple{}, @NamedTuple{}}}(Jchemo.rr, nothing, Base.Pairs{Symbol, Union{}, Tuple{}, @NamedTuple{}}())

julia> res = gridcv(model, Xtrain, ytrain; segm, score = rmsep, lb).res
181×2 DataFrame
 Row │ lb              y1
     │ Float64         Float64
─────┼──────────────────────────
   1 │    1.0e-15       8.16378
   2 │    1.25893e-15   8.16378
   3 │    1.58489e-15   8.16378
   4 │    1.99526e-15   8.16378
   5 │    2.51189e-15   8.16378
   6 │    3.16228e-15   8.16378
   7 │    3.98107e-15   8.16378
   8 │    5.01187e-15   8.16378
  ⋮  │       ⋮            ⋮
 175 │  251.189        12.6354
 176 │  316.228        12.6354
 177 │  398.107        12.6354
 178 │  501.187        12.6354
 179 │  630.957        12.6354
 180 │  794.328        12.6354
 181 │ 1000.0          12.6354
                166 rows omitted
…
Covselr

julia> nlv = 0:20
0:20

julia> pars = mpar(msparse = [:hard], nvar = [1])
(msparse = Any[:hard], nvar = Any[1])

julia> model = splskern()
Jchemo.JchemoModel{typeof(splskern), Base.Pairs{Symbol, Union{}, Tuple{}, @NamedTuple{}}}(Jchemo.splskern, nothing, Base.Pairs{Symbol, Union{}, Tuple{}, @NamedTuple{}}())

julia> res = gridcv(model, Xtrain, ytrain; segm, score = rmsep, pars, nlv, verbose = false).res
21×4 DataFrame
 Row │ nlv    msparse  nvar  y1
     │ Int64  Any      Any   Float64
─────┼────────────────────────────────
   1 │     0  hard     1     12.6354
   2 │     1  hard     1      2.50513
   3 │     2  hard     1      2.34778
   4 │     3  hard     1      2.3016
   5 │     4  hard     1      2.25211
   6 │     5  hard     1      2.25683
   7 │     6  hard     1      2.23702
   8 │     7  hard     1      2.25268
  ⋮  │   ⋮       ⋮      ⋮       ⋮
  15 │    14  hard     1      2.68723
  16 │    15  hard     1      2.70703
  17 │    16  hard     1      2.70157
  18 │    17  hard     1      2.69918
  19 │    18  hard     1      2.69413
  20 │    19  hard     1      2.7021
  21 │    20  hard     1      2.86335
                        6 rows omitted
…
julia> pars = mpar(gamma = gamma)
(gamma = [0.001, 0.010000000000000002, 0.1, 1.0, 10.0, 100.0, 1000.0, 10000.0, 100000.0],)

julia> length(pars[1])
9

julia> model = krr()
Jchemo.JchemoModel{typeof(krr), Base.Pairs{Symbol, Union{}, Tuple{}, @NamedTuple{}}}(Jchemo.krr, nothing, Base.Pairs{Symbol, Union{}, Tuple{}, @NamedTuple{}}())

julia> res = gridcv(model, Xtrain, ytrain; segm, score = rmsep, pars, lb, verbose = false).res
189×3 DataFrame
 Row │ lb            gamma       y1
     │ Float64       Float64     Float64
─────┼─────────────────────────────────────
   1 │      1.0e-15       0.001  951.0
   2 │      1.0e-14       0.001  951.0
   3 │      1.0e-13       0.001  951.0
   4 │      1.0e-12       0.001  950.993
   5 │      1.0e-11       0.001  950.314
   6 │      1.0e-10       0.001  889.697
   7 │      1.0e-9        0.001  308.451
   8 │      1.0e-8        0.001   25.3689
  ⋮  │      ⋮            ⋮           ⋮
 183 │      0.1      100000.0     10.244
 184 │      1.0      100000.0     12.5533
 185 │     10.0      100000.0     12.6346
 186 │    100.0      100000.0     12.6354
 187 │   1000.0      100000.0     12.6354
 188 │  10000.0      100000.0     12.6354
 189 │ 100000.0      100000.0     12.6354
                           174 rows omitted
…
julia> pars = mpar(gamma = gamma)
(gamma = [0.001, 0.010000000000000002, 0.1, 1.0, 10.0, 100.0, 1000.0, 10000.0, 100000.0],)

julia> length(pars[1])
9

julia> model = kplsr()
Jchemo.JchemoModel{typeof(kplsr), Base.Pairs{Symbol, Union{}, Tuple{}, @NamedTuple{}}}(Jchemo.kplsr, nothing, Base.Pairs{Symbol, Union{}, Tuple{}, @NamedTuple{}}())

julia> res = gridcv(model, Xtrain, ytrain; segm, score = rmsep, pars, nlv, verbose = false).res
279×3 DataFrame
 Row │ nlv    gamma       y1
     │ Int64  Float64     Float64
─────┼─────────────────────────────
   1 │     0       0.001  12.6354
   2 │     1       0.001   2.50513
   3 │     2       0.001   2.34776
   4 │     3       0.001   2.30155
   5 │     4       0.001   2.25194
   6 │     5       0.001   2.25661
   7 │     6       0.001   2.23648
   8 │     7       0.001   2.25129
  ⋮  │   ⋮        ⋮          ⋮
 273 │    24  100000.0     9.24161
 274 │    25  100000.0     9.24163
 275 │    26  100000.0     9.24163
 276 │    27  100000.0     9.24163
 277 │    28  100000.0     9.24163
 278 │    29  100000.0     9.24163
 279 │    30  100000.0     9.24163
                   264 rows omitted
…
julia> pars = mpar(gamma = gamma)
(gamma = [0.001, 0.010000000000000002, 0.1, 1.0, 10.0, 100.0, 1000.0, 10000.0, 100000.0],)

julia> length(pars[1])
9

julia> model = dkplsr()
Jchemo.JchemoModel{typeof(dkplsr), Base.Pairs{Symbol, Union{}, Tuple{}, @NamedTuple{}}}(Jchemo.dkplsr, nothing, Base.Pairs{Symbol, Union{}, Tuple{}, @NamedTuple{}}())

julia> res = gridcv(model, Xtrain, ytrain; segm, score = rmsep, pars, nlv, verbose = false).res
279×3 DataFrame
 Row │ nlv    gamma       y1
     │ Int64  Float64     Float64
─────┼─────────────────────────────
   1 │     0       0.001  12.6354
   2 │     1       0.001   4.89484
   3 │     2       0.001   1.96628
   4 │     3       0.001   1.59579
   5 │     4       0.001   1.62342
   6 │     5       0.001   1.61986
   7 │     6       0.001   1.54524
   8 │     7       0.001   1.50107
  ⋮  │   ⋮        ⋮          ⋮
 273 │    24  100000.0     9.11772
 274 │    25  100000.0     9.11873
 275 │    26  100000.0     9.11957
 276 │    27  100000.0     9.12053
 277 │    28  100000.0     9.12119
 278 │    29  100000.0     9.1218
 279 │    30  100000.0     9.12271
                   264 rows omitted
…
julia> nlv = 0:15
0:15

julia> pars = mpar(nlvdis = nlvdis, metric = metric, h = h, k = k)
(nlvdis = Any[10, 15, 10, 15, 10, 15, 10, 15, 10, 15  …  10, 15, 10, 15, 10, 15, 10, 15, 10, 15], metric = Any[:mah, :mah, :mah, :mah, :mah, :mah, :mah, :mah, :mah, :mah  …  :mah, :mah, :mah, :mah, :mah, :mah, :mah, :mah, :mah, :mah], h = Any[1.0, 1.0, 2.0, 2.0, 4.0, 4.0, 6.0, 6.0, Inf, Inf  …  1.0, 1.0, 2.0, 2.0, 4.0, 4.0, 6.0, 6.0, Inf, Inf], k = Any[30, 30, 30, 30, 30, 30, 30, 30, 30, 30  …  100, 100, 100, 100, 100, 100, 100, 100, 100, 100])

julia> length(pars[1])
30

julia> model = lwplsr()
Jchemo.JchemoModel{typeof(lwplsr), Base.Pairs{Symbol, Union{}, Tuple{}, @NamedTuple{}}}(Jchemo.lwplsr, nothing, Base.Pairs{Symbol, Union{}, Tuple{}, @NamedTuple{}}())

julia> res = gridcv(model, Xtrain, ytrain; segm, score = rmsep, pars, nlv, verbose = true).res
/ rep=1 segm=1 segm=2 segm=3 segm=4 / rep=2 segm=1 segm=2 segm=3 segm=4 / rep=3 segm=1 segm=2 segm=3 segm=4 / rep=4 segm=1 segm=2 segm=3 segm=4 / rep=5 segm=1 segm=2 segm=3 segm=4 / rep=6 segm=1 segm=2 segm=3 segm=4 / rep=7 segm=1 segm=2 segm=3 segm=4 / rep=8 segm=1 segm=2 segm=3 segm=4 / rep=9 segm=1 segm=2 segm=3 segm=4 / rep=10 segm=1 segm=2 segm=3 segm=4 / rep=11 segm=1 segm=2 segm=3 segm=4 / rep=12 segm=1 segm=2 segm=3 segm=4 / rep=13 segm=1 segm=2 segm=3 segm=4 / rep=14 segm=1 segm=2 segm=3 segm=4 / rep=15 segm=1 segm=2 segm=3 segm=4 / rep=16 segm=1 segm=2 segm=3 segm=4 / rep=17 segm=1 segm=2 segm=3 segm=4 / rep=18 segm=1 segm=2 segm=3 segm=4 / rep=19 segm=1 segm=2 segm=3 segm=4 / rep=20 segm=1 segm=2 segm=3 segm=4 / End.
480×6 DataFrame
 Row │ nlv    nlvdis  metric  h    k    y1
     │ Int64  Any     Any     Any  Any  Float64
─────┼──────────────────────────────────────────
   1 │     0  10      mah     1.0  30   5.21191
   2 │     1  10      mah     1.0  30   1.31573
   3 │     2  10      mah     1.0  30   1.22373
   4 │     3  10      mah     1.0  30   1.26441
   5 │     4  10      mah     1.0  30   1.35227
   6 │     5  10      mah     1.0  30   1.44587
   7 │     6  10      mah     1.0  30   1.54549
   8 │     7  10      mah     1.0  30   1.70088
  ⋮  │   ⋮      ⋮       ⋮      ⋮    ⋮      ⋮
 474 │     9  15      mah     Inf  100  2.18103
 475 │    10  15      mah     Inf  100  2.18917
 476 │    11  15      mah     Inf  100  2.21761
 477 │    12  15      mah     Inf  100  2.3688
 478 │    13  15      mah     Inf  100  2.54901
 479 │    14  15      mah     Inf  100  2.68185
 480 │    15  15      mah     Inf  100  2.67976
                                465 rows omitted
…
julia> pars = mpar(nlv = nlv, nlvdis = nlvdis, metric = metric, h = h, k = k)
(nlv = Any[0:5, 0:10, 1:5, 1:10, 0:5, 0:10, 1:5, 1:10, 0:5, 0:10  …  1:5, 1:10, 0:5, 0:10, 1:5, 1:10, 0:5, 0:10, 1:5, 1:10], nlvdis = Any[10, 10, 10, 10, 15, 15, 15, 15, 10, 10  …  15, 15, 10, 10, 10, 10, 15, 15, 15, 15], metric = Any[:mah, :mah, :mah, :mah, :mah, :mah, :mah, :mah, :mah, :mah  …  :mah, :mah, :mah, :mah, :mah, :mah, :mah, :mah, :mah, :mah], h = Any[1.0, 1.0, 1.0, 1.0, 1.0, 1.0, 1.0, 1.0, 2.0, 2.0  …  5.0, 5.0, Inf, Inf, Inf, Inf, Inf, Inf, Inf, Inf], k = Any[30, 30, 30, 30, 30, 30, 30, 30, 30, 30  …  100, 100, 100, 100, 100, 100, 100, 100, 100, 100])

julia> length(pars[1])
96

julia> model = lwplsravg()
Jchemo.JchemoModel{typeof(lwplsravg), Base.Pairs{Symbol, Union{}, Tuple{}, @NamedTuple{}}}(Jchemo.lwplsravg, nothing, Base.Pairs{Symbol, Union{}, Tuple{}, @NamedTuple{}}())

julia> res = gridcv(model, Xtrain, ytrain; segm, score = rmsep, pars, verbose = true).res
/ rep=1 segm=1 segm=2 segm=3 segm=4 / rep=2 segm=1 segm=2 segm=3 segm=4 / rep=3 segm=1 segm=2 segm=3 segm=4 / rep=4 segm=1 segm=2 segm=3 segm=4 / rep=5 segm=1 segm=2 segm=3 segm=4 / rep=6 segm=1 segm=2 segm=3 segm=4 / rep=7 segm=1 segm=2 segm=3 segm=4 / rep=8 segm=1 segm=2 segm=3 segm=4 / rep=9 segm=1 segm=2 segm=3 segm=4 / rep=10 segm=1 segm=2 segm=3 segm=4 / rep=11 segm=1 segm=2 segm=3 segm=4 / rep=12 segm=1 segm=2 segm=3 segm=4 / rep=13 segm=1 segm=2 segm=3 segm=4 / rep=14 segm=1 segm=2 segm=3 segm=4 / rep=15 segm=1 segm=2 segm=3 segm=4 / rep=16 segm=1 segm=2 segm=3 segm=4 / rep=17 segm=1 segm=2 segm=3 segm=4 / rep=18 segm=1 segm=2 segm=3 segm=4 / rep=19 segm=1 segm=2 segm=3 segm=4 / rep=20 segm=1 segm=2 segm=3 segm=4 / End.
96×6 DataFrame
 Row │ nlv   nlvdis  metric  h    k    y1
     │ Any   Any     Any     Any  Any  Float64
─────┼─────────────────────────────────────────
   1 │ 0:5   10      mah     1.0  30   1.49863
   2 │ 0:10  10      mah     1.0  30   1.42968
   3 │ 1:5   10      mah     1.0  30   1.19562
   4 │ 1:10  10      mah     1.0  30   1.34872
   5 │ 0:5   15      mah     1.0  30   1.63202
   6 │ 0:10  15      mah     1.0  30   1.48205
   7 │ 1:5   15      mah     1.0  30   1.2634
   8 │ 1:10  15      mah     1.0  30   1.415
  ⋮  │  ⋮      ⋮       ⋮      ⋮    ⋮      ⋮
  90 │ 0:10  10      mah     Inf  100  2.3736
  91 │ 1:5   10      mah     Inf  100  2.20407
  92 │ 1:10  10      mah     Inf  100  2.12262
  93 │ 0:5   15      mah     Inf  100  3.0058
  94 │ 0:10  15      mah     Inf  100  2.38277
  95 │ 1:5   15      mah     Inf  100  2.2116
  96 │ 1:10  15      mah     Inf  100  2.13164
                                81 rows omitted
…
julia> pars = mpar(nlvdis = nlvdis, metric = metric, h = h, k = k)
(nlvdis = Any[15, 20, 15, 20, 15, 20, 15, 20, 15, 20  …  15, 20, 15, 20, 15, 20, 15, 20, 15, 20], metric = Any[:eucl, :eucl, :mah, :mah, :eucl, :eucl, :mah, :mah, :eucl, :eucl  …  :mah, :mah, :eucl, :eucl, :mah, :mah, :eucl, :eucl, :mah, :mah], h = Any[1.0, 1.0, 1.0, 1.0, 2.0, 2.0, 2.0, 2.0, 4.0, 4.0  …  4.0, 4.0, 6.0, 6.0, 6.0, 6.0, Inf, Inf, Inf, Inf], k = Any[1, 1, 1, 1, 1, 1, 1, 1, 1, 1  …  45, 45, 45, 45, 45, 45, 45, 45, 45, 45])

julia> length(pars[1])
120

julia> model = knnr()
Jchemo.JchemoModel{typeof(knnr), Base.Pairs{Symbol, Union{}, Tuple{}, @NamedTuple{}}}(Jchemo.knnr, nothing, Base.Pairs{Symbol, Union{}, Tuple{}, @NamedTuple{}}())

julia> res = gridcv(model, Xtrain, ytrain; segm, score = rmsep, pars).res
120×5 DataFrame
 Row │ nlvdis  metric  h    k    y1
     │ Any     Any     Any  Any  Float64
─────┼───────────────────────────────────
   1 │ 15      eucl    1.0  1    2.08975
   2 │ 20      eucl    1.0  1    2.08975
   3 │ 15      mah     1.0  1    3.55725
   4 │ 20      mah     1.0  1    3.55725
   5 │ 15      eucl    2.0  1    2.08975
   6 │ 20      eucl    2.0  1    2.08975
   7 │ 15      mah     2.0  1    3.55725
   8 │ 20      mah     2.0  1    3.55725
  ⋮  │   ⋮       ⋮      ⋮    ⋮      ⋮
 114 │ 20      eucl    6.0  45   6.28415
 115 │ 15      mah     6.0  45   7.30164
 116 │ 20      mah     6.0  45   7.30164
 117 │ 15      eucl    Inf  45   6.84359
 118 │ 20      eucl    Inf  45   6.84359
 119 │ 15      mah     Inf  45   7.91652
 120 │ 20      mah     Inf  45   7.91652
                         105 rows omitted
…
julia> pars = mpar(n_trees = n_trees, n_subfeatures = n_subfeatures, max_depth = max_depth)
(n_trees = Real[200, 200, 200, 200, 200, 200, 200, 200, 200, 200  …  200, 200, 200, 200, 200, 200, 200, 200, 200, 200], n_subfeatures = Real[10.0, 20.0, 30.0, 40.0, 50.0, 60.0, 69.99999999999999, 80.00000000000001, 90.0, 100.0  …  10.0, 20.0, 30.0, 40.0, 50.0, 60.0, 69.99999999999999, 80.00000000000001, 90.0, 100.0], max_depth = Real[6, 6, 6, 6, 6, 6, 6, 6, 6, 6  …  2000, 2000, 2000, 2000, 2000, 2000, 2000, 2000, 2000, 2000])

julia> length(pars[1])
50

julia> model = rfr()
Jchemo.JchemoModel{typeof(rfr), Base.Pairs{Symbol, Union{}, Tuple{}, @NamedTuple{}}}(Jchemo.rfr, nothing, Base.Pairs{Symbol, Union{}, Tuple{}, @NamedTuple{}}())

julia> res = gridcv(model, Xtrain, ytrain; segm, score = rmsep, pars).res
50×4 DataFrame
 Row │ n_trees  n_subfeatures  max_depth  y1
     │ Real     Real           Real       Float64
─────┼────────────────────────────────────────────
   1 │     200           10.0          6  1.89025
   2 │     200           20.0          6  1.81162
   3 │     200           30.0          6  1.78691
   4 │     200           40.0          6  1.80935
   5 │     200           50.0          6  1.79988
   6 │     200           60.0          6  1.79025
   7 │     200           70.0          6  1.79152
   8 │     200           80.0          6  1.8124
  ⋮  │    ⋮           ⋮            ⋮         ⋮
  44 │     200           40.0       2000  1.79593
  45 │     200           50.0       2000  1.80359
  46 │     200           60.0       2000  1.81567
  47 │     200           70.0       2000  1.803
  48 │     200           80.0       2000  1.82003
  49 │     200           90.0       2000  1.81531
  50 │     200          100.0       2000  1.80862
                                   35 rows omitted
…
