gridscore - tecator - Plsr
…
julia> path_jdat = dirname(dirname(pathof(JchemoData)))
"C:\\Users\\lesnoff\\.julia\\packages\\JchemoData\\mSmTv"

julia> db = joinpath(path_jdat, "data/tecator.jld2")
"C:\\Users\\lesnoff\\.julia\\packages\\JchemoData\\mSmTv\\data/tecator.jld2"

julia> @load db dat
1-element Vector{Symbol}:
 :dat

julia> @names dat
(:X, :Y)

julia> X = dat.X
178×100 DataFrame
 Row │ 850      852      854      856      858      860      862      864      ⋯
     │ Float64  Float64  Float64  Float64  Float64  Float64  Float64  Float64  ⋯
─────┼──────────────────────────────────────────────────────────────────────────
   1 │ 2.61776  2.61814  2.61859  2.61912  2.61981  2.62071  2.62186  2.62334  ⋯
   2 │ 2.83454  2.83871  2.84283  2.84705  2.85138  2.85587  2.8606   2.86566
   3 │ 2.58284  2.58458  2.58629  2.58808  2.58996  2.59192  2.59401  2.59627
   4 │ 2.82286  2.8246   2.8263   2.82814  2.83001  2.83192  2.83392  2.83606
   5 │ 2.78813  2.78989  2.79167  2.7935   2.79538  2.79746  2.79984  2.80254  ⋯
   6 │ 3.00993  3.0154   3.02086  3.02634  3.0319   3.03756  3.04341  3.04955
   7 │ 2.52582  2.52665  2.52758  2.52844  2.52944  2.53057  2.53187  2.53339
   8 │ 3.27336  3.27996  3.28646  3.293    3.29956  3.30627  3.3131   3.32006
  ⋮  │    ⋮        ⋮        ⋮        ⋮        ⋮        ⋮        ⋮        ⋮     ⋱
 172 │ 3.29881  3.30738  3.31586  3.32423  3.33257  3.34094  3.34939  3.35796  ⋯
 173 │ 2.70628  2.70826  2.71029  2.7124   2.71465  2.71706  2.71968  2.7226
 174 │ 2.66118  2.66172  2.66232  2.66297  2.66379  2.66482  2.66612  2.66783
 175 │ 3.14626  3.15166  3.15703  3.16244  3.16791  3.17348  3.17923  3.18521
 176 │ 2.57992  2.5804   2.58099  2.58175  2.58266  2.58381  2.5853   2.58719  ⋯
 177 │ 2.56875  2.56923  2.56985  2.5706   2.5715   2.57268  2.5742   2.5761
 178 │ 2.65884  2.65943  2.66023  2.66108  2.66215  2.6636   2.6655   2.66787
                                                 92 columns and 163 rows omitted

julia> Y = dat.Y
178×4 DataFrame
 Row │ water    fat      protein  typ
     │ Float64  Float64  Float64  String
─────┼───────────────────────────────────
   1 │    60.5     22.5     16.7  train
   2 │    46.0     40.1     13.5  train
   3 │    71.0      8.4     20.5  train
   4 │    72.8      5.9     20.7  train
   5 │    58.3     25.5     15.5  train
   6 │    44.0     42.7     13.7  train
   7 │    69.3     10.6     19.3  train
   8 │    61.4     19.9     17.7  train
  ⋮  │    ⋮        ⋮        ⋮       ⋮
 172 │    55.3     24.8     19.3  test
 173 │    56.6     27.2     15.7  test
 174 │    54.4     28.4     14.4  test
 175 │    53.4     31.3     15.3  test
 176 │    51.6     33.8     13.8  test
 177 │    50.3     35.5     13.2  test
 178 │    44.9     42.5     12.0  test
                         163 rows omitted
…
The best syntax to use function gridcv for models based on LVs (Plsr, Kplsr, Pcr, etc.) is to set the parameter nlv outside of the generic argument pars defining the grid. In that case, the computation  time is reduced [See the naïve and non-optimized syntax at the end of this script]. This is the same principle  when definining the parameter lb in ridge models (eg. Rr, Krr, etc.).

julia> nlv = 0:20
0:20

julia> model = plskern()
Jchemo.JchemoModel{typeof(plskern), Base.Pairs{Symbol, Union{}, Tuple{}, @NamedTuple{}}}(Jchemo.plskern, nothing, Base.Pairs{Symbol, Union{}, Tuple{}, @NamedTuple{}}())

julia> rescv = gridcv(model, Xtrain, ytrain; segm, score = rmsep, nlv) ;

julia> @names rescv
(:res, :res_rep)

julia> res = rescv.res
21×2 DataFrame
 Row │ nlv    y1
     │ Int64  Float64
─────┼─────────────────
   1 │     0  12.632
   2 │     1   2.52113
   3 │     2   2.37192
   4 │     3   2.33114
   5 │     4   2.25039
   6 │     5   2.23293
   7 │     6   2.22067
   8 │     7   2.23398
  ⋮  │   ⋮       ⋮
  15 │    14   2.79927
  16 │    15   2.93388
  17 │    16   2.89212
  18 │    17   2.86752
  19 │    18   2.89608
  20 │    19   2.98973
  21 │    20   3.17422
         6 rows omitted

julia> res_rep = rescv.res_rep
3150×4 DataFrame
  Row │ rep    segm   nlv    y1
      │ Int64  Int64  Int64  Float64
──────┼───────────────────────────────
    1 │     1      1      0  11.8137
    2 │     1      1      1   2.2122
    3 │     1      1      2   1.82024
    4 │     1      1      3   1.74763
    5 │     1      1      4   1.7272
    6 │     1      1      5   1.80198
    7 │     1      1      6   1.62613
    8 │     1      1      7   1.66728
  ⋮   │   ⋮      ⋮      ⋮       ⋮
 3144 │    50      3     14   2.24077
 3145 │    50      3     15   2.2294
 3146 │    50      3     16   2.15949
 3147 │    50      3     17   1.98962
 3148 │    50      3     18   1.96122
 3149 │    50      3     19   1.90064
 3150 │    50      3     20   2.60581
                     3135 rows omitted
…
If other parameters have to be defined in the grid, they have to be set in argument pars, such as in  the example below.

julia> pars = mpar(scal = [false; true])
(scal = Bool[0, 1],)

julia> nlv = 0:20
0:20

julia> model = plskern()
Jchemo.JchemoModel{typeof(plskern), Base.Pairs{Symbol, Union{}, Tuple{}, @NamedTuple{}}}(Jchemo.plskern, nothing, Base.Pairs{Symbol, Union{}, Tuple{}, @NamedTuple{}}())

julia> res = gridcv(model, Xtrain, ytrain; segm, score = rmsep, pars, nlv).res
42×3 DataFrame
 Row │ nlv    scal   y1
     │ Int64  Bool   Float64
─────┼────────────────────────
   1 │     0  false  12.632
   2 │     0   true  12.632
   3 │     1  false   2.52113
   4 │     1   true   2.7745
   5 │     2  false   2.37192
   6 │     2   true   2.37493
   7 │     3  false   2.33114
   8 │     3   true   2.40507
  ⋮  │   ⋮      ⋮       ⋮
  36 │    17   true   2.9605
  37 │    18  false   2.89608
  38 │    18   true   3.07647
  39 │    19  false   2.98973
  40 │    19   true   3.32413
  41 │    20  false   3.17422
  42 │    20   true   3.54036
               27 rows omitted
…
Naïve syntax to use gridcv for LV-based models

Parameter nlv can also be set in argument pars (wich is the generic approach to define the grid).  This is strictly equivalent (gives the same results) but the computations are slower.

julia> pars = mpar(nlv = 0:20)
(nlv = [0, 1, 2, 3, 4, 5, 6, 7, 8, 9  …  11, 12, 13, 14, 15, 16, 17, 18, 19, 20],)

julia> model = plskern()
Jchemo.JchemoModel{typeof(plskern), Base.Pairs{Symbol, Union{}, Tuple{}, @NamedTuple{}}}(Jchemo.plskern, nothing, Base.Pairs{Symbol, Union{}, Tuple{}, @NamedTuple{}}())

julia> gridcv(model, Xtrain, ytrain; segm, score = rmsep, pars).res
21×2 DataFrame
 Row │ nlv    y1
     │ Int64  Float64
─────┼─────────────────
   1 │     0  12.632
   2 │     1   2.52113
   3 │     2   2.37192
   4 │     3   2.33114
   5 │     4   2.25039
   6 │     5   2.23293
   7 │     6   2.22067
   8 │     7   2.23398
  ⋮  │   ⋮       ⋮
  15 │    14   2.79927
  16 │    15   2.93388
  17 │    16   2.89212
  18 │    17   2.86752
  19 │    18   2.89608
  20 │    19   2.98973
  21 │    20   3.17422
         6 rows omitted

julia> pars = mpar(nlv = 0:20, scal = [false; true])
(nlv = Integer[0, 1, 2, 3, 4, 5, 6, 7, 8, 9  …  11, 12, 13, 14, 15, 16, 17, 18, 19, 20], scal = Integer[false, false, false, false, false, false, false, false, false, false  …  true, true, true, true, true, true, true, true, true, true])

julia> model = plskern()
Jchemo.JchemoModel{typeof(plskern), Base.Pairs{Symbol, Union{}, Tuple{}, @NamedTuple{}}}(Jchemo.plskern, nothing, Base.Pairs{Symbol, Union{}, Tuple{}, @NamedTuple{}}())

julia> gridcv(model, Xtrain, ytrain; segm, score = rmsep, pars).res
42×3 DataFrame
 Row │ nlv      scal     y1
     │ Integer  Integer  Float64
─────┼────────────────────────────
   1 │       0    false  12.632
   2 │       0     true  12.632
   3 │       1    false   2.52113
   4 │       1     true   2.7745
   5 │       2    false   2.37192
   6 │       2     true   2.37493
   7 │       3    false   2.33114
   8 │       3     true   2.40507
  ⋮  │    ⋮        ⋮        ⋮
  36 │      17     true   2.9605
  37 │      18    false   2.89608
  38 │      18     true   3.07647
  39 │      19    false   2.98973
  40 │      19     true   3.32413
  41 │      20    false   3.17422
  42 │      20     true   3.54036
                   27 rows omitted
…
