gridcv - tecator - Rr
…
julia> path_jdat = dirname(dirname(pathof(JchemoData)))
"C:\\Users\\lesnoff\\.julia\\packages\\JchemoData\\mSmTv"

julia> db = joinpath(path_jdat, "data/tecator.jld2")
"C:\\Users\\lesnoff\\.julia\\packages\\JchemoData\\mSmTv\\data/tecator.jld2"

julia> @load db dat
1-element Vector{Symbol}:
 :dat

julia> @names dat
(:X, :Y)

julia> X = dat.X
178×100 DataFrame
 Row │ 850      852      854      856      858      860      862      864      ⋯
     │ Float64  Float64  Float64  Float64  Float64  Float64  Float64  Float64  ⋯
─────┼──────────────────────────────────────────────────────────────────────────
   1 │ 2.61776  2.61814  2.61859  2.61912  2.61981  2.62071  2.62186  2.62334  ⋯
   2 │ 2.83454  2.83871  2.84283  2.84705  2.85138  2.85587  2.8606   2.86566
   3 │ 2.58284  2.58458  2.58629  2.58808  2.58996  2.59192  2.59401  2.59627
   4 │ 2.82286  2.8246   2.8263   2.82814  2.83001  2.83192  2.83392  2.83606
   5 │ 2.78813  2.78989  2.79167  2.7935   2.79538  2.79746  2.79984  2.80254  ⋯
   6 │ 3.00993  3.0154   3.02086  3.02634  3.0319   3.03756  3.04341  3.04955
   7 │ 2.52582  2.52665  2.52758  2.52844  2.52944  2.53057  2.53187  2.53339
   8 │ 3.27336  3.27996  3.28646  3.293    3.29956  3.30627  3.3131   3.32006
  ⋮  │    ⋮        ⋮        ⋮        ⋮        ⋮        ⋮        ⋮        ⋮     ⋱
 172 │ 3.29881  3.30738  3.31586  3.32423  3.33257  3.34094  3.34939  3.35796  ⋯
 173 │ 2.70628  2.70826  2.71029  2.7124   2.71465  2.71706  2.71968  2.7226
 174 │ 2.66118  2.66172  2.66232  2.66297  2.66379  2.66482  2.66612  2.66783
 175 │ 3.14626  3.15166  3.15703  3.16244  3.16791  3.17348  3.17923  3.18521
 176 │ 2.57992  2.5804   2.58099  2.58175  2.58266  2.58381  2.5853   2.58719  ⋯
 177 │ 2.56875  2.56923  2.56985  2.5706   2.5715   2.57268  2.5742   2.5761
 178 │ 2.65884  2.65943  2.66023  2.66108  2.66215  2.6636   2.6655   2.66787
                                                 92 columns and 163 rows omitted

julia> Y = dat.Y
178×4 DataFrame
 Row │ water    fat      protein  typ
     │ Float64  Float64  Float64  String
─────┼───────────────────────────────────
   1 │    60.5     22.5     16.7  train
   2 │    46.0     40.1     13.5  train
   3 │    71.0      8.4     20.5  train
   4 │    72.8      5.9     20.7  train
   5 │    58.3     25.5     15.5  train
   6 │    44.0     42.7     13.7  train
   7 │    69.3     10.6     19.3  train
   8 │    61.4     19.9     17.7  train
  ⋮  │    ⋮        ⋮        ⋮       ⋮
 172 │    55.3     24.8     19.3  test
 173 │    56.6     27.2     15.7  test
 174 │    54.4     28.4     14.4  test
 175 │    53.4     31.3     15.3  test
 176 │    51.6     33.8     13.8  test
 177 │    50.3     35.5     13.2  test
 178 │    44.9     42.5     12.0  test
                         163 rows omitted
…
julia> model = rr()
Jchemo.JchemoModel{typeof(Jchemo.rr), Base.Pairs{Symbol, Union{}, Tuple{}, @NamedTuple{}}}(Jchemo.rr, nothing, Base.Pairs{Symbol, Union{}, Tuple{}, @NamedTuple{}}())

julia> rescv = gridcv(model, Xtrain, ytrain; segm, score = rmsep, lb) ;

julia> @names rescv
(:res, :res_rep)

julia> res = rescv.res
181×2 DataFrame
 Row │ lb              y1
     │ Float64         Float64
─────┼──────────────────────────
   1 │    1.0e-15       6.07384
   2 │    1.25893e-15   6.07384
   3 │    1.58489e-15   6.07384
   4 │    1.99526e-15   6.07384
   5 │    2.51189e-15   6.07384
   6 │    3.16228e-15   6.07384
   7 │    3.98107e-15   6.07384
   8 │    5.01187e-15   6.07384
  ⋮  │       ⋮            ⋮
 175 │  251.189        12.6619
 176 │  316.228        12.6619
 177 │  398.107        12.6619
 178 │  501.187        12.6619
 179 │  630.957        12.6619
 180 │  794.328        12.6619
 181 │ 1000.0          12.6619
                166 rows omitted

julia> res_rep = rescv.res_rep
5430×4 DataFrame
  Row │ rep    segm   lb              y1
      │ Int64  Int64  Float64         Float64
──────┼────────────────────────────────────────
    1 │     1      1     1.0e-15       6.64619
    2 │     1      1     1.25893e-15   6.64619
    3 │     1      1     1.58489e-15   6.64619
    4 │     1      1     1.99526e-15   6.64619
    5 │     1      1     2.51189e-15   6.64619
    6 │     1      1     3.16228e-15   6.64619
    7 │     1      1     3.98107e-15   6.64619
    8 │     1      1     5.01187e-15   6.64619
  ⋮   │   ⋮      ⋮          ⋮            ⋮
 5424 │    10      3   251.189        14.3936
 5425 │    10      3   316.228        14.3936
 5426 │    10      3   398.107        14.3936
 5427 │    10      3   501.187        14.3936
 5428 │    10      3   630.957        14.3936
 5429 │    10      3   794.328        14.3936
 5430 │    10      3  1000.0          14.3936
                              5415 rows omitted
…
julia> model = rr()
Jchemo.JchemoModel{typeof(Jchemo.rr), Base.Pairs{Symbol, Union{}, Tuple{}, @NamedTuple{}}}(Jchemo.rr, nothing, Base.Pairs{Symbol, Union{}, Tuple{}, @NamedTuple{}}())

julia> res = gridcv(model, Xtrain, ytrain; segm, score = rmsep, pars, lb).res
362×3 DataFrame
 Row │ lb              scal   y1
     │ Float64         Bool   Float64
─────┼─────────────────────────────────
   1 │    1.0e-15      false   6.07384
   2 │    1.25893e-15  false   6.07384
   3 │    1.58489e-15  false   6.07384
   4 │    1.99526e-15  false   6.07384
   5 │    2.51189e-15  false   6.07384
   6 │    3.16228e-15  false   6.07384
   7 │    3.98107e-15  false   6.07384
   8 │    5.01187e-15  false   6.07384
  ⋮  │       ⋮           ⋮       ⋮
 356 │  251.189         true  12.6495
 357 │  316.228         true  12.6541
 358 │  398.107         true  12.657
 359 │  501.187         true  12.6588
 360 │  630.957         true  12.66
 361 │  794.328         true  12.6607
 362 │ 1000.0           true  12.6611
                       347 rows omitted
…
Naïve syntax to use gridcv for ridge-based functions

Parameter lb can also be set in argument pars (wich is the generic approach to define the grid).  This is strictly equivalent (gives the same results) but the computations are slower.

julia> pars = mpar(lb = 10.0.^(-15:.1:3))
(lb = [1.0e-15, 1.2589254117941663e-15, 1.584893192461111e-15, 1.995262314968883e-15, 2.511886431509582e-15, 3.1622776601683794e-15, 3.9810717055349695e-15, 5.0118723362727146e-15, 6.309573444801943e-15, 7.943282347242822e-15  …  125.89254117941675, 158.48931924611142, 199.52623149688787, 251.18864315095797, 316.22776601683796, 398.1071705534973, 501.18723362727246, 630.957344480193, 794.3282347242813, 1000.0],)

julia> model = rr()
Jchemo.JchemoModel{typeof(Jchemo.rr), Base.Pairs{Symbol, Union{}, Tuple{}, @NamedTuple{}}}(Jchemo.rr, nothing, Base.Pairs{Symbol, Union{}, Tuple{}, @NamedTuple{}}())

julia> gridcv(model, Xtrain, ytrain; segm, score = rmsep, pars).res
181×2 DataFrame
 Row │ lb              y1
     │ Float64         Float64
─────┼──────────────────────────
   1 │    1.0e-15       6.07384
   2 │    1.25893e-15   6.07384
   3 │    1.58489e-15   6.07384
   4 │    1.99526e-15   6.07384
   5 │    2.51189e-15   6.07384
   6 │    3.16228e-15   6.07384
   7 │    3.98107e-15   6.07384
   8 │    5.01187e-15   6.07384
  ⋮  │       ⋮            ⋮
 175 │  251.189        12.6619
 176 │  316.228        12.6619
 177 │  398.107        12.6619
 178 │  501.187        12.6619
 179 │  630.957        12.6619
 180 │  794.328        12.6619
 181 │ 1000.0          12.6619
                166 rows omitted

julia> pars = mpar(lb = 10.0.^(-15:.1:3), scal = [false; true])
(lb = Real[1.0e-15, 1.2589254117941663e-15, 1.584893192461111e-15, 1.995262314968883e-15, 2.511886431509582e-15, 3.1622776601683794e-15, 3.9810717055349695e-15, 5.0118723362727146e-15, 6.309573444801943e-15, 7.943282347242822e-15  …  125.89254117941675, 158.48931924611142, 199.52623149688787, 251.18864315095797, 316.22776601683796, 398.1071705534973, 501.18723362727246, 630.957344480193, 794.3282347242813, 1000.0], scal = Real[false, false, false, false, false, false, false, false, false, false  …  true, true, true, true, true, true, true, true, true, true])

julia> model = rr()
Jchemo.JchemoModel{typeof(Jchemo.rr), Base.Pairs{Symbol, Union{}, Tuple{}, @NamedTuple{}}}(Jchemo.rr, nothing, Base.Pairs{Symbol, Union{}, Tuple{}, @NamedTuple{}}())

julia> gridcv(model, Xtrain, ytrain; segm, score = rmsep, pars).res
362×3 DataFrame
 Row │ lb              scal   y1
     │ Real            Real   Float64
─────┼─────────────────────────────────
   1 │    1.0e-15      false   6.07384
   2 │    1.25893e-15  false   6.07384
   3 │    1.58489e-15  false   6.07384
   4 │    1.99526e-15  false   6.07384
   5 │    2.51189e-15  false   6.07384
   6 │    3.16228e-15  false   6.07384
   7 │    3.98107e-15  false   6.07384
   8 │    5.01187e-15  false   6.07384
  ⋮  │       ⋮           ⋮       ⋮
 356 │  251.189         true  12.6495
 357 │  316.228         true  12.6541
 358 │  398.107         true  12.657
 359 │  501.187         true  12.6588
 360 │  630.957         true  12.66
 361 │  794.328         true  12.6607
 362 │ 1000.0           true  12.6611
                       347 rows omitted
…
