gridscore_all_models_challenge2018.jl
…
(ntot = 4075, ntrain = 3701, ntest = 374, ncal = 3401, nval = 300)

PLSR

julia> nlv = 0:50
0:50

julia> pars = mpar(scal = [false; true])
(scal = Bool[0, 1],)

julia> res = gridscorelv(Xcal, ycal, Xval, yval;
           score = rmsep, fun = plskern, nlv = nlv, 
           pars = pars)
102×3 DataFrame
 Row │ scal   nlv    y1
     │ Bool   Int64  Float64
─────┼────────────────────────
   1 │ false      0  20.2675
   2 │ false      1   8.80994
   3 │ false      2   5.19176
   4 │ false      3   3.93257
   5 │ false      4   3.70378
   6 │ false      5   3.36278
   7 │ false      6   2.93434
   8 │ false      7   2.73377
  ⋮  │   ⋮      ⋮       ⋮
  96 │  true     44   1.3326
  97 │  true     45   1.33601
  98 │  true     46   1.3351
  99 │  true     47   1.32851
 100 │  true     48   1.31929
 101 │  true     49   1.29388
 102 │  true     50   1.29102
               87 rows omitted
…
julia> res = gridscorelb(Xcal, ycal, Xval, yval;
           score = rmsep, fun = rr, lb = lb)
181×2 DataFrame
 Row │ lb              y1
     │ Float64         Float64
─────┼──────────────────────────
   1 │    1.0e-15       1.3035
   2 │    1.25893e-15   1.3035
   3 │    1.58489e-15   1.3035
   4 │    1.99526e-15   1.30349
   5 │    2.51189e-15   1.30349
   6 │    3.16228e-15   1.30348
   7 │    3.98107e-15   1.30346
   8 │    5.01187e-15   1.30344
  ⋮  │       ⋮            ⋮
 175 │  251.189        20.2675
 176 │  316.228        20.2675
 177 │  398.107        20.2675
 178 │  501.187        20.2675
 179 │  630.957        20.2675
 180 │  794.328        20.2675
 181 │ 1000.0          20.2675
                166 rows omitted

julia> zres = res[res.y1 .< 2, :]
115×2 DataFrame
 Row │ lb           y1
     │ Float64      Float64
─────┼──────────────────────
   1 │ 1.0e-15      1.3035
   2 │ 1.25893e-15  1.3035
   3 │ 1.58489e-15  1.3035
   4 │ 1.99526e-15  1.30349
   5 │ 2.51189e-15  1.30349
   6 │ 3.16228e-15  1.30348
   7 │ 3.98107e-15  1.30346
   8 │ 5.01187e-15  1.30344
  ⋮  │      ⋮          ⋮
 109 │ 6.30957e-5   1.54654
 110 │ 7.94328e-5   1.58482
 111 │ 0.0001       1.63038
 112 │ 0.000125893  1.68444
 113 │ 0.000158489  1.74763
 114 │ 0.000199526  1.82187
 115 │ 0.000251189  1.91244
            100 rows omitted
…
julia> ## End
       res = gridscorelb(zXcal, zycal, Xval, yval;
           score = rmsep, fun = krr, lb = lb, pars = pars, 
           verbose = false)
171×3 DataFrame
 Row │ gamma       lb          y1
     │ Float64     Float64     Float64
─────┼──────────────────────────────────
   1 │      0.001     1.0e-15  72.1689
   2 │      0.001     1.0e-14  72.1688
   3 │      0.001     1.0e-13  72.1686
   4 │      0.001     1.0e-12  72.1474
   5 │      0.001     1.0e-11  70.2247
   6 │      0.001     1.0e-10  55.8675
   7 │      0.001     1.0e-9   51.0479
   8 │      0.001     1.0e-8   22.0608
  ⋮  │     ⋮           ⋮          ⋮
 165 │ 100000.0       0.001     3.8345
 166 │ 100000.0       0.01      4.16017
 167 │ 100000.0       0.1      11.1552
 168 │ 100000.0       1.0      19.9778
 169 │ 100000.0      10.0      20.2595
 170 │ 100000.0     100.0      20.2624
 171 │ 100000.0    1000.0      20.2624
                        156 rows omitted
…
julia> ## End
       res = gridscorelv(zXcal, zycal, Xval, yval;
           score = rmsep, fun = kplsr, nlv = nlv, pars = pars, 
           verbose = false)
909×3 DataFrame
 Row │ gamma       nlv    y1
     │ Float64     Int64  Float64
─────┼─────────────────────────────
   1 │      0.001      0  20.2608
   2 │      0.001      1   9.65317
   3 │      0.001      2   5.12339
   4 │      0.001      3   3.96027
   5 │      0.001      4   3.7885
   6 │      0.001      5   3.40441
   7 │      0.001      6   2.9782
   8 │      0.001      7   2.75876
  ⋮  │     ⋮         ⋮       ⋮
 903 │ 100000.0       94   4.5994
 904 │ 100000.0       95   4.59934
 905 │ 100000.0       96   4.59953
 906 │ 100000.0       97   4.59963
 907 │ 100000.0       98   4.59986
 908 │ 100000.0       99   4.60007
 909 │ 100000.0      100   4.60016
                   894 rows omitted
…
julia> nlv = 1:20
1:20

julia> pars = mpar(nlvdis = nlvdis, metric = metric, 
           h = h, k = k)
(nlvdis = Any[15, 25, 15, 25, 15, 25, 15, 25, 15, 25  …  15, 25, 15, 25, 15, 25, 15, 25, 15, 25], metric = Any["mahal", "mahal", "mahal", "mahal", "mahal", "mahal", "mahal", "mahal", "mahal", "mahal"  …  "mahal", "mahal", "mahal", "mahal", "mahal", "mahal", "mahal", "mahal", "mahal", "mahal"], h = Any[1.0, 1.0, 2.0, 2.0, 4.0, 4.0, 6.0, 6.0, Inf, Inf  …  1.0, 1.0, 2.0, 2.0, 4.0, 4.0, 6.0, 6.0, Inf, Inf], k = Any[150, 150, 150, 150, 150, 150, 150, 150, 150, 150  …  1000, 1000, 1000, 1000, 1000, 1000, 1000, 1000, 1000, 1000])

julia> length(pars[1])
50

julia> res = gridscorelv(Xcal, ycal, Xval, yval;
           score = rmsep, fun = lwplsr, nlv = nlv, pars = pars, 
           verbose = false)
1000×6 DataFrame
  Row │ nlvdis  metric  h    k     nlv    y1
      │ Any     Any     Any  Any   Int64  Float64
──────┼────────────────────────────────────────────
    1 │ 15      mahal   1.0  150       1  1.57689
    2 │ 15      mahal   1.0  150       2  1.20554
    3 │ 15      mahal   1.0  150       3  1.0277
    4 │ 15      mahal   1.0  150       4  0.972523
    5 │ 15      mahal   1.0  150       5  0.929316
    6 │ 15      mahal   1.0  150       6  0.846211
    7 │ 15      mahal   1.0  150       7  0.81254
    8 │ 15      mahal   1.0  150       8  0.78119
  ⋮   │   ⋮       ⋮      ⋮    ⋮      ⋮       ⋮
  994 │ 25      mahal   Inf  1000     14  1.16983
  995 │ 25      mahal   Inf  1000     15  1.13667
  996 │ 25      mahal   Inf  1000     16  1.08227
  997 │ 25      mahal   Inf  1000     17  1.0548
  998 │ 25      mahal   Inf  1000     18  1.03453
  999 │ 25      mahal   Inf  1000     19  1.05021
 1000 │ 25      mahal   Inf  1000     20  1.03607
                                   985 rows omitted
…
julia> pars = mpar(nlvdis = nlvdis, metric = metric, 
           h = h, k = k, nlv = nlv)
(nlvdis = Any[15, 25, 15, 25, 15, 25, 15, 25, 15, 25  …  15, 25, 15, 25, 15, 25, 15, 25, 15, 25], metric = Any["mahal", "mahal", "mahal", "mahal", "mahal", "mahal", "mahal", "mahal", "mahal", "mahal"  …  "mahal", "mahal", "mahal", "mahal", "mahal", "mahal", "mahal", "mahal", "mahal", "mahal"], h = Any[1.0, 1.0, 2.5, 2.5, 5.0, 5.0, 1.0, 1.0, 2.5, 2.5  …  2.5, 2.5, 5.0, 5.0, 1.0, 1.0, 2.5, 2.5, 5.0, 5.0], k = Any[150, 150, 150, 150, 150, 150, 200, 200, 200, 200  …  350, 350, 350, 350, 500, 500, 500, 500, 500, 500], nlv = Any["0:20", "0:20", "0:20", "0:20", "0:20", "0:20", "0:20", "0:20", "0:20", "0:20"  …  "5:30", "5:30", "5:30", "5:30", "5:30", "5:30", "5:30", "5:30", "5:30", "5:30"])

julia> length(pars[1])
96

julia> res = gridscore(Xcal, ycal, Xval, yval;
           score = rmsep, fun = lwplsravg, pars = pars, 
           verbose = false)
96×6 DataFrame
 Row │ nlvdis  metric  h    k    nlv   y1
     │ Any     Any     Any  Any  Any   Float64
─────┼──────────────────────────────────────────
   1 │ 15      mahal   1.0  150  0:20  0.745083
   2 │ 25      mahal   1.0  150  0:20  0.711885
   3 │ 15      mahal   2.5  150  0:20  0.772324
   4 │ 25      mahal   2.5  150  0:20  0.754382
   5 │ 15      mahal   5.0  150  0:20  0.798433
   6 │ 25      mahal   5.0  150  0:20  0.786665
   7 │ 15      mahal   1.0  200  0:20  0.74502
   8 │ 25      mahal   1.0  200  0:20  0.726722
  ⋮  │   ⋮       ⋮      ⋮    ⋮    ⋮       ⋮
  90 │ 25      mahal   5.0  350  5:30  0.750745
  91 │ 15      mahal   1.0  500  5:30  0.669289
  92 │ 25      mahal   1.0  500  5:30  0.726944
  93 │ 15      mahal   2.5  500  5:30  0.720093
  94 │ 25      mahal   2.5  500  5:30  0.747405
  95 │ 15      mahal   5.0  500  5:30  0.769514
  96 │ 25      mahal   5.0  500  5:30  0.80641
                                 81 rows omitted
…
julia> nlv = 1:20
1:20

julia> pars = mpar(nlv0 = nlv0, metric = metric, h = h, 
           k = k)
(nlv0 = Any[20, 30, 50, 20, 30, 50, 20, 30, 50, 20  …  50, 20, 30, 50, 20, 30, 50, 20, 30, 50], metric = Any["eucl", "eucl", "eucl", "mahal", "mahal", "mahal", "eucl", "eucl", "eucl", "mahal"  …  "eucl", "mahal", "mahal", "mahal", "eucl", "eucl", "eucl", "mahal", "mahal", "mahal"], h = Any[1, 1, 1, 1, 1, 1, 2, 2, 2, 2  …  4, 4, 4, 4, 5, 5, 5, 5, 5, 5], k = Any[150, 150, 150, 150, 150, 150, 150, 150, 150, 150  …  500, 500, 500, 500, 500, 500, 500, 500, 500, 500])

julia> length(pars[1])
96

julia> res = gridscorelv(Xcal, ycal, Xval, yval;
           score = msep, fun = lwplsr_s, nlv = nlv, pars = pars, 
           verbose = false)
1920×6 DataFrame
  Row │ nlv0  metric  h    k    nlv    y1
      │ Any   Any     Any  Any  Int64  Float64
──────┼─────────────────────────────────────────
    1 │ 20    eucl    1    150      1  1.70972
    2 │ 20    eucl    1    150      2  1.17596
    3 │ 20    eucl    1    150      3  0.925552
    4 │ 20    eucl    1    150      4  0.906704
    5 │ 20    eucl    1    150      5  0.856257
    6 │ 20    eucl    1    150      6  0.809022
    7 │ 20    eucl    1    150      7  0.723457
    8 │ 20    eucl    1    150      8  0.710531
  ⋮   │  ⋮      ⋮      ⋮    ⋮     ⋮       ⋮
 1914 │ 50    mahal   5    500     14  0.793079
 1915 │ 50    mahal   5    500     15  0.757215
 1916 │ 50    mahal   5    500     16  0.740565
 1917 │ 50    mahal   5    500     17  0.734688
 1918 │ 50    mahal   5    500     18  0.717217
 1919 │ 50    mahal   5    500     19  0.718799
 1920 │ 50    mahal   5    500     20  0.747412
                               1905 rows omitted
…
julia> pars = mpar(reduc = reduc, nlv0 = nlv0, 
           metric = metric, gamma = gamma, h = h, k = k,
           psamp = psamp)
(reduc = Any["dkpls", "dkpls", "dkpls", "dkpls", "dkpls", "dkpls", "dkpls", "dkpls", "dkpls", "dkpls"  …  "dkpls", "dkpls", "dkpls", "dkpls", "dkpls", "dkpls", "dkpls", "dkpls", "dkpls", "dkpls"], nlv0 = Any[20, 30, 50, 20, 30, 50, 20, 30, 50, 20  …  50, 20, 30, 50, 20, 30, 50, 20, 30, 50], metric = Any["eucl", "eucl", "eucl", "mahal", "mahal", "mahal", "eucl", "eucl", "eucl", "mahal"  …  "eucl", "mahal", "mahal", "mahal", "eucl", "eucl", "eucl", "mahal", "mahal", "mahal"], gamma = Any[0.001, 0.001, 0.001, 0.001, 0.001, 0.001, 0.010000000000000002, 0.010000000000000002, 0.010000000000000002, 0.010000000000000002  …  100.0, 100.0, 100.0, 100.0, 1000.0, 1000.0, 1000.0, 1000.0, 1000.0, 1000.0], h = Any[1, 1, 1, 1, 1, 1, 1, 1, 1, 1  …  2, 2, 2, 2, 2, 2, 2, 2, 2, 2], k = Any[150, 150, 150, 150, 150, 150, 150, 150, 150, 150  …  350, 350, 350, 350, 350, 350, 350, 350, 350, 350], psamp = Any[0.3, 0.3, 0.3, 0.3, 0.3, 0.3, 0.3, 0.3, 0.3, 0.3  …  0.3, 0.3, 0.3, 0.3, 0.3, 0.3, 0.3, 0.3, 0.3, 0.3])

julia> length(pars[1])
252

julia> res = gridscorelv(Xcal, ycal, Xval, yval;
           score = msep, fun = lwplsr_s, nlv = nlv, pars = pars, 
           verbose = false)
5040×9 DataFrame
  Row │ reduc  nlv0  metric  gamma   h    k    psamp  nlv    y1
      │ Any    Any   Any     Any     Any  Any  Any    Int64  Float64
──────┼───────────────────────────────────────────────────────────────
    1 │ dkpls  20    eucl    0.001   1    150  0.3        1  2.96126
    2 │ dkpls  20    eucl    0.001   1    150  0.3        2  2.38001
    3 │ dkpls  20    eucl    0.001   1    150  0.3        3  2.21734
    4 │ dkpls  20    eucl    0.001   1    150  0.3        4  1.94089
    5 │ dkpls  20    eucl    0.001   1    150  0.3        5  1.74935
    6 │ dkpls  20    eucl    0.001   1    150  0.3        6  1.50881
    7 │ dkpls  20    eucl    0.001   1    150  0.3        7  1.19807
    8 │ dkpls  20    eucl    0.001   1    150  0.3        8  1.11617
  ⋮   │   ⋮     ⋮      ⋮       ⋮      ⋮    ⋮     ⋮      ⋮       ⋮
 5034 │ dkpls  50    mahal   1000.0  2    350  0.3       14  0.729641
 5035 │ dkpls  50    mahal   1000.0  2    350  0.3       15  0.734661
 5036 │ dkpls  50    mahal   1000.0  2    350  0.3       16  0.705525
 5037 │ dkpls  50    mahal   1000.0  2    350  0.3       17  0.734357
 5038 │ dkpls  50    mahal   1000.0  2    350  0.3       18  0.707434
 5039 │ dkpls  50    mahal   1000.0  2    350  0.3       19  0.679526
 5040 │ dkpls  50    mahal   1000.0  2    350  0.3       20  0.689397
                                                     5025 rows omitted
…
julia> pars = mpar(ncla = ncla, nlv_da = nlv_da, 
           nlv = nlv)
(ncla = Any[5, 6, 7, 8, 9, 10, 5, 6, 7, 8  …  7, 8, 9, 10, 5, 6, 7, 8, 9, 10], nlv_da = Any[1, 1, 1, 1, 1, 1, 2, 2, 2, 2  …  19, 19, 19, 19, 20, 20, 20, 20, 20, 20], nlv = Any["0:10", "0:10", "0:10", "0:10", "0:10", "0:10", "0:10", "0:10", "0:10", "0:10"  …  "5:20", "5:20", "5:20", "5:20", "5:20", "5:20", "5:20", "5:20", "5:20", "5:20"])

julia> length(pars[1])
600

julia> res = gridscore(Xcal, ycal, Xval, yval;
           score = rmsep, fun = cplsravg, pars = pars, 
           verbose = false)
600×4 DataFrame
 Row │ ncla  nlv_da  nlv   y1
     │ Any   Any     Any   Float64
─────┼──────────────────────────────
   1 │ 5     1       0:10  7.14575
   2 │ 6     1       0:10  9.57604
   3 │ 7     1       0:10  5.92781
   4 │ 8     1       0:10  6.27535
   5 │ 9     1       0:10  7.54055
   6 │ 10    1       0:10  7.36428
   7 │ 5     2       0:10  3.6611
   8 │ 6     2       0:10  1.99911
  ⋮  │  ⋮      ⋮      ⋮       ⋮
 594 │ 10    19      5:20  0.943594
 595 │ 5     20      5:20  0.93073
 596 │ 6     20      5:20  0.832189
 597 │ 7     20      5:20  0.932019
 598 │ 8     20      5:20  1.01686
 599 │ 9     20      5:20  1.04098
 600 │ 10    20      5:20  0.796518
                    585 rows omitted
…
julia> pars = mpar(nlvdis = nlvdis, metric = metric, 
           h = h, k = k)
(nlvdis = Any[15, 20, 15, 20, 15, 20, 15, 20, 15, 20  …  15, 20, 15, 20, 15, 20, 15, 20, 15, 20], metric = Any["mahal", "mahal", "mahal", "mahal", "mahal", "mahal", "mahal", "mahal", "mahal", "mahal"  …  "mahal", "mahal", "mahal", "mahal", "mahal", "mahal", "mahal", "mahal", "mahal", "mahal"], h = Any[1.0, 1.0, 2.0, 2.0, 4.0, 4.0, 6.0, 6.0, Inf, Inf  …  1.0, 1.0, 2.0, 2.0, 4.0, 4.0, 6.0, 6.0, Inf, Inf], k = Any[1, 1, 1, 1, 1, 1, 1, 1, 1, 1  …  95, 95, 95, 95, 95, 95, 95, 95, 95, 95])

julia> length(pars[1])
110

julia> res = gridscore(Xcal, ycal, Xval, yval;
           score = rmsep, fun = knnr, pars = pars, 
           verbose = false)
110×5 DataFrame
 Row │ nlvdis  metric  h    k    y1
     │ Any     Any     Any  Any  Float64
─────┼───────────────────────────────────
   1 │ 15      mahal   1.0  1    2.0004
   2 │ 20      mahal   1.0  1    1.80988
   3 │ 15      mahal   2.0  1    2.0004
   4 │ 20      mahal   2.0  1    1.80988
   5 │ 15      mahal   4.0  1    2.0004
   6 │ 20      mahal   4.0  1    1.80988
   7 │ 15      mahal   6.0  1    2.0004
   8 │ 20      mahal   6.0  1    1.80988
  ⋮  │   ⋮       ⋮      ⋮    ⋮      ⋮
 104 │ 20      mahal   2.0  95   2.07358
 105 │ 15      mahal   4.0  95   2.41467
 106 │ 20      mahal   4.0  95   2.40522
 107 │ 15      mahal   6.0  95   2.57055
 108 │ 20      mahal   6.0  95   2.61944
 109 │ 15      mahal   Inf  95   2.88278
 110 │ 20      mahal   Inf  95   3.54237
                          95 rows omitted
…
