gridcv_all_models_tecator.jl
…
julia> nlv = 0:20
0:20

julia> pars = mpar(scal = [false; true])
(scal = Bool[0, 1],)

julia> length(pars[1])
2

julia> mod = model(plskern)
Jchemo.Model{typeof(plskern), Base.Pairs{Symbol, Union{}, Tuple{}, @NamedTuple{}}}(Jchemo.plskern, nothing, Base.Pairs{Symbol, Union{}, Tuple{}, @NamedTuple{}}())

julia> res = gridscore(mod, Xcal, ycal, Xval, yval; score = rmsep, pars, nlv)
42×3 DataFrame
 Row │ scal   nlv    y1
     │ Bool   Int64  Float64
─────┼────────────────────────
   1 │ false      0  15.2689
   2 │ false      1   2.98782
   3 │ false      2   3.16913
   4 │ false      3   3.02199
   5 │ false      4   2.8963
   6 │ false      5   2.86282
   7 │ false      6   2.80838
   8 │ false      7   2.72603
  ⋮  │   ⋮      ⋮       ⋮
  36 │  true     14   3.27912
  37 │  true     15   3.50154
  38 │  true     16   3.71228
  39 │  true     17   3.96932
  40 │  true     18   5.5625
  41 │  true     19   6.29943
  42 │  true     20   7.12846
               27 rows omitted
…
julia> mod = model(rr)
Jchemo.Model{typeof(rr), Base.Pairs{Symbol, Union{}, Tuple{}, @NamedTuple{}}}(Jchemo.rr, nothing, Base.Pairs{Symbol, Union{}, Tuple{}, @NamedTuple{}}())

julia> res = gridscore(mod, Xcal, ycal, Xval, yval; score = rmsep, lb)
181×2 DataFrame
 Row │ lb              y1
     │ Float64         Float64
─────┼──────────────────────────
   1 │    1.0e-15       5.98893
   2 │    1.25893e-15   5.98893
   3 │    1.58489e-15   5.98893
   4 │    1.99526e-15   5.98893
   5 │    2.51189e-15   5.98893
   6 │    3.16228e-15   5.98893
   7 │    3.98107e-15   5.98893
   8 │    5.01187e-15   5.98893
  ⋮  │       ⋮            ⋮
 175 │  251.189        15.2689
 176 │  316.228        15.2689
 177 │  398.107        15.2689
 178 │  501.187        15.2689
 179 │  630.957        15.2689
 180 │  794.328        15.2689
 181 │ 1000.0          15.2689
                166 rows omitted
…
Covselr

julia> nlv = 0:20
0:20

julia> pars = mpar(msparse = [:hard], nvar = [1])
(msparse = Any[:hard], nvar = Any[1])

julia> mod = model(splskern)
Jchemo.Model{typeof(splskern), Base.Pairs{Symbol, Union{}, Tuple{}, @NamedTuple{}}}(Jchemo.splskern, nothing, Base.Pairs{Symbol, Union{}, Tuple{}, @NamedTuple{}}())

julia> res = gridscore(mod, Xcal, ycal, Xval, yval; score = rmsep, pars, nlv, 
           verbose = false)
21×4 DataFrame
 Row │ msparse  nvar  nlv    y1
     │ Any      Any   Int64  Float64
─────┼────────────────────────────────
   1 │ hard     1         0  15.2689
   2 │ hard     1         1   3.04654
   3 │ hard     1         2   3.27045
   4 │ hard     1         3   3.05704
   5 │ hard     1         4   3.02439
   6 │ hard     1         5   3.00208
   7 │ hard     1         6   2.93014
   8 │ hard     1         7   2.96468
  ⋮  │    ⋮      ⋮      ⋮       ⋮
  15 │ hard     1        14   2.85979
  16 │ hard     1        15   2.75698
  17 │ hard     1        16   2.68592
  18 │ hard     1        17   2.46375
  19 │ hard     1        18   3.05724
  20 │ hard     1        19   3.36179
  21 │ hard     1        20   3.24105
                        6 rows omitted
…
julia> pars = mpar(gamma = gamma)
(gamma = [0.001, 0.010000000000000002, 0.1, 1.0, 10.0, 100.0, 1000.0, 10000.0, 100000.0],)

julia> length(pars[1])
9

julia> mod = model(krr)
Jchemo.Model{typeof(krr), Base.Pairs{Symbol, Union{}, Tuple{}, @NamedTuple{}}}(Jchemo.krr, nothing, Base.Pairs{Symbol, Union{}, Tuple{}, @NamedTuple{}}())

julia> res = gridscore(mod, Xcal, ycal, Xval, yval; score = rmsep, pars, lb, 
           verbose = false)
189×3 DataFrame
 Row │ gamma       lb            y1
     │ Float64     Float64       Float64
─────┼─────────────────────────────────────
   1 │      0.001       1.0e-15  184.692
   2 │      0.001       1.0e-14  184.692
   3 │      0.001       1.0e-13  184.692
   4 │      0.001       1.0e-12  184.692
   5 │      0.001       1.0e-11  184.692
   6 │      0.001       1.0e-10  184.613
   7 │      0.001       1.0e-9   177.123
   8 │      0.001       1.0e-8    43.2831
  ⋮  │     ⋮            ⋮            ⋮
 183 │ 100000.0         0.1       13.0059
 184 │ 100000.0         1.0       15.1913
 185 │ 100000.0        10.0       15.2681
 186 │ 100000.0       100.0       15.2689
 187 │ 100000.0      1000.0       15.2689
 188 │ 100000.0     10000.0       15.2689
 189 │ 100000.0    100000.0       15.2689
                           174 rows omitted
…
julia> pars = mpar(gamma = gamma)
(gamma = [0.001, 0.010000000000000002, 0.1, 1.0, 10.0, 100.0, 1000.0, 10000.0, 100000.0],)

julia> length(pars[1])
9

julia> mod = model(kplsr)
Jchemo.Model{typeof(kplsr), Base.Pairs{Symbol, Union{}, Tuple{}, @NamedTuple{}}}(Jchemo.kplsr, nothing, Base.Pairs{Symbol, Union{}, Tuple{}, @NamedTuple{}}())

julia> res = gridscore(mod, Xcal, ycal, Xval, yval; score = rmsep, pars, nlv, 
           verbose = false)
279×3 DataFrame
 Row │ gamma       nlv    y1
     │ Float64     Int64  Float64
─────┼─────────────────────────────
   1 │      0.001      0  15.2689
   2 │      0.001      1   2.98781
   3 │      0.001      2   3.16912
   4 │      0.001      3   3.02189
   5 │      0.001      4   2.89596
   6 │      0.001      5   2.86229
   7 │      0.001      6   2.80755
   8 │      0.001      7   2.72364
  ⋮  │     ⋮         ⋮       ⋮
 273 │ 100000.0       24  12.0215
 274 │ 100000.0       25  12.0215
 275 │ 100000.0       26  12.0215
 276 │ 100000.0       27  12.0215
 277 │ 100000.0       28  12.0215
 278 │ 100000.0       29  12.0215
 279 │ 100000.0       30  12.0215
                   264 rows omitted
…
julia> pars = mpar(gamma = gamma)
(gamma = [0.001, 0.010000000000000002, 0.1, 1.0, 10.0, 100.0, 1000.0, 10000.0, 100000.0],)

julia> length(pars[1])
9

julia> mod = model(dkplsr)
Jchemo.Model{typeof(dkplsr), Base.Pairs{Symbol, Union{}, Tuple{}, @NamedTuple{}}}(Jchemo.dkplsr, nothing, Base.Pairs{Symbol, Union{}, Tuple{}, @NamedTuple{}}())

julia> res = gridscore(mod, Xcal, ycal, Xval, yval; score = rmsep, pars, nlv, verbose = false)
279×3 DataFrame
 Row │ gamma       nlv    y1
     │ Float64     Int64  Float64
─────┼─────────────────────────────
   1 │      0.001      0  15.2689
   2 │      0.001      1   6.64008
   3 │      0.001      2   1.98357
   4 │      0.001      3   2.0668
   5 │      0.001      4   2.26515
   6 │      0.001      5   2.27182
   7 │      0.001      6   2.24007
   8 │      0.001      7   2.12872
  ⋮  │     ⋮         ⋮       ⋮
 273 │ 100000.0       24  11.3282
 274 │ 100000.0       25  11.3377
 275 │ 100000.0       26  11.3619
 276 │ 100000.0       27  11.3933
 277 │ 100000.0       28  11.4105
 278 │ 100000.0       29  11.4355
 279 │ 100000.0       30  11.4719
                   264 rows omitted
…
:nlvdis => 15:metric => :mah:h => 6.0:k => 50
:nlvdis => 10:metric => :mah:h => Inf:k => 50
:nlvdis => 15:metric => :mah:h => Inf:k => 50
:nlvdis => 10:metric => :mah:h => 1.0:k => 100
:nlvdis => 15:metric => :mah:h => 1.0:k => 100
:nlvdis => 10:metric => :mah:h => 2.0:k => 100
:nlvdis => 15:metric => :mah:h => 2.0:k => 100
:nlvdis => 10:metric => :mah:h => 4.0:k => 100
:nlvdis => 15:metric => :mah:h => 4.0:k => 100
:nlvdis => 10:metric => :mah:h => 6.0:k => 100
:nlvdis => 15:metric => :mah:h => 6.0:k => 100
:nlvdis => 10:metric => :mah:h => Inf:k => 100
:nlvdis => 15:metric => :mah:h => Inf:k => 100
-- End.
480×6 DataFrame
 Row │ nlvdis  metric  h    k    nlv    y1
     │ Any     Any     Any  Any  Int64  Float64
─────┼──────────────────────────────────────────
   1 │ 10      mah     1.0  30       0  6.20464
   2 │ 10      mah     1.0  30       1  1.36509
   3 │ 10      mah     1.0  30       2  1.51291
   4 │ 10      mah     1.0  30       3  1.73683
   5 │ 10      mah     1.0  30       4  1.64757
   6 │ 10      mah     1.0  30       5  1.9523
   7 │ 10      mah     1.0  30       6  2.42307
   8 │ 10      mah     1.0  30       7  2.81798
  ⋮  │   ⋮       ⋮      ⋮    ⋮     ⋮       ⋮
 474 │ 15      mah     Inf  100      9  2.61691
 475 │ 15      mah     Inf  100     10  2.68549
 476 │ 15      mah     Inf  100     11  2.72677
 477 │ 15      mah     Inf  100     12  2.73817
 478 │ 15      mah     Inf  100     13  3.03453
 479 │ 15      mah     Inf  100     14  3.17986
 480 │ 15      mah     Inf  100     15  3.52768
                                465 rows omitted
…
:nlv => 1:10:nlvdis => 10:metric => :mah:h => 5.0:k => 100
:nlv => 0:5:nlvdis => 15:metric => :mah:h => 5.0:k => 100
:nlv => 0:10:nlvdis => 15:metric => :mah:h => 5.0:k => 100
:nlv => 1:5:nlvdis => 15:metric => :mah:h => 5.0:k => 100
:nlv => 1:10:nlvdis => 15:metric => :mah:h => 5.0:k => 100
:nlv => 0:5:nlvdis => 10:metric => :mah:h => Inf:k => 100
:nlv => 0:10:nlvdis => 10:metric => :mah:h => Inf:k => 100
:nlv => 1:5:nlvdis => 10:metric => :mah:h => Inf:k => 100
:nlv => 1:10:nlvdis => 10:metric => :mah:h => Inf:k => 100
:nlv => 0:5:nlvdis => 15:metric => :mah:h => Inf:k => 100
:nlv => 0:10:nlvdis => 15:metric => :mah:h => Inf:k => 100
:nlv => 1:5:nlvdis => 15:metric => :mah:h => Inf:k => 100
:nlv => 1:10:nlvdis => 15:metric => :mah:h => Inf:k => 100
-- End.
96×6 DataFrame
 Row │ nlv   nlvdis  metric  h    k    y1
     │ Any   Any     Any     Any  Any  Float64
─────┼─────────────────────────────────────────
   1 │ 0:5   10      mah     1.0  30   1.72904
   2 │ 0:10  10      mah     1.0  30   1.92131
   3 │ 1:5   10      mah     1.0  30   1.49835
   4 │ 1:10  10      mah     1.0  30   1.91888
   5 │ 0:5   15      mah     1.0  30   2.2501
   6 │ 0:10  15      mah     1.0  30   2.28425
   7 │ 1:5   15      mah     1.0  30   2.03623
   8 │ 1:10  15      mah     1.0  30   2.2956
  ⋮  │  ⋮      ⋮       ⋮      ⋮    ⋮      ⋮
  90 │ 0:10  10      mah     Inf  100  2.60877
  91 │ 1:5   10      mah     Inf  100  2.84014
  92 │ 1:10  10      mah     Inf  100  2.65099
  93 │ 0:5   15      mah     Inf  100  3.1114
  94 │ 0:10  15      mah     Inf  100  2.64035
  95 │ 1:5   15      mah     Inf  100  2.87829
  96 │ 1:10  15      mah     Inf  100  2.72243
                                81 rows omitted
…
julia> pars = mpar(nlvdis = nlvdis, metric = metric, h = h, k = k)
(nlvdis = Any[15, 20, 15, 20, 15, 20, 15, 20, 15, 20  …  15, 20, 15, 20, 15, 20, 15, 20, 15, 20], metric = Any[:eucl, :eucl, :mah, :mah, :eucl, :eucl, :mah, :mah, :eucl, :eucl  …  :mah, :mah, :eucl, :eucl, :mah, :mah, :eucl, :eucl, :mah, :mah], h = Any[1.0, 1.0, 1.0, 1.0, 2.0, 2.0, 2.0, 2.0, 4.0, 4.0  …  4.0, 4.0, 6.0, 6.0, 6.0, 6.0, Inf, Inf, Inf, Inf], k = Any[1, 1, 1, 1, 1, 1, 1, 1, 1, 1  …  45, 45, 45, 45, 45, 45, 45, 45, 45, 45])

julia> length(pars[1])
120

julia> mod = model(knnr)
Jchemo.Model{typeof(knnr), Base.Pairs{Symbol, Union{}, Tuple{}, @NamedTuple{}}}(Jchemo.knnr, nothing, Base.Pairs{Symbol, Union{}, Tuple{}, @NamedTuple{}}())

julia> res = gridscore(mod, Xcal, ycal, Xval, yval; score = rmsep, pars)
120×5 DataFrame
 Row │ nlvdis  metric  h    k    y1
     │ Any     Any     Any  Any  Float64
─────┼────────────────────────────────────
   1 │ 15      eucl    1.0  1     2.10818
   2 │ 20      eucl    1.0  1     2.10818
   3 │ 15      mah     1.0  1     8.81771
   4 │ 20      mah     1.0  1     7.47647
   5 │ 15      eucl    2.0  1     2.10818
   6 │ 20      eucl    2.0  1     2.10818
   7 │ 15      mah     2.0  1     8.81771
   8 │ 20      mah     2.0  1     7.47647
  ⋮  │   ⋮       ⋮      ⋮    ⋮      ⋮
 114 │ 20      eucl    6.0  45    9.60966
 115 │ 15      mah     6.0  45   14.0205
 116 │ 20      mah     6.0  45   14.741
 117 │ 15      eucl    Inf  45   10.5226
 118 │ 20      eucl    Inf  45   10.5226
 119 │ 15      mah     Inf  45   15.0614
 120 │ 20      mah     Inf  45   15.555
                          105 rows omitted
…
julia> pars = mpar(n_trees = n_trees, n_subfeatures = n_subfeatures, max_depth = max_depth)
(n_trees = Real[200, 200, 200, 200, 200, 200, 200, 200, 200, 200  …  200, 200, 200, 200, 200, 200, 200, 200, 200, 200], n_subfeatures = Real[10.0, 20.0, 30.0, 40.0, 50.0, 60.0, 69.99999999999999, 80.00000000000001, 90.0, 100.0  …  10.0, 20.0, 30.0, 40.0, 50.0, 60.0, 69.99999999999999, 80.00000000000001, 90.0, 100.0], max_depth = Real[6, 6, 6, 6, 6, 6, 6, 6, 6, 6  …  2000, 2000, 2000, 2000, 2000, 2000, 2000, 2000, 2000, 2000])

julia> length(pars[1])
50

julia> res = gridscore(mod, Xcal, ycal, Xval, yval; score = rmsep, pars)
50×4 DataFrame
 Row │ n_trees  n_subfeatures  max_depth  y1
     │ Real     Real           Real       Float64
─────┼────────────────────────────────────────────
   1 │     200           10.0          6  2.35765
   2 │     200           20.0          6  2.35765
   3 │     200           30.0          6  2.35765
   4 │     200           40.0          6  2.35765
   5 │     200           50.0          6  2.35765
   6 │     200           60.0          6  2.35765
   7 │     200           70.0          6  2.35765
   8 │     200           80.0          6  2.35765
  ⋮  │    ⋮           ⋮            ⋮         ⋮
  44 │     200           40.0       2000  2.35765
  45 │     200           50.0       2000  2.35765
  46 │     200           60.0       2000  2.35765
  47 │     200           70.0       2000  2.35765
  48 │     200           80.0       2000  2.35765
  49 │     200           90.0       2000  2.35765
  50 │     200          100.0       2000  2.35765
                                   35 rows omitted
…
