gridcv_all_models_tecator.jl
…
julia> nlv = 0:50
0:50

julia> pars = mpar(scal = [false; true])
(scal = Bool[0, 1],)

julia> length(pars[1])
2

julia> mod = plskern()
Jchemo.Predictor{Function, Jchemo.Plsr, Base.Pairs}(Jchemo.plskern, nothing, Base.Pairs{Symbol, Union{}, Tuple{}, @NamedTuple{}}())

julia> res = gridcv(mod, Xtrain, ytrain; segm, score = rmsep, 
           pars, nlv).res
102×3 DataFrame
 Row │ nlv    scal   y1
     │ Int64  Bool   Float64
─────┼────────────────────────
   1 │     0  false  12.6303
   2 │     0   true  12.6303
   3 │     1  false   2.50328
   4 │     1   true   2.76808
   5 │     2  false   2.34597
   6 │     2   true   2.37071
   7 │     3  false   2.31623
   8 │     3   true   2.41675
  ⋮  │   ⋮      ⋮       ⋮
  96 │    47   true   4.94261
  97 │    48  false   5.24519
  98 │    48   true   5.06704
  99 │    49  false   5.34289
 100 │    49   true   5.15888
 101 │    50  false   5.47257
 102 │    50   true   5.24755
               87 rows omitted
…
julia> mod = rr()
Jchemo.Predictor{Function, Jchemo.Rr, Base.Pairs}(Jchemo.rr, nothing, Base.Pairs{Symbol, Union{}, Tuple{}, @NamedTuple{}}())

julia> res = gridcv(mod, Xtrain, ytrain; segm, score = rmsep, lb).res
181×2 DataFrame
 Row │ lb              y1
     │ Float64         Float64
─────┼──────────────────────────
   1 │    1.0e-15       8.00117
   2 │    1.25893e-15   8.00117
   3 │    1.58489e-15   8.00117
   4 │    1.99526e-15   8.00117
   5 │    2.51189e-15   8.00117
   6 │    3.16228e-15   8.00117
   7 │    3.98107e-15   8.00117
   8 │    5.01187e-15   8.00117
  ⋮  │       ⋮            ⋮
 175 │  251.189        12.6303
 176 │  316.228        12.6303
 177 │  398.107        12.6303
 178 │  501.187        12.6303
 179 │  630.957        12.6303
 180 │  794.328        12.6303
 181 │ 1000.0          12.6303
                166 rows omitted
…
Covselr

julia> nlv = 0:20
0:20

julia> pars = mpar(msparse = [:hard], nvar = [1])
(msparse = Any[:hard], nvar = Any[1])

julia> mod = splskern()
Jchemo.Predictor{Function, Jchemo.Splsr, Base.Pairs}(Jchemo.splskern, nothing, Base.Pairs{Symbol, Union{}, Tuple{}, @NamedTuple{}}())

julia> res = gridcv(mod, Xtrain, ytrain; segm, score = rmsep, 
           pars, nlv, verbose = false).res
21×4 DataFrame
 Row │ nlv    msparse  nvar  y1
     │ Int64  Any      Any   Float64
─────┼────────────────────────────────
   1 │     0  hard     1     12.6303
   2 │     1  hard     1      2.45441
   3 │     2  hard     1      2.54156
   4 │     3  hard     1      2.32342
   5 │     4  hard     1      2.28063
   6 │     5  hard     1      2.24055
   7 │     6  hard     1      2.28091
   8 │     7  hard     1      2.28763
  ⋮  │   ⋮       ⋮      ⋮       ⋮
  15 │    14  hard     1      2.48214
  16 │    15  hard     1      2.65863
  17 │    16  hard     1      2.75438
  18 │    17  hard     1      2.72674
  19 │    18  hard     1      2.7282
  20 │    19  hard     1      2.71972
  21 │    20  hard     1      2.77313
                        6 rows omitted
…
julia> pars = mpar(gamma = gamma)
(gamma = [0.001, 0.010000000000000002, 0.1, 1.0, 10.0, 100.0, 1000.0, 10000.0, 100000.0],)

julia> length(pars[1])
9

julia> mod = krr()
Jchemo.Predictor{Function, Jchemo.Krr, Base.Pairs}(Jchemo.krr, nothing, Base.Pairs{Symbol, Union{}, Tuple{}, @NamedTuple{}}())

julia> res = gridcv(mod, Xtrain, ytrain; segm, score = rmsep, 
           pars, lb, verbose = false).res
189×3 DataFrame
 Row │ lb            gamma       y1
     │ Float64       Float64     Float64
─────┼─────────────────────────────────────
   1 │      1.0e-15       0.001  589.817
   2 │      1.0e-14       0.001  589.817
   3 │      1.0e-13       0.001  589.817
   4 │      1.0e-12       0.001  589.816
   5 │      1.0e-11       0.001  589.703
   6 │      1.0e-10       0.001  578.718
   7 │      1.0e-9        0.001  270.803
   8 │      1.0e-8        0.001   23.7078
  ⋮  │      ⋮            ⋮           ⋮
 183 │      0.1      100000.0     10.2286
 184 │      1.0      100000.0     12.5485
 185 │     10.0      100000.0     12.6295
 186 │    100.0      100000.0     12.6303
 187 │   1000.0      100000.0     12.6303
 188 │  10000.0      100000.0     12.6303
 189 │ 100000.0      100000.0     12.6303
                           174 rows omitted
…
julia> pars = mpar(gamma = gamma)
(gamma = [0.001, 0.010000000000000002, 0.1, 1.0, 10.0, 100.0, 1000.0, 10000.0, 100000.0],)

julia> length(pars[1])
9

julia> mod = kplsr()
Jchemo.Predictor{Function, Jchemo.Kplsr, Base.Pairs}(Jchemo.kplsr, nothing, Base.Pairs{Symbol, Union{}, Tuple{}, @NamedTuple{}}())

julia> res = gridcv(mod, Xtrain, ytrain; segm, score = rmsep, 
           pars, nlv, verbose = false).res
279×3 DataFrame
 Row │ nlv    gamma       y1
     │ Int64  Float64     Float64
─────┼─────────────────────────────
   1 │     0       0.001  12.6303
   2 │     1       0.001   2.50327
   3 │     2       0.001   2.34596
   4 │     3       0.001   2.31618
   5 │     4       0.001   2.24625
   6 │     5       0.001   2.24216
   7 │     6       0.001   2.22253
   8 │     7       0.001   2.23477
  ⋮  │   ⋮        ⋮          ⋮
 273 │    24  100000.0     9.23715
 274 │    25  100000.0     9.23714
 275 │    26  100000.0     9.23714
 276 │    27  100000.0     9.23713
 277 │    28  100000.0     9.23713
 278 │    29  100000.0     9.23713
 279 │    30  100000.0     9.23713
                   264 rows omitted
…
julia> pars = mpar(gamma = gamma)
(gamma = [0.001, 0.010000000000000002, 0.1, 1.0, 10.0, 100.0, 1000.0, 10000.0, 100000.0],)

julia> length(pars[1])
9

julia> mod = dkplsr()
Jchemo.Predictor{Function, Jchemo.Dkplsr, Base.Pairs}(Jchemo.dkplsr, nothing, Base.Pairs{Symbol, Union{}, Tuple{}, @NamedTuple{}}())

julia> res = gridcv(mod, Xtrain, ytrain; segm, score = rmsep, 
           pars, nlv, verbose = false).res
279×3 DataFrame
 Row │ nlv    gamma       y1
     │ Int64  Float64     Float64
─────┼─────────────────────────────
   1 │     0       0.001  12.6303
   2 │     1       0.001   4.90501
   3 │     2       0.001   1.96986
   4 │     3       0.001   1.59262
   5 │     4       0.001   1.59991
   6 │     5       0.001   1.61882
   7 │     6       0.001   1.55259
   8 │     7       0.001   1.52246
  ⋮  │   ⋮        ⋮          ⋮
 273 │    24  100000.0     9.10345
 274 │    25  100000.0     9.10369
 275 │    26  100000.0     9.1043
 276 │    27  100000.0     9.10471
 277 │    28  100000.0     9.10484
 278 │    29  100000.0     9.1049
 279 │    30  100000.0     9.10499
                   264 rows omitted
…
julia> pars = mpar(nlvdis = nlvdis, metric = metric, h = h, k = k)
(nlvdis = Any[10, 15, 10, 15, 10, 15, 10, 15, 10, 15  …  10, 15, 10, 15, 10, 15, 10, 15, 10, 15], metric = Any[:mah, :mah, :mah, :mah, :mah, :mah, :mah, :mah, :mah, :mah  …  :mah, :mah, :mah, :mah, :mah, :mah, :mah, :mah, :mah, :mah], h = Any[1.0, 1.0, 2.0, 2.0, 4.0, 4.0, 6.0, 6.0, Inf, Inf  …  1.0, 1.0, 2.0, 2.0, 4.0, 4.0, 6.0, 6.0, Inf, Inf], k = Any[30, 30, 30, 30, 30, 30, 30, 30, 30, 30  …  100, 100, 100, 100, 100, 100, 100, 100, 100, 100])

julia> length(pars[1])
30

julia> mod = lwplsr()
Jchemo.Predictor{Function, Jchemo.Lwplsr, Base.Pairs}(Jchemo.lwplsr, nothing, Base.Pairs{Symbol, Union{}, Tuple{}, @NamedTuple{}}())

julia> res = gridcv(mod, Xtrain, ytrain; segm, score = rmsep, 
           pars, nlv, verbose = true).res
/ rep=1 segm=1 segm=2 segm=3 segm=4 / rep=2 segm=1 segm=2 segm=3 segm=4 / rep=3 segm=1 segm=2 segm=3 segm=4 / rep=4 segm=1 segm=2 segm=3 segm=4 / rep=5 segm=1 segm=2 segm=3 segm=4 / rep=6 segm=1 segm=2 segm=3 segm=4 / rep=7 segm=1 segm=2 segm=3 segm=4 / rep=8 segm=1 segm=2 segm=3 segm=4 / rep=9 segm=1 segm=2 segm=3 segm=4 / rep=10 segm=1 segm=2 segm=3 segm=4 / rep=11 segm=1 segm=2 segm=3 segm=4 / rep=12 segm=1 segm=2 segm=3 segm=4 / rep=13 segm=1 segm=2 segm=3 segm=4 / rep=14 segm=1 segm=2 segm=3 segm=4 / rep=15 segm=1 segm=2 segm=3 segm=4 / rep=16 segm=1 segm=2 segm=3 segm=4 / rep=17 segm=1 segm=2 segm=3 segm=4 / rep=18 segm=1 segm=2 segm=3 segm=4 / rep=19 segm=1 segm=2 segm=3 segm=4 / rep=20 segm=1 segm=2 segm=3 segm=4 / End.
480×6 DataFrame
 Row │ nlv    nlvdis  metric  h    k    y1
     │ Int64  Any     Any     Any  Any  Float64
─────┼──────────────────────────────────────────
   1 │     0  10      mah     1.0  30   5.15065
   2 │     1  10      mah     1.0  30   1.30536
   3 │     2  10      mah     1.0  30   1.22656
   4 │     3  10      mah     1.0  30   1.24405
   5 │     4  10      mah     1.0  30   1.30679
   6 │     5  10      mah     1.0  30   1.45532
   7 │     6  10      mah     1.0  30   1.5545
   8 │     7  10      mah     1.0  30   1.6237
  ⋮  │   ⋮      ⋮       ⋮      ⋮    ⋮      ⋮
 474 │     9  15      mah     Inf  100  2.13221
 475 │    10  15      mah     Inf  100  2.15164
 476 │    11  15      mah     Inf  100  2.19376
 477 │    12  15      mah     Inf  100  2.34708
 478 │    13  15      mah     Inf  100  2.51063
 479 │    14  15      mah     Inf  100  2.65171
 480 │    15  15      mah     Inf  100  2.72462
                                465 rows omitted
…
julia> pars = mpar(nlv = nlv, nlvdis = nlvdis, metric = metric, h = h, k = k)
(nlv = Any[0:5, 0:10, 1:5, 1:10, 0:5, 0:10, 1:5, 1:10, 0:5, 0:10  …  1:5, 1:10, 0:5, 0:10, 1:5, 1:10, 0:5, 0:10, 1:5, 1:10], nlvdis = Any[10, 10, 10, 10, 15, 15, 15, 15, 10, 10  …  15, 15, 10, 10, 10, 10, 15, 15, 15, 15], metric = Any[:mah, :mah, :mah, :mah, :mah, :mah, :mah, :mah, :mah, :mah  …  :mah, :mah, :mah, :mah, :mah, :mah, :mah, :mah, :mah, :mah], h = Any[1.0, 1.0, 1.0, 1.0, 1.0, 1.0, 1.0, 1.0, 2.0, 2.0  …  5.0, 5.0, Inf, Inf, Inf, Inf, Inf, Inf, Inf, Inf], k = Any[30, 30, 30, 30, 30, 30, 30, 30, 30, 30  …  100, 100, 100, 100, 100, 100, 100, 100, 100, 100])

julia> length(pars[1])
96

julia> mod = lwplsravg()
Jchemo.Predictor{Function, Jchemo.LwplsrAvg, Base.Pairs}(Jchemo.lwplsravg, nothing, Base.Pairs{Symbol, Union{}, Tuple{}, @NamedTuple{}}())

julia> res = gridcv(mod, Xtrain, ytrain; segm, score = rmsep, 
           pars, verbose = true).res
/ rep=1 segm=1 segm=2 segm=3 segm=4 / rep=2 segm=1 segm=2 segm=3 segm=4 / rep=3 segm=1 segm=2 segm=3 segm=4 / rep=4 segm=1 segm=2 segm=3 segm=4 / rep=5 segm=1 segm=2 segm=3 segm=4 / rep=6 segm=1 segm=2 segm=3 segm=4 / rep=7 segm=1 segm=2 segm=3 segm=4 / rep=8 segm=1 segm=2 segm=3 segm=4 / rep=9 segm=1 segm=2 segm=3 segm=4 / rep=10 segm=1 segm=2 segm=3 segm=4 / rep=11 segm=1 segm=2 segm=3 segm=4 / rep=12 segm=1 segm=2 segm=3 segm=4 / rep=13 segm=1 segm=2 segm=3 segm=4 / rep=14 segm=1 segm=2 segm=3 segm=4 / rep=15 segm=1 segm=2 segm=3 segm=4 / rep=16 segm=1 segm=2 segm=3 segm=4 / rep=17 segm=1 segm=2 segm=3 segm=4 / rep=18 segm=1 segm=2 segm=3 segm=4 / rep=19 segm=1 segm=2 segm=3 segm=4 / rep=20 segm=1 segm=2 segm=3 segm=4 / End.
96×6 DataFrame
 Row │ nlv   nlvdis  metric  h    k    y1
     │ Any   Any     Any     Any  Any  Float64
─────┼─────────────────────────────────────────
   1 │ 0:5   10      mah     1.0  30   1.4792
   2 │ 0:10  10      mah     1.0  30   1.38099
   3 │ 1:5   10      mah     1.0  30   1.16434
   4 │ 1:10  10      mah     1.0  30   1.28907
   5 │ 0:5   15      mah     1.0  30   1.57582
   6 │ 0:10  15      mah     1.0  30   1.45081
   7 │ 1:5   15      mah     1.0  30   1.25733
   8 │ 1:10  15      mah     1.0  30   1.40282
  ⋮  │  ⋮      ⋮       ⋮      ⋮    ⋮      ⋮
  90 │ 0:10  10      mah     Inf  100  2.40186
  91 │ 1:5   10      mah     Inf  100  2.2128
  92 │ 1:10  10      mah     Inf  100  2.11714
  93 │ 0:5   15      mah     Inf  100  3.0389
  94 │ 0:10  15      mah     Inf  100  2.40528
  95 │ 1:5   15      mah     Inf  100  2.21928
  96 │ 1:10  15      mah     Inf  100  2.12055
                                81 rows omitted
…
julia> pars = mpar(nlvdis = nlvdis, metric = metric, h = h, k = k)
(nlvdis = Any[15, 20, 15, 20, 15, 20, 15, 20, 15, 20  …  15, 20, 15, 20, 15, 20, 15, 20, 15, 20], metric = Any[:eucl, :eucl, :mah, :mah, :eucl, :eucl, :mah, :mah, :eucl, :eucl  …  :mah, :mah, :eucl, :eucl, :mah, :mah, :eucl, :eucl, :mah, :mah], h = Any[1.0, 1.0, 1.0, 1.0, 2.0, 2.0, 2.0, 2.0, 4.0, 4.0  …  4.0, 4.0, 6.0, 6.0, 6.0, 6.0, Inf, Inf, Inf, Inf], k = Any[1, 1, 1, 1, 1, 1, 1, 1, 1, 1  …  45, 45, 45, 45, 45, 45, 45, 45, 45, 45])

julia> length(pars[1])
120

julia> mod = knnr()
Jchemo.Predictor{Function, Jchemo.Knnr, Base.Pairs}(Jchemo.knnr, nothing, Base.Pairs{Symbol, Union{}, Tuple{}, @NamedTuple{}}())

julia> res = gridcv(mod, Xtrain, ytrain; segm, score = rmsep, pars).res
120×5 DataFrame
 Row │ nlvdis  metric  h    k    y1
     │ Any     Any     Any  Any  Float64
─────┼────────────────────────────────────
   1 │ 15      eucl    1.0  1     2.03386
   2 │ 20      eucl    1.0  1     2.03397
   3 │ 15      mah     1.0  1     6.46648
   4 │ 20      mah     1.0  1     7.7479
   5 │ 15      eucl    2.0  1     2.03386
   6 │ 20      eucl    2.0  1     2.03397
   7 │ 15      mah     2.0  1     6.46648
   8 │ 20      mah     2.0  1     7.7479
  ⋮  │   ⋮       ⋮      ⋮    ⋮      ⋮
 114 │ 20      eucl    6.0  45    6.23886
 115 │ 15      mah     6.0  45   10.8058
 116 │ 20      mah     6.0  45   11.2603
 117 │ 15      eucl    Inf  45    6.80057
 118 │ 20      eucl    Inf  45    6.80065
 119 │ 15      mah     Inf  45   11.542
 120 │ 20      mah     Inf  45   11.8004
                          105 rows omitted
…
julia> pars = mpar(n_trees = n_trees, n_subfeatures = n_subfeatures, max_depth = max_depth)
(n_trees = Real[200, 200, 200, 200, 200, 200, 200, 200, 200, 200  …  200, 200, 200, 200, 200, 200, 200, 200, 200, 200], n_subfeatures = Real[10.0, 20.0, 30.0, 40.0, 50.0, 60.0, 69.99999999999999, 80.00000000000001, 90.0, 100.0  …  10.0, 20.0, 30.0, 40.0, 50.0, 60.0, 69.99999999999999, 80.00000000000001, 90.0, 100.0], max_depth = Real[6, 6, 6, 6, 6, 6, 6, 6, 6, 6  …  2000, 2000, 2000, 2000, 2000, 2000, 2000, 2000, 2000, 2000])

julia> length(pars[1])
50

julia> res = gridcv(mod, Xtrain, ytrain; segm, score = rmsep, pars).res
50×4 DataFrame
 Row │ n_trees  n_subfeatures  max_depth  y1
     │ Real     Real           Real       Float64
─────┼────────────────────────────────────────────
   1 │     200           10.0          6  2.10908
   2 │     200           20.0          6  2.10908
   3 │     200           30.0          6  2.10908
   4 │     200           40.0          6  2.10908
   5 │     200           50.0          6  2.10908
   6 │     200           60.0          6  2.10908
   7 │     200           70.0          6  2.10908
   8 │     200           80.0          6  2.10908
  ⋮  │    ⋮           ⋮            ⋮         ⋮
  44 │     200           40.0       2000  2.10908
  45 │     200           50.0       2000  2.10908
  46 │     200           60.0       2000  2.10908
  47 │     200           70.0       2000  2.10908
  48 │     200           80.0       2000  2.10908
  49 │     200           90.0       2000  2.10908
  50 │     200          100.0       2000  2.10908
                                   35 rows omitted
…
