gridscore - tecator - Plsr
…
julia> path_jdat = dirname(dirname(pathof(JchemoData)))
"C:\\Users\\lesnoff\\.julia\\packages\\JchemoData\\mSmTv"

julia> db = joinpath(path_jdat, "data/tecator.jld2")
"C:\\Users\\lesnoff\\.julia\\packages\\JchemoData\\mSmTv\\data/tecator.jld2"

julia> @load db dat
1-element Vector{Symbol}:
 :dat

julia> @names dat
(:X, :Y)

julia> X = dat.X
178×100 DataFrame
 Row │ 850      852      854      856      858      860      862      864      ⋯
     │ Float64  Float64  Float64  Float64  Float64  Float64  Float64  Float64  ⋯
─────┼──────────────────────────────────────────────────────────────────────────
   1 │ 2.61776  2.61814  2.61859  2.61912  2.61981  2.62071  2.62186  2.62334  ⋯
   2 │ 2.83454  2.83871  2.84283  2.84705  2.85138  2.85587  2.8606   2.86566
   3 │ 2.58284  2.58458  2.58629  2.58808  2.58996  2.59192  2.59401  2.59627
   4 │ 2.82286  2.8246   2.8263   2.82814  2.83001  2.83192  2.83392  2.83606
   5 │ 2.78813  2.78989  2.79167  2.7935   2.79538  2.79746  2.79984  2.80254  ⋯
   6 │ 3.00993  3.0154   3.02086  3.02634  3.0319   3.03756  3.04341  3.04955
   7 │ 2.52582  2.52665  2.52758  2.52844  2.52944  2.53057  2.53187  2.53339
   8 │ 3.27336  3.27996  3.28646  3.293    3.29956  3.30627  3.3131   3.32006
  ⋮  │    ⋮        ⋮        ⋮        ⋮        ⋮        ⋮        ⋮        ⋮     ⋱
 172 │ 3.29881  3.30738  3.31586  3.32423  3.33257  3.34094  3.34939  3.35796  ⋯
 173 │ 2.70628  2.70826  2.71029  2.7124   2.71465  2.71706  2.71968  2.7226
 174 │ 2.66118  2.66172  2.66232  2.66297  2.66379  2.66482  2.66612  2.66783
 175 │ 3.14626  3.15166  3.15703  3.16244  3.16791  3.17348  3.17923  3.18521
 176 │ 2.57992  2.5804   2.58099  2.58175  2.58266  2.58381  2.5853   2.58719  ⋯
 177 │ 2.56875  2.56923  2.56985  2.5706   2.5715   2.57268  2.5742   2.5761
 178 │ 2.65884  2.65943  2.66023  2.66108  2.66215  2.6636   2.6655   2.66787
                                                 92 columns and 163 rows omitted

julia> Y = dat.Y
178×4 DataFrame
 Row │ water    fat      protein  typ
     │ Float64  Float64  Float64  String
─────┼───────────────────────────────────
   1 │    60.5     22.5     16.7  train
   2 │    46.0     40.1     13.5  train
   3 │    71.0      8.4     20.5  train
   4 │    72.8      5.9     20.7  train
   5 │    58.3     25.5     15.5  train
   6 │    44.0     42.7     13.7  train
   7 │    69.3     10.6     19.3  train
   8 │    61.4     19.9     17.7  train
  ⋮  │    ⋮        ⋮        ⋮       ⋮
 172 │    55.3     24.8     19.3  test
 173 │    56.6     27.2     15.7  test
 174 │    54.4     28.4     14.4  test
 175 │    53.4     31.3     15.3  test
 176 │    51.6     33.8     13.8  test
 177 │    50.3     35.5     13.2  test
 178 │    44.9     42.5     12.0  test
                         163 rows omitted
…
julia> (ntot = ntot, ntrain, ncal, nval, ntest)
(ntot = 178, ntrain = 115, ncal = 81, nval = 34, ntest = 63)

Grid-search

The best syntax to use function gridscore for LV-based functions (eg. plskern, kplsr, lwplsr, etc.) is to set parameter nlv outside of the generic argument pars defining the grid. In that case, the computation  time is reduced [See the naïve and non-optimized syntax at the end of this script]. This is the same principle  when definining the parameter lb in ridge-based functions (rr, krr, etc.).

julia> nlv = 0:20
0:20

julia> model = plskern()
Jchemo.JchemoModel{typeof(Jchemo.plskern), Base.Pairs{Symbol, Union{}, Tuple{}, @NamedTuple{}}}(Jchemo.plskern, nothing, Base.Pairs{Symbol, Union{}, Tuple{}, @NamedTuple{}}())

julia> res = gridscore(model, Xcal, ycal, Xval, yval; score = rmsep, nlv)
21×2 DataFrame
 Row │ nlv    y1
     │ Int64  Float64
─────┼─────────────────
   1 │     0  12.5133
   2 │     1   3.02246
   3 │     2   2.55784
   4 │     3   2.5773
   5 │     4   2.48126
   6 │     5   2.46841
   7 │     6   2.2438
   8 │     7   2.36339
  ⋮  │   ⋮       ⋮
  15 │    14   2.2766
  16 │    15   2.09463
  17 │    16   2.00783
  18 │    17   1.97962
  19 │    18   1.90985
  20 │    19   1.72354
  21 │    20   1.73254
         6 rows omitted
…
If other parameters have to be defined in the grid, they have to be set in argument pars, such as in  the example below.

julia> pars = mpar(scal = [false; true])
(scal = Bool[0, 1],)

julia> nlv = 0:20
0:20

julia> model = plskern()
Jchemo.JchemoModel{typeof(Jchemo.plskern), Base.Pairs{Symbol, Union{}, Tuple{}, @NamedTuple{}}}(Jchemo.plskern, nothing, Base.Pairs{Symbol, Union{}, Tuple{}, @NamedTuple{}}())

julia> res = gridscore(model, Xcal, ycal, Xval, yval; score = rmsep, pars, nlv)
42×3 DataFrame
 Row │ scal   nlv    y1
     │ Bool   Int64  Float64
─────┼────────────────────────
   1 │ false      0  12.5133
   2 │ false      1   3.02246
   3 │ false      2   2.55784
   4 │ false      3   2.5773
   5 │ false      4   2.48126
   6 │ false      5   2.46841
   7 │ false      6   2.2438
   8 │ false      7   2.36339
  ⋮  │   ⋮      ⋮       ⋮
  36 │  true     14   2.09676
  37 │  true     15   2.22333
  38 │  true     16   2.21689
  39 │  true     17   2.08237
  40 │  true     18   1.95322
  41 │  true     19   1.96675
  42 │  true     20   1.99517
               27 rows omitted
…
Naïve syntax to use gridscore for LV-based functions

Parameter nlv can also be set in argument pars (wich is the generic approach to define the grid).  This is strictly equivalent (gives the same results) but the computations are slower.

julia> pars = mpar(nlv = 0:20)
(nlv = [0, 1, 2, 3, 4, 5, 6, 7, 8, 9  …  11, 12, 13, 14, 15, 16, 17, 18, 19, 20],)

julia> model = plskern()
Jchemo.JchemoModel{typeof(Jchemo.plskern), Base.Pairs{Symbol, Union{}, Tuple{}, @NamedTuple{}}}(Jchemo.plskern, nothing, Base.Pairs{Symbol, Union{}, Tuple{}, @NamedTuple{}}())

julia> res = gridscore(model, Xcal, ycal, Xval, yval; score = rmsep, pars)
21×2 DataFrame
 Row │ nlv    y1
     │ Int64  Float64
─────┼─────────────────
   1 │     0  12.5133
   2 │     1   3.02246
   3 │     2   2.55784
   4 │     3   2.5773
   5 │     4   2.48126
   6 │     5   2.46841
   7 │     6   2.2438
   8 │     7   2.36339
  ⋮  │   ⋮       ⋮
  15 │    14   2.2766
  16 │    15   2.09463
  17 │    16   2.00783
  18 │    17   1.97962
  19 │    18   1.90985
  20 │    19   1.72354
  21 │    20   1.73254
         6 rows omitted

julia> pars = mpar(nlv = 0:20, scal = [false; true])
(nlv = Integer[0, 1, 2, 3, 4, 5, 6, 7, 8, 9  …  11, 12, 13, 14, 15, 16, 17, 18, 19, 20], scal = Integer[false, false, false, false, false, false, false, false, false, false  …  true, true, true, true, true, true, true, true, true, true])

julia> model = plskern()
Jchemo.JchemoModel{typeof(Jchemo.plskern), Base.Pairs{Symbol, Union{}, Tuple{}, @NamedTuple{}}}(Jchemo.plskern, nothing, Base.Pairs{Symbol, Union{}, Tuple{}, @NamedTuple{}}())

julia> res = gridscore(model, Xcal, ycal, Xval, yval; score = rmsep, pars)
42×3 DataFrame
 Row │ nlv      scal     y1
     │ Integer  Integer  Float64
─────┼────────────────────────────
   1 │       0    false  12.5133
   2 │       1    false   3.02246
   3 │       2    false   2.55784
   4 │       3    false   2.5773
   5 │       4    false   2.48126
   6 │       5    false   2.46841
   7 │       6    false   2.2438
   8 │       7    false   2.36339
  ⋮  │    ⋮        ⋮        ⋮
  36 │      14     true   2.09676
  37 │      15     true   2.22333
  38 │      16     true   2.21689
  39 │      17     true   2.08237
  40 │      18     true   1.95322
  41 │      19     true   1.96675
  42 │      20     true   1.99517
                   27 rows omitted
…
