gridscore - tecator - Rr
…
julia> path_jdat = dirname(dirname(pathof(JchemoData)))
"C:\\Users\\lesnoff\\.julia\\packages\\JchemoData\\mSmTv"

julia> db = joinpath(path_jdat, "data/tecator.jld2")
"C:\\Users\\lesnoff\\.julia\\packages\\JchemoData\\mSmTv\\data/tecator.jld2"

julia> @load db dat
1-element Vector{Symbol}:
 :dat

julia> @names dat
(:X, :Y)

julia> X = dat.X
178×100 DataFrame
 Row │ 850      852      854      856      858      860      862      864      ⋯
     │ Float64  Float64  Float64  Float64  Float64  Float64  Float64  Float64  ⋯
─────┼──────────────────────────────────────────────────────────────────────────
   1 │ 2.61776  2.61814  2.61859  2.61912  2.61981  2.62071  2.62186  2.62334  ⋯
   2 │ 2.83454  2.83871  2.84283  2.84705  2.85138  2.85587  2.8606   2.86566
   3 │ 2.58284  2.58458  2.58629  2.58808  2.58996  2.59192  2.59401  2.59627
   4 │ 2.82286  2.8246   2.8263   2.82814  2.83001  2.83192  2.83392  2.83606
   5 │ 2.78813  2.78989  2.79167  2.7935   2.79538  2.79746  2.79984  2.80254  ⋯
   6 │ 3.00993  3.0154   3.02086  3.02634  3.0319   3.03756  3.04341  3.04955
   7 │ 2.52582  2.52665  2.52758  2.52844  2.52944  2.53057  2.53187  2.53339
   8 │ 3.27336  3.27996  3.28646  3.293    3.29956  3.30627  3.3131   3.32006
  ⋮  │    ⋮        ⋮        ⋮        ⋮        ⋮        ⋮        ⋮        ⋮     ⋱
 172 │ 3.29881  3.30738  3.31586  3.32423  3.33257  3.34094  3.34939  3.35796  ⋯
 173 │ 2.70628  2.70826  2.71029  2.7124   2.71465  2.71706  2.71968  2.7226
 174 │ 2.66118  2.66172  2.66232  2.66297  2.66379  2.66482  2.66612  2.66783
 175 │ 3.14626  3.15166  3.15703  3.16244  3.16791  3.17348  3.17923  3.18521
 176 │ 2.57992  2.5804   2.58099  2.58175  2.58266  2.58381  2.5853   2.58719  ⋯
 177 │ 2.56875  2.56923  2.56985  2.5706   2.5715   2.57268  2.5742   2.5761
 178 │ 2.65884  2.65943  2.66023  2.66108  2.66215  2.6636   2.6655   2.66787
                                                 92 columns and 163 rows omitted

julia> Y = dat.Y
178×4 DataFrame
 Row │ water    fat      protein  typ
     │ Float64  Float64  Float64  String
─────┼───────────────────────────────────
   1 │    60.5     22.5     16.7  train
   2 │    46.0     40.1     13.5  train
   3 │    71.0      8.4     20.5  train
   4 │    72.8      5.9     20.7  train
   5 │    58.3     25.5     15.5  train
   6 │    44.0     42.7     13.7  train
   7 │    69.3     10.6     19.3  train
   8 │    61.4     19.9     17.7  train
  ⋮  │    ⋮        ⋮        ⋮       ⋮
 172 │    55.3     24.8     19.3  test
 173 │    56.6     27.2     15.7  test
 174 │    54.4     28.4     14.4  test
 175 │    53.4     31.3     15.3  test
 176 │    51.6     33.8     13.8  test
 177 │    50.3     35.5     13.2  test
 178 │    44.9     42.5     12.0  test
                         163 rows omitted
…
julia> model = rr()
Jchemo.JchemoModel{typeof(rr), Base.Pairs{Symbol, Union{}, Tuple{}, @NamedTuple{}}}(Jchemo.rr, nothing, Base.Pairs{Symbol, Union{}, Tuple{}, @NamedTuple{}}())

julia> res = gridscore(model, Xcal, ycal, Xval, yval; score = rmsep, lb)
181×2 DataFrame
 Row │ lb              y1
     │ Float64         Float64
─────┼──────────────────────────
   1 │    1.0e-15       4.93408
   2 │    1.25893e-15   4.93408
   3 │    1.58489e-15   4.93408
   4 │    1.99526e-15   4.93408
   5 │    2.51189e-15   4.93408
   6 │    3.16228e-15   4.93408
   7 │    3.98107e-15   4.93408
   8 │    5.01187e-15   4.93408
  ⋮  │       ⋮            ⋮
 175 │  251.189        10.8611
 176 │  316.228        10.8611
 177 │  398.107        10.8611
 178 │  501.187        10.8611
 179 │  630.957        10.8611
 180 │  794.328        10.8611
 181 │ 1000.0          10.8611
                166 rows omitted
…
julia> model = rr()
Jchemo.JchemoModel{typeof(rr), Base.Pairs{Symbol, Union{}, Tuple{}, @NamedTuple{}}}(Jchemo.rr, nothing, Base.Pairs{Symbol, Union{}, Tuple{}, @NamedTuple{}}())

julia> res = gridscore(model, Xcal, ycal, Xval, yval; score = rmsep, pars, lb)
362×3 DataFrame
 Row │ scal   lb              y1
     │ Bool   Float64         Float64
─────┼─────────────────────────────────
   1 │ false     1.0e-15       4.93408
   2 │ false     1.25893e-15   4.93408
   3 │ false     1.58489e-15   4.93408
   4 │ false     1.99526e-15   4.93408
   5 │ false     2.51189e-15   4.93408
   6 │ false     3.16228e-15   4.93408
   7 │ false     3.98107e-15   4.93408
   8 │ false     5.01187e-15   4.93408
  ⋮  │   ⋮          ⋮            ⋮
 356 │  true   251.189        10.8506
 357 │  true   316.228        10.8545
 358 │  true   398.107        10.8569
 359 │  true   501.187        10.8585
 360 │  true   630.957        10.8594
 361 │  true   794.328        10.8601
 362 │  true  1000.0          10.8605
                       347 rows omitted
…
Naïve syntax to use gridscore for LV-based models

Parameter lb can also be set in argument pars (wich is the generic approach to define the grid).  This is strictly equivalent (gives the same results) but the computations are slower.

julia> pars = mpar(lb = 10.0.^(-15:.1:3))
(lb = [1.0e-15, 1.2589254117941663e-15, 1.584893192461111e-15, 1.995262314968883e-15, 2.511886431509582e-15, 3.1622776601683794e-15, 3.9810717055349695e-15, 5.0118723362727146e-15, 6.309573444801943e-15, 7.943282347242822e-15  …  125.89254117941675, 158.48931924611142, 199.52623149688787, 251.18864315095797, 316.22776601683796, 398.1071705534973, 501.18723362727246, 630.957344480193, 794.3282347242813, 1000.0],)

julia> model = rr()
Jchemo.JchemoModel{typeof(rr), Base.Pairs{Symbol, Union{}, Tuple{}, @NamedTuple{}}}(Jchemo.rr, nothing, Base.Pairs{Symbol, Union{}, Tuple{}, @NamedTuple{}}())

julia> res = gridscore(model, Xcal, ycal, Xval, yval; score = rmsep, pars)
181×2 DataFrame
 Row │ lb              y1
     │ Float64         Float64
─────┼──────────────────────────
   1 │    1.0e-15       4.93408
   2 │    1.25893e-15   4.93408
   3 │    1.58489e-15   4.93408
   4 │    1.99526e-15   4.93408
   5 │    2.51189e-15   4.93408
   6 │    3.16228e-15   4.93408
   7 │    3.98107e-15   4.93408
   8 │    5.01187e-15   4.93408
  ⋮  │       ⋮            ⋮
 175 │  251.189        10.8611
 176 │  316.228        10.8611
 177 │  398.107        10.8611
 178 │  501.187        10.8611
 179 │  630.957        10.8611
 180 │  794.328        10.8611
 181 │ 1000.0          10.8611
                166 rows omitted

julia> pars = mpar(lb = 10.0.^(-15:.1:3), scal = [false; true])
(lb = Real[1.0e-15, 1.2589254117941663e-15, 1.584893192461111e-15, 1.995262314968883e-15, 2.511886431509582e-15, 3.1622776601683794e-15, 3.9810717055349695e-15, 5.0118723362727146e-15, 6.309573444801943e-15, 7.943282347242822e-15  …  125.89254117941675, 158.48931924611142, 199.52623149688787, 251.18864315095797, 316.22776601683796, 398.1071705534973, 501.18723362727246, 630.957344480193, 794.3282347242813, 1000.0], scal = Real[false, false, false, false, false, false, false, false, false, false  …  true, true, true, true, true, true, true, true, true, true])

julia> model = plskern()
Jchemo.JchemoModel{typeof(plskern), Base.Pairs{Symbol, Union{}, Tuple{}, @NamedTuple{}}}(Jchemo.plskern, nothing, Base.Pairs{Symbol, Union{}, Tuple{}, @NamedTuple{}}())

julia> res = gridscore(model, Xcal, ycal, Xval, yval; score = rmsep, pars)
362×3 DataFrame
 Row │ lb              scal   y1
     │ Real            Real   Float64
─────┼────────────────────────────────
   1 │    1.0e-15      false  2.20472
   2 │    1.25893e-15  false  2.20472
   3 │    1.58489e-15  false  2.20472
   4 │    1.99526e-15  false  2.20472
   5 │    2.51189e-15  false  2.20472
   6 │    3.16228e-15  false  2.20472
   7 │    3.98107e-15  false  2.20472
   8 │    5.01187e-15  false  2.20472
  ⋮  │       ⋮           ⋮       ⋮
 356 │  251.189         true  2.5133
 357 │  316.228         true  2.5133
 358 │  398.107         true  2.5133
 359 │  501.187         true  2.5133
 360 │  630.957         true  2.5133
 361 │  794.328         true  2.5133
 362 │ 1000.0           true  2.5133
                      347 rows omitted
…
