challenge2018 - Gridscore all models
…
julia> nlv = 0:50
0:50

julia> pars = mpar(scal = [false; true])
(scal = Bool[0, 1],)

julia> length(pars[1])
2

julia> model = plskern()
Jchemo.JchemoModel{typeof(plskern), Base.Pairs{Symbol, Union{}, Tuple{}, @NamedTuple{}}}(Jchemo.plskern, nothing, Base.Pairs{Symbol, Union{}, Tuple{}, @NamedTuple{}}())

julia> res = gridscore(model, Xcal, ycal, Xval, yval; score = rmsep, pars, nlv)
102×3 DataFrame
 Row │ scal   nlv    y1
     │ Bool   Int64  Float64
─────┼────────────────────────
   1 │ false      0  21.209
   2 │ false      1   9.06105
   3 │ false      2   5.26694
   4 │ false      3   4.05517
   5 │ false      4   3.90437
   6 │ false      5   3.54953
   7 │ false      6   2.96427
   8 │ false      7   2.66166
  ⋮  │   ⋮      ⋮       ⋮
  96 │  true     44   1.19087
  97 │  true     45   1.18998
  98 │  true     46   1.18341
  99 │  true     47   1.17586
 100 │  true     48   1.16912
 101 │  true     49   1.16355
 102 │  true     50   1.15868
               87 rows omitted
…
julia> model = rr()
Jchemo.JchemoModel{typeof(rr), Base.Pairs{Symbol, Union{}, Tuple{}, @NamedTuple{}}}(Jchemo.rr, nothing, Base.Pairs{Symbol, Union{}, Tuple{}, @NamedTuple{}}())

julia> res = gridscore(model, Xcal, ycal, Xval, yval; score = rmsep, lb)
181×2 DataFrame
 Row │ lb              y1
     │ Float64         Float64
─────┼──────────────────────────
   1 │    1.0e-15       1.16659
   2 │    1.25893e-15   1.16659
   3 │    1.58489e-15   1.16659
   4 │    1.99526e-15   1.16659
   5 │    2.51189e-15   1.16658
   6 │    3.16228e-15   1.16658
   7 │    3.98107e-15   1.16658
   8 │    5.01187e-15   1.16657
  ⋮  │       ⋮            ⋮
 175 │  251.189        21.209
 176 │  316.228        21.209
 177 │  398.107        21.209
 178 │  501.187        21.209
 179 │  630.957        21.209
 180 │  794.328        21.209
 181 │ 1000.0          21.209
                166 rows omitted

julia> zres = res[res.y1 .< 2, :]
116×2 DataFrame
 Row │ lb           y1
     │ Float64      Float64
─────┼──────────────────────
   1 │ 1.0e-15      1.16659
   2 │ 1.25893e-15  1.16659
   3 │ 1.58489e-15  1.16659
   4 │ 1.99526e-15  1.16659
   5 │ 2.51189e-15  1.16658
   6 │ 3.16228e-15  1.16658
   7 │ 3.98107e-15  1.16658
   8 │ 5.01187e-15  1.16657
  ⋮  │      ⋮          ⋮
 110 │ 7.94328e-5   1.43915
 111 │ 0.0001       1.49638
 112 │ 0.000125893  1.56151
 113 │ 0.000158489  1.63651
 114 │ 0.000199526  1.72538
 115 │ 0.000251189  1.83549
 116 │ 0.000316228  1.97649
            101 rows omitted
…
Covsel-R

julia> nlv = 0:40
0:40

julia> pars = mpar(msparse = [:hard], nvar = [1])
(msparse = Any[:hard], nvar = Any[1])

julia> model = splskern()
Jchemo.JchemoModel{typeof(splskern), Base.Pairs{Symbol, Union{}, Tuple{}, @NamedTuple{}}}(Jchemo.splskern, nothing, Base.Pairs{Symbol, Union{}, Tuple{}, @NamedTuple{}}())

julia> res = gridscore(model, Xcal, ycal, Xval, yval; score = rmsep, pars, nlv, verbose = false)
41×4 DataFrame
 Row │ msparse  nvar  nlv    y1
     │ Any      Any   Int64  Float64
─────┼────────────────────────────────
   1 │ hard     1         0  21.209
   2 │ hard     1         1   9.06105
   3 │ hard     1         2   5.26694
   4 │ hard     1         3   4.05517
   5 │ hard     1         4   3.90437
   6 │ hard     1         5   3.54953
   7 │ hard     1         6   2.96427
   8 │ hard     1         7   2.66166
  ⋮  │    ⋮      ⋮      ⋮       ⋮
  35 │ hard     1        34   1.17309
  36 │ hard     1        35   1.16758
  37 │ hard     1        36   1.17313
  38 │ hard     1        37   1.18392
  39 │ hard     1        38   1.19147
  40 │ hard     1        39   1.18562
  41 │ hard     1        40   1.17616
                       26 rows omitted
…
julia> model = krr()
Jchemo.JchemoModel{typeof(krr), Base.Pairs{Symbol, Union{}, Tuple{}, @NamedTuple{}}}(Jchemo.krr, nothing, Base.Pairs{Symbol, Union{}, Tuple{}, @NamedTuple{}}())

julia> res = gridscore(model, zXcal, zycal, Xval, yval; score = rmsep, pars, lb, verbose = false)
171×3 DataFrame
 Row │ gamma       lb          y1
     │ Float64     Float64     Float64
─────┼───────────────────────────────────
   1 │      0.001     1.0e-15  179.842
   2 │      0.001     1.0e-14  179.842
   3 │      0.001     1.0e-13  179.833
   4 │      0.001     1.0e-12  178.907
   5 │      0.001     1.0e-11  122.202
   6 │      0.001     1.0e-10   55.9385
   7 │      0.001     1.0e-9    53.3378
   8 │      0.001     1.0e-8    22.3488
  ⋮  │     ⋮           ⋮           ⋮
 165 │ 100000.0       0.001      3.81805
 166 │ 100000.0       0.01       4.10617
 167 │ 100000.0       0.1       11.5442
 168 │ 100000.0       1.0       20.8943
 169 │ 100000.0      10.0       21.199
 170 │ 100000.0     100.0       21.2021
 171 │ 100000.0    1000.0       21.2022
                         156 rows omitted
…
julia> model = kplsr()
Jchemo.JchemoModel{typeof(kplsr), Base.Pairs{Symbol, Union{}, Tuple{}, @NamedTuple{}}}(Jchemo.kplsr, nothing, Base.Pairs{Symbol, Union{}, Tuple{}, @NamedTuple{}}())

julia> res = gridscore(model, zXcal, zycal, Xval, yval; score = rmsep, pars, nlv, verbose = false)
909×3 DataFrame
 Row │ gamma       nlv    y1
     │ Float64     Int64  Float64
─────┼─────────────────────────────
   1 │      0.001      0  21.2512
   2 │      0.001      1   8.35518
   3 │      0.001      2   5.07749
   4 │      0.001      3   4.08706
   5 │      0.001      4   3.90433
   6 │      0.001      5   3.51037
   7 │      0.001      6   3.02702
   8 │      0.001      7   2.62478
  ⋮  │     ⋮         ⋮       ⋮
 903 │ 100000.0       94   4.20566
 904 │ 100000.0       95   4.2053
 905 │ 100000.0       96   4.20501
 906 │ 100000.0       97   4.20488
 907 │ 100000.0       98   4.2048
 908 │ 100000.0       99   4.2048
 909 │ 100000.0      100   4.20492
                   894 rows omitted
…
julia> pars = mpar(gamma = gamma)
(gamma = [0.001, 0.010000000000000002, 0.1, 1.0, 10.0, 100.0, 1000.0, 10000.0, 100000.0],)

julia> length(pars[1])
9

julia> model = dkplsr()
Jchemo.JchemoModel{typeof(dkplsr), Base.Pairs{Symbol, Union{}, Tuple{}, @NamedTuple{}}}(Jchemo.dkplsr, nothing, Base.Pairs{Symbol, Union{}, Tuple{}, @NamedTuple{}}())

julia> res = gridscore(model, Xcal, ycal, Xval, yval; score = rmsep, pars, nlv, verbose = false)
909×3 DataFrame
 Row │ gamma       nlv    y1
     │ Float64     Int64  Float64
─────┼─────────────────────────────
   1 │      0.001      0  21.209
   2 │      0.001      1  17.2132
   3 │      0.001      2  13.1218
   4 │      0.001      3   7.14705
   5 │      0.001      4   6.25999
   6 │      0.001      5   4.63409
   7 │      0.001      6   3.71303
   8 │      0.001      7   3.62223
  ⋮  │     ⋮         ⋮       ⋮
 903 │ 100000.0       94   2.4382
 904 │ 100000.0       95   2.44296
 905 │ 100000.0       96   2.44786
 906 │ 100000.0       97   2.45152
 907 │ 100000.0       98   2.44842
 908 │ 100000.0       99   2.44773
 909 │ 100000.0      100   2.44767
                   894 rows omitted
…
:nlvdis => 25:metric => :mah:h => 6.0:k => 500
:nlvdis => 15:metric => :mah:h => Inf:k => 500
:nlvdis => 25:metric => :mah:h => Inf:k => 500
:nlvdis => 15:metric => :mah:h => 1.0:k => 1000
:nlvdis => 25:metric => :mah:h => 1.0:k => 1000
:nlvdis => 15:metric => :mah:h => 2.0:k => 1000
:nlvdis => 25:metric => :mah:h => 2.0:k => 1000
:nlvdis => 15:metric => :mah:h => 4.0:k => 1000
:nlvdis => 25:metric => :mah:h => 4.0:k => 1000
:nlvdis => 15:metric => :mah:h => 6.0:k => 1000
:nlvdis => 25:metric => :mah:h => 6.0:k => 1000
:nlvdis => 15:metric => :mah:h => Inf:k => 1000
:nlvdis => 25:metric => :mah:h => Inf:k => 1000
-- End.
1050×6 DataFrame
  Row │ nlvdis  metric  h    k     nlv    y1
      │ Any     Any     Any  Any   Int64  Float64
──────┼────────────────────────────────────────────
    1 │ 15      mah     1.0  150       0  1.98801
    2 │ 15      mah     1.0  150       1  1.45419
    3 │ 15      mah     1.0  150       2  1.1425
    4 │ 15      mah     1.0  150       3  0.93157
    5 │ 15      mah     1.0  150       4  0.887325
    6 │ 15      mah     1.0  150       5  0.824704
    7 │ 15      mah     1.0  150       6  0.760221
    8 │ 15      mah     1.0  150       7  0.72852
  ⋮   │   ⋮       ⋮      ⋮    ⋮      ⋮       ⋮
 1044 │ 25      mah     Inf  1000     14  0.998807
 1045 │ 25      mah     Inf  1000     15  0.969484
 1046 │ 25      mah     Inf  1000     16  0.95054
 1047 │ 25      mah     Inf  1000     17  0.936101
 1048 │ 25      mah     Inf  1000     18  0.940776
 1049 │ 25      mah     Inf  1000     19  0.929713
 1050 │ 25      mah     Inf  1000     20  0.920752
                                  1035 rows omitted
…
julia> pars = mpar(nlv = nlv, nlvdis = nlvdis, 
           metric = metric, h = h, k = k)
(nlv = Any[0:20, 5:20, 10:20, 0:20, 5:20, 10:20, 0:20, 5:20, 10:20, 0:20  …  10:20, 0:20, 5:20, 10:20, 0:20, 5:20, 10:20, 0:20, 5:20, 10:20], nlvdis = Any[15, 15, 15, 25, 25, 25, 15, 15, 15, 25  …  15, 25, 25, 25, 15, 15, 15, 25, 25, 25], metric = Any[:mah, :mah, :mah, :mah, :mah, :mah, :mah, :mah, :mah, :mah  …  :mah, :mah, :mah, :mah, :mah, :mah, :mah, :mah, :mah, :mah], h = Any[1, 1, 1, 1, 1, 1, 2, 2, 2, 2  …  2, 2, 2, 2, 4, 4, 4, 4, 4, 4], k = Any[150, 150, 150, 150, 150, 150, 150, 150, 150, 150  …  1000, 1000, 1000, 1000, 1000, 1000, 1000, 1000, 1000, 1000])

julia> length(pars[1])
90

julia> model = lwplsravg()
Jchemo.JchemoModel{typeof(lwplsravg), Base.Pairs{Symbol, Union{}, Tuple{}, @NamedTuple{}}}(Jchemo.lwplsravg, nothing, Base.Pairs{Symbol, Union{}, Tuple{}, @NamedTuple{}}())

julia> res = gridscore(model, Xcal, ycal, Xval, yval; score = rmsep, pars, verbose = false)
90×6 DataFrame
 Row │ nlv    nlvdis  metric  h    k     y1
     │ Any    Any     Any     Any  Any   Float64
─────┼────────────────────────────────────────────
   1 │ 0:20   15      mah     1    150   0.696168
   2 │ 5:20   15      mah     1    150   0.679136
   3 │ 10:20  15      mah     1    150   0.702728
   4 │ 0:20   25      mah     1    150   0.726949
   5 │ 5:20   25      mah     1    150   0.695634
   6 │ 10:20  25      mah     1    150   0.734096
   7 │ 0:20   15      mah     2    150   0.689534
   8 │ 5:20   15      mah     2    150   0.652676
  ⋮  │   ⋮      ⋮       ⋮      ⋮    ⋮       ⋮
  84 │ 10:20  25      mah     2    1000  0.777964
  85 │ 0:20   15      mah     4    1000  1.08309
  86 │ 5:20   15      mah     4    1000  0.872357
  87 │ 10:20  15      mah     4    1000  0.830007
  88 │ 0:20   25      mah     4    1000  1.07224
  89 │ 5:20   25      mah     4    1000  0.839966
  90 │ 10:20  25      mah     4    1000  0.78354
                                   75 rows omitted
…
:nlvdis => 25:metric => :mah:h => 4.0:k => 1000
:nlvdis => 0:metric => :eucl:h => 6.0:k => 1000
:nlvdis => 15:metric => :eucl:h => 6.0:k => 1000
:nlvdis => 25:metric => :eucl:h => 6.0:k => 1000
:nlvdis => 0:metric => :mah:h => 6.0:k => 1000
:nlvdis => 15:metric => :mah:h => 6.0:k => 1000
:nlvdis => 25:metric => :mah:h => 6.0:k => 1000
:nlvdis => 0:metric => :eucl:h => Inf:k => 1000
:nlvdis => 15:metric => :eucl:h => Inf:k => 1000
:nlvdis => 25:metric => :eucl:h => Inf:k => 1000
:nlvdis => 0:metric => :mah:h => Inf:k => 1000
:nlvdis => 15:metric => :mah:h => Inf:k => 1000
:nlvdis => 25:metric => :mah:h => Inf:k => 1000
-- End.
3150×6 DataFrame
  Row │ nlvdis  metric  h    k     nlv    y1
      │ Any     Any     Any  Any   Int64  Float64
──────┼────────────────────────────────────────────
    1 │ 0       eucl    1.0  150       0  1.64681
    2 │ 0       eucl    1.0  150       1  1.23626
    3 │ 0       eucl    1.0  150       2  0.980676
    4 │ 0       eucl    1.0  150       3  0.932011
    5 │ 0       eucl    1.0  150       4  0.884784
    6 │ 0       eucl    1.0  150       5  0.819151
    7 │ 0       eucl    1.0  150       6  0.801399
    8 │ 0       eucl    1.0  150       7  0.77476
  ⋮   │   ⋮       ⋮      ⋮    ⋮      ⋮       ⋮
 3144 │ 25      mah     Inf  1000     14  1.03049
 3145 │ 25      mah     Inf  1000     15  1.01576
 3146 │ 25      mah     Inf  1000     16  1.00862
 3147 │ 25      mah     Inf  1000     17  1.02083
 3148 │ 25      mah     Inf  1000     18  1.02884
 3149 │ 25      mah     Inf  1000     19  1.02844
 3150 │ 25      mah     Inf  1000     20  1.02939
                                  3135 rows omitted
…
julia> pars = mpar(nlvdis = nlvdis, metric = metric, h = h, k = k)
(nlvdis = Any[0, 0, 0, 0, 0, 0, 0, 0, 0, 0  …  0, 0, 0, 0, 0, 0, 0, 0, 0, 0], metric = Any[:eucl, :eucl, :eucl, :eucl, :eucl, :eucl, :eucl, :eucl, :eucl, :eucl  …  :eucl, :eucl, :eucl, :eucl, :eucl, :eucl, :eucl, :eucl, :eucl, :eucl], h = Any[1.0, 2.0, 4.0, 6.0, Inf, 1.0, 2.0, 4.0, 6.0, Inf  …  1.0, 2.0, 4.0, 6.0, Inf, 1.0, 2.0, 4.0, 6.0, Inf], k = Any[1, 1, 1, 1, 1, 5, 5, 5, 5, 5  …  85, 85, 85, 85, 85, 95, 95, 95, 95, 95])

julia> length(pars[1])
55

julia> model = knnr()
Jchemo.JchemoModel{typeof(knnr), Base.Pairs{Symbol, Union{}, Tuple{}, @NamedTuple{}}}(Jchemo.knnr, nothing, Base.Pairs{Symbol, Union{}, Tuple{}, @NamedTuple{}}())

julia> res = gridscore(model, Xcal, ycal, Xval, yval; score = rmsep, pars, verbose = false)
55×5 DataFrame
 Row │ nlvdis  metric  h    k    y1
     │ Any     Any     Any  Any  Float64
─────┼───────────────────────────────────
   1 │ 0       eucl    1.0  1    1.76899
   2 │ 0       eucl    2.0  1    1.76899
   3 │ 0       eucl    4.0  1    1.76899
   4 │ 0       eucl    6.0  1    1.76899
   5 │ 0       eucl    Inf  1    1.76899
   6 │ 0       eucl    1.0  5    1.59173
   7 │ 0       eucl    2.0  5    1.54561
   8 │ 0       eucl    4.0  5    1.52905
  ⋮  │   ⋮       ⋮      ⋮    ⋮      ⋮
  49 │ 0       eucl    6.0  85   2.26337
  50 │ 0       eucl    Inf  85   2.4024
  51 │ 0       eucl    1.0  95   1.62575
  52 │ 0       eucl    2.0  95   1.96168
  53 │ 0       eucl    4.0  95   2.20563
  54 │ 0       eucl    6.0  95   2.28818
  55 │ 0       eucl    Inf  95   2.43902
                          40 rows omitted
…
julia> max_depth = [6; 10; 20; 2000]
4-element Vector{Int64}:
    6
   10
   20
 2000

julia> pars = mpar(n_trees = n_trees, n_subfeatures = n_subfeatures, max_depth = max_depth)
(n_trees = Real[100, 100, 100, 100, 100, 100, 100, 100, 100, 100, 100, 100, 100, 100, 100, 100, 100, 100, 100, 100], n_subfeatures = Real[5.0, 88.75, 172.5, 256.25, 340.0, 5.0, 88.75, 172.5, 256.25, 340.0, 5.0, 88.75, 172.5, 256.25, 340.0, 5.0, 88.75, 172.5, 256.25, 340.0], max_depth = Real[6, 6, 6, 6, 6, 10, 10, 10, 10, 10, 20, 20, 20, 20, 20, 2000, 2000, 2000, 2000, 2000])

julia> length(pars[1])
20

julia> res = gridscore(model, Xcal, ycal, Xval, yval; score = rmsep, pars, verbose = false)
20×4 DataFrame
 Row │ n_trees  n_subfeatures  max_depth  y1
     │ Real     Real           Real       Float64
─────┼────────────────────────────────────────────
   1 │     100           5.0           6  1.76899
   2 │     100          88.75          6  1.76899
   3 │     100         172.5           6  1.76899
   4 │     100         256.25          6  1.76899
   5 │     100         340.0           6  1.76899
   6 │     100           5.0          10  1.76899
   7 │     100          88.75         10  1.76899
   8 │     100         172.5          10  1.76899
  ⋮  │    ⋮           ⋮            ⋮         ⋮
  14 │     100         256.25         20  1.76899
  15 │     100         340.0          20  1.76899
  16 │     100           5.0        2000  1.76899
  17 │     100          88.75       2000  1.76899
  18 │     100         172.5        2000  1.76899
  19 │     100         256.25       2000  1.76899
  20 │     100         340.0        2000  1.76899
                                    5 rows omitted
…
