challenge2018 - Gridscore all models
…
julia> nlv = 0:50
0:50

julia> pars = mpar(scal = [false; true])
(scal = Bool[0, 1],)

julia> length(pars[1])
2

julia> model = plskern()
Jchemo.JchemoModel{typeof(plskern), Base.Pairs{Symbol, Union{}, Tuple{}, @NamedTuple{}}}(Jchemo.plskern, nothing, Base.Pairs{Symbol, Union{}, Tuple{}, @NamedTuple{}}())

julia> res = gridscore(model, Xcal, ycal, Xval, yval; score = rmsep, pars, nlv)
102×3 DataFrame
 Row │ scal   nlv    y1
     │ Bool   Int64  Float64
─────┼────────────────────────
   1 │ false      0  19.5934
   2 │ false      1   9.49407
   3 │ false      2   5.93118
   4 │ false      3   4.22327
   5 │ false      4   3.92382
   6 │ false      5   3.63209
   7 │ false      6   3.12752
   8 │ false      7   2.60182
  ⋮  │   ⋮      ⋮       ⋮
  96 │  true     44   1.12175
  97 │  true     45   1.11938
  98 │  true     46   1.09435
  99 │  true     47   1.07873
 100 │  true     48   1.07612
 101 │  true     49   1.07822
 102 │  true     50   1.08413
               87 rows omitted
…
julia> model = rr()
Jchemo.JchemoModel{typeof(rr), Base.Pairs{Symbol, Union{}, Tuple{}, @NamedTuple{}}}(Jchemo.rr, nothing, Base.Pairs{Symbol, Union{}, Tuple{}, @NamedTuple{}}())

julia> res = gridscore(model, Xcal, ycal, Xval, yval; score = rmsep, lb)
181×2 DataFrame
 Row │ lb              y1
     │ Float64         Float64
─────┼──────────────────────────
   1 │    1.0e-15       1.0828
   2 │    1.25893e-15   1.0828
   3 │    1.58489e-15   1.0828
   4 │    1.99526e-15   1.0828
   5 │    2.51189e-15   1.0828
   6 │    3.16228e-15   1.0828
   7 │    3.98107e-15   1.08279
   8 │    5.01187e-15   1.08279
  ⋮  │       ⋮            ⋮
 175 │  251.189        19.5934
 176 │  316.228        19.5934
 177 │  398.107        19.5934
 178 │  501.187        19.5934
 179 │  630.957        19.5934
 180 │  794.328        19.5934
 181 │ 1000.0          19.5934
                166 rows omitted

julia> zres = res[res.y1 .< 2, :]
115×2 DataFrame
 Row │ lb           y1
     │ Float64      Float64
─────┼──────────────────────
   1 │ 1.0e-15      1.0828
   2 │ 1.25893e-15  1.0828
   3 │ 1.58489e-15  1.0828
   4 │ 1.99526e-15  1.0828
   5 │ 2.51189e-15  1.0828
   6 │ 3.16228e-15  1.0828
   7 │ 3.98107e-15  1.08279
   8 │ 5.01187e-15  1.08279
  ⋮  │      ⋮          ⋮
 109 │ 6.30957e-5   1.41341
 110 │ 7.94328e-5   1.46624
 111 │ 0.0001       1.52422
 112 │ 0.000125893  1.5899
 113 │ 0.000158489  1.66675
 114 │ 0.000199526  1.76019
 115 │ 0.000251189  1.87799
            100 rows omitted
…
COVSEL-R

julia> nlv = 0:40
0:40

julia> pars = mpar(msparse = [:hard], nvar = [1])
(msparse = Any[:hard], nvar = Any[1])

julia> model = splskern()
Jchemo.JchemoModel{typeof(splskern), Base.Pairs{Symbol, Union{}, Tuple{}, @NamedTuple{}}}(Jchemo.splskern, nothing, Base.Pairs{Symbol, Union{}, Tuple{}, @NamedTuple{}}())

julia> res = gridscore(model, Xcal, ycal, Xval, yval; score = rmsep, pars, nlv, verbose = false)
41×4 DataFrame
 Row │ msparse  nvar  nlv    y1
     │ Any      Any   Int64  Float64
─────┼────────────────────────────────
   1 │ hard     1         0  19.5934
   2 │ hard     1         1   9.49407
   3 │ hard     1         2   5.93118
   4 │ hard     1         3   4.22327
   5 │ hard     1         4   3.92382
   6 │ hard     1         5   3.63209
   7 │ hard     1         6   3.12752
   8 │ hard     1         7   2.60182
  ⋮  │    ⋮      ⋮      ⋮       ⋮
  35 │ hard     1        34   1.12833
  36 │ hard     1        35   1.13816
  37 │ hard     1        36   1.13676
  38 │ hard     1        37   1.12614
  39 │ hard     1        38   1.12512
  40 │ hard     1        39   1.1315
  41 │ hard     1        40   1.11592
                       26 rows omitted
…
julia> model = krr()
Jchemo.JchemoModel{typeof(krr), Base.Pairs{Symbol, Union{}, Tuple{}, @NamedTuple{}}}(Jchemo.krr, nothing, Base.Pairs{Symbol, Union{}, Tuple{}, @NamedTuple{}}())

julia> res = gridscore(model, zXcal, zycal, Xval, yval; score = rmsep, pars, lb, verbose = false)
171×3 DataFrame
 Row │ gamma       lb          y1
     │ Float64     Float64     Float64
─────┼──────────────────────────────────
   1 │      0.001     1.0e-15  58.8352
   2 │      0.001     1.0e-14  58.8352
   3 │      0.001     1.0e-13  58.8351
   4 │      0.001     1.0e-12  58.8295
   5 │      0.001     1.0e-11  58.361
   6 │      0.001     1.0e-10  56.4103
   7 │      0.001     1.0e-9   54.1936
   8 │      0.001     1.0e-8   23.2549
  ⋮  │     ⋮           ⋮          ⋮
 165 │ 100000.0       0.001     4.05816
 166 │ 100000.0       0.01      4.24509
 167 │ 100000.0       0.1      10.2711
 168 │ 100000.0       1.0      19.4006
 169 │ 100000.0      10.0      19.7055
 170 │ 100000.0     100.0      19.7086
 171 │ 100000.0    1000.0      19.7086
                        156 rows omitted
…
julia> model = kplsr()
Jchemo.JchemoModel{typeof(kplsr), Base.Pairs{Symbol, Union{}, Tuple{}, @NamedTuple{}}}(Jchemo.kplsr, nothing, Base.Pairs{Symbol, Union{}, Tuple{}, @NamedTuple{}}())

julia> res = gridscore(model, zXcal, zycal, Xval, yval; score = rmsep, pars, nlv, verbose = false)
909×3 DataFrame
 Row │ gamma       nlv    y1
     │ Float64     Int64  Float64
─────┼─────────────────────────────
   1 │      0.001      0  19.706
   2 │      0.001      1   9.77692
   3 │      0.001      2   5.9
   4 │      0.001      3   4.11957
   5 │      0.001      4   3.7966
   6 │      0.001      5   3.68937
   7 │      0.001      6   3.16599
   8 │      0.001      7   2.50864
  ⋮  │     ⋮         ⋮       ⋮
 903 │ 100000.0       94   3.83203
 904 │ 100000.0       95   3.83201
 905 │ 100000.0       96   3.83198
 906 │ 100000.0       97   3.83212
 907 │ 100000.0       98   3.83221
 908 │ 100000.0       99   3.83238
 909 │ 100000.0      100   3.83237
                   894 rows omitted
…
julia> pars = mpar(gamma = gamma)
(gamma = [0.001, 0.010000000000000002, 0.1, 1.0, 10.0, 100.0, 1000.0, 10000.0, 100000.0],)

julia> length(pars[1])
9

julia> model = dkplsr()
Jchemo.JchemoModel{typeof(dkplsr), Base.Pairs{Symbol, Union{}, Tuple{}, @NamedTuple{}}}(Jchemo.dkplsr, nothing, Base.Pairs{Symbol, Union{}, Tuple{}, @NamedTuple{}}())

julia> res = gridscore(model, Xcal, ycal, Xval, yval; score = rmsep, pars, nlv, verbose = false)
909×3 DataFrame
 Row │ gamma       nlv    y1
     │ Float64     Int64  Float64
─────┼─────────────────────────────
   1 │      0.001      0  19.5934
   2 │      0.001      1  15.6967
   3 │      0.001      2  11.3506
   4 │      0.001      3   7.04867
   5 │      0.001      4   6.5681
   6 │      0.001      5   4.75034
   7 │      0.001      6   3.6919
   8 │      0.001      7   3.65848
  ⋮  │     ⋮         ⋮       ⋮
 903 │ 100000.0       94   2.45875
 904 │ 100000.0       95   2.45942
 905 │ 100000.0       96   2.45352
 906 │ 100000.0       97   2.45925
 907 │ 100000.0       98   2.46359
 908 │ 100000.0       99   2.46779
 909 │ 100000.0      100   2.4702
                   894 rows omitted
…
:nlvdis => 25:metric => :mah:h => 6.0:k => 500
:nlvdis => 15:metric => :mah:h => Inf:k => 500
:nlvdis => 25:metric => :mah:h => Inf:k => 500
:nlvdis => 15:metric => :mah:h => 1.0:k => 1000
:nlvdis => 25:metric => :mah:h => 1.0:k => 1000
:nlvdis => 15:metric => :mah:h => 2.0:k => 1000
:nlvdis => 25:metric => :mah:h => 2.0:k => 1000
:nlvdis => 15:metric => :mah:h => 4.0:k => 1000
:nlvdis => 25:metric => :mah:h => 4.0:k => 1000
:nlvdis => 15:metric => :mah:h => 6.0:k => 1000
:nlvdis => 25:metric => :mah:h => 6.0:k => 1000
:nlvdis => 15:metric => :mah:h => Inf:k => 1000
:nlvdis => 25:metric => :mah:h => Inf:k => 1000
-- End.
1050×6 DataFrame
  Row │ nlvdis  metric  h    k     nlv    y1
      │ Any     Any     Any  Any   Int64  Float64
──────┼────────────────────────────────────────────
    1 │ 15      mah     1.0  150       0  1.91181
    2 │ 15      mah     1.0  150       1  1.49784
    3 │ 15      mah     1.0  150       2  1.07226
    4 │ 15      mah     1.0  150       3  0.87585
    5 │ 15      mah     1.0  150       4  0.798656
    6 │ 15      mah     1.0  150       5  0.741769
    7 │ 15      mah     1.0  150       6  0.738057
    8 │ 15      mah     1.0  150       7  0.741725
  ⋮   │   ⋮       ⋮      ⋮    ⋮      ⋮       ⋮
 1044 │ 25      mah     Inf  1000     14  1.06155
 1045 │ 25      mah     Inf  1000     15  1.02625
 1046 │ 25      mah     Inf  1000     16  0.990407
 1047 │ 25      mah     Inf  1000     17  0.957722
 1048 │ 25      mah     Inf  1000     18  0.895985
 1049 │ 25      mah     Inf  1000     19  0.889588
 1050 │ 25      mah     Inf  1000     20  0.866216
                                  1035 rows omitted
…
julia> pars = mpar(nlv = nlv, nlvdis = nlvdis, 
           metric = metric, h = h, k = k)
(nlv = Any[0:20, 5:20, 10:20, 0:20, 5:20, 10:20, 0:20, 5:20, 10:20, 0:20  …  10:20, 0:20, 5:20, 10:20, 0:20, 5:20, 10:20, 0:20, 5:20, 10:20], nlvdis = Any[15, 15, 15, 25, 25, 25, 15, 15, 15, 25  …  15, 25, 25, 25, 15, 15, 15, 25, 25, 25], metric = Any[:mah, :mah, :mah, :mah, :mah, :mah, :mah, :mah, :mah, :mah  …  :mah, :mah, :mah, :mah, :mah, :mah, :mah, :mah, :mah, :mah], h = Any[1, 1, 1, 1, 1, 1, 2, 2, 2, 2  …  2, 2, 2, 2, 4, 4, 4, 4, 4, 4], k = Any[150, 150, 150, 150, 150, 150, 150, 150, 150, 150  …  1000, 1000, 1000, 1000, 1000, 1000, 1000, 1000, 1000, 1000])

julia> length(pars[1])
90

julia> model = lwplsravg()
Jchemo.JchemoModel{typeof(lwplsravg), Base.Pairs{Symbol, Union{}, Tuple{}, @NamedTuple{}}}(Jchemo.lwplsravg, nothing, Base.Pairs{Symbol, Union{}, Tuple{}, @NamedTuple{}}())

julia> res = gridscore(model, Xcal, ycal, Xval, yval; score = rmsep, pars, verbose = false)
90×6 DataFrame
 Row │ nlv    nlvdis  metric  h    k     y1
     │ Any    Any     Any     Any  Any   Float64
─────┼────────────────────────────────────────────
   1 │ 0:20   15      mah     1    150   0.663485
   2 │ 5:20   15      mah     1    150   0.694162
   3 │ 10:20  15      mah     1    150   0.733663
   4 │ 0:20   25      mah     1    150   0.718898
   5 │ 5:20   25      mah     1    150   0.756157
   6 │ 10:20  25      mah     1    150   0.791658
   7 │ 0:20   15      mah     2    150   0.664969
   8 │ 5:20   15      mah     2    150   0.680582
  ⋮  │   ⋮      ⋮       ⋮      ⋮    ⋮       ⋮
  84 │ 10:20  25      mah     2    1000  0.722568
  85 │ 0:20   15      mah     4    1000  1.0534
  86 │ 5:20   15      mah     4    1000  0.870581
  87 │ 10:20  15      mah     4    1000  0.840584
  88 │ 0:20   25      mah     4    1000  0.999402
  89 │ 5:20   25      mah     4    1000  0.789429
  90 │ 10:20  25      mah     4    1000  0.75676
                                   75 rows omitted
…
:nlvdis => 25:metric => :mah:h => 4.0:k => 1000
:nlvdis => 0:metric => :eucl:h => 6.0:k => 1000
:nlvdis => 15:metric => :eucl:h => 6.0:k => 1000
:nlvdis => 25:metric => :eucl:h => 6.0:k => 1000
:nlvdis => 0:metric => :mah:h => 6.0:k => 1000
:nlvdis => 15:metric => :mah:h => 6.0:k => 1000
:nlvdis => 25:metric => :mah:h => 6.0:k => 1000
:nlvdis => 0:metric => :eucl:h => Inf:k => 1000
:nlvdis => 15:metric => :eucl:h => Inf:k => 1000
:nlvdis => 25:metric => :eucl:h => Inf:k => 1000
:nlvdis => 0:metric => :mah:h => Inf:k => 1000
:nlvdis => 15:metric => :mah:h => Inf:k => 1000
:nlvdis => 25:metric => :mah:h => Inf:k => 1000
-- End.
3150×6 DataFrame
  Row │ nlvdis  metric  h    k     nlv    y1
      │ Any     Any     Any  Any   Int64  Float64
──────┼────────────────────────────────────────────
    1 │ 0       eucl    1.0  150       0  1.68455
    2 │ 0       eucl    1.0  150       1  1.25821
    3 │ 0       eucl    1.0  150       2  0.984442
    4 │ 0       eucl    1.0  150       3  0.822932
    5 │ 0       eucl    1.0  150       4  0.801188
    6 │ 0       eucl    1.0  150       5  0.758523
    7 │ 0       eucl    1.0  150       6  0.750216
    8 │ 0       eucl    1.0  150       7  0.751733
  ⋮   │   ⋮       ⋮      ⋮    ⋮      ⋮       ⋮
 3144 │ 25      mah     Inf  1000     14  1.03553
 3145 │ 25      mah     Inf  1000     15  1.01404
 3146 │ 25      mah     Inf  1000     16  1.00294
 3147 │ 25      mah     Inf  1000     17  1.00209
 3148 │ 25      mah     Inf  1000     18  1.00049
 3149 │ 25      mah     Inf  1000     19  0.997052
 3150 │ 25      mah     Inf  1000     20  0.992225
                                  3135 rows omitted
…
julia> pars = mpar(nlvdis = nlvdis, metric = metric, h = h, k = k)
(nlvdis = Any[0, 0, 0, 0, 0, 0, 0, 0, 0, 0  …  0, 0, 0, 0, 0, 0, 0, 0, 0, 0], metric = Any[:eucl, :eucl, :eucl, :eucl, :eucl, :eucl, :eucl, :eucl, :eucl, :eucl  …  :eucl, :eucl, :eucl, :eucl, :eucl, :eucl, :eucl, :eucl, :eucl, :eucl], h = Any[1.0, 2.0, 4.0, 6.0, Inf, 1.0, 2.0, 4.0, 6.0, Inf  …  1.0, 2.0, 4.0, 6.0, Inf, 1.0, 2.0, 4.0, 6.0, Inf], k = Any[1, 1, 1, 1, 1, 5, 5, 5, 5, 5  …  85, 85, 85, 85, 85, 95, 95, 95, 95, 95])

julia> length(pars[1])
55

julia> model = knnr()
Jchemo.JchemoModel{typeof(knnr), Base.Pairs{Symbol, Union{}, Tuple{}, @NamedTuple{}}}(Jchemo.knnr, nothing, Base.Pairs{Symbol, Union{}, Tuple{}, @NamedTuple{}}())

julia> res = gridscore(model, Xcal, ycal, Xval, yval; score = rmsep, pars, verbose = false)
55×5 DataFrame
 Row │ nlvdis  metric  h    k    y1
     │ Any     Any     Any  Any  Float64
─────┼───────────────────────────────────
   1 │ 0       eucl    1.0  1    1.71881
   2 │ 0       eucl    2.0  1    1.71881
   3 │ 0       eucl    4.0  1    1.71881
   4 │ 0       eucl    6.0  1    1.71881
   5 │ 0       eucl    Inf  1    1.71881
   6 │ 0       eucl    1.0  5    1.54345
   7 │ 0       eucl    2.0  5    1.49295
   8 │ 0       eucl    4.0  5    1.46662
  ⋮  │   ⋮       ⋮      ⋮    ⋮      ⋮
  49 │ 0       eucl    6.0  85   2.1342
  50 │ 0       eucl    Inf  85   2.25551
  51 │ 0       eucl    1.0  95   1.65023
  52 │ 0       eucl    2.0  95   1.90872
  53 │ 0       eucl    4.0  95   2.10685
  54 │ 0       eucl    6.0  95   2.17983
  55 │ 0       eucl    Inf  95   2.31814
                          40 rows omitted
…
julia> max_depth = [6; 10; 20; 2000]
4-element Vector{Int64}:
    6
   10
   20
 2000

julia> pars = mpar(n_trees = n_trees, n_subfeatures = n_subfeatures, max_depth = max_depth)
(n_trees = Real[100, 100, 100, 100, 100, 100, 100, 100, 100, 100, 100, 100, 100, 100, 100, 100, 100, 100, 100, 100], n_subfeatures = Real[5.0, 88.75, 172.5, 256.25, 340.0, 5.0, 88.75, 172.5, 256.25, 340.0, 5.0, 88.75, 172.5, 256.25, 340.0, 5.0, 88.75, 172.5, 256.25, 340.0], max_depth = Real[6, 6, 6, 6, 6, 10, 10, 10, 10, 10, 20, 20, 20, 20, 20, 2000, 2000, 2000, 2000, 2000])

julia> length(pars[1])
20

julia> res = gridscore(model, Xcal, ycal, Xval, yval; score = rmsep, pars, verbose = false)
20×4 DataFrame
 Row │ n_trees  n_subfeatures  max_depth  y1
     │ Real     Real           Real       Float64
─────┼────────────────────────────────────────────
   1 │     100           5.0           6  1.71881
   2 │     100          88.75          6  1.71881
   3 │     100         172.5           6  1.71881
   4 │     100         256.25          6  1.71881
   5 │     100         340.0           6  1.71881
   6 │     100           5.0          10  1.71881
   7 │     100          88.75         10  1.71881
   8 │     100         172.5          10  1.71881
  ⋮  │    ⋮           ⋮            ⋮         ⋮
  14 │     100         256.25         20  1.71881
  15 │     100         340.0          20  1.71881
  16 │     100           5.0        2000  1.71881
  17 │     100          88.75       2000  1.71881
  18 │     100         172.5        2000  1.71881
  19 │     100         256.25       2000  1.71881
  20 │     100         340.0        2000  1.71881
                                    5 rows omitted
…
