gridscore_all_models_challenge2018.jl
…
julia> nlv = 0:50
0:50

julia> pars = mpar(scal = [false; true])
(scal = Bool[0, 1],)

julia> length(pars[1])
2

julia> mod = model(plskern)
Jchemo.Model{typeof(Jchemo.plskern), Base.Pairs{Symbol, Union{}, Tuple{}, @NamedTuple{}}}(Jchemo.plskern, nothing, Base.Pairs{Symbol, Union{}, Tuple{}, @NamedTuple{}}())

julia> res = gridscore(mod, Xcal, ycal, Xval, yval; score = rmsep, pars, nlv)
102×3 DataFrame
 Row │ scal   nlv    y1
     │ Bool   Int64  Float64
─────┼────────────────────────
   1 │ false      0  20.3433
   2 │ false      1   8.68789
   3 │ false      2   5.32872
   4 │ false      3   3.78152
   5 │ false      4   3.67647
   6 │ false      5   3.33811
   7 │ false      6   2.83914
   8 │ false      7   2.69399
  ⋮  │   ⋮      ⋮       ⋮
  96 │  true     44   1.25189
  97 │  true     45   1.2493
  98 │  true     46   1.22433
  99 │  true     47   1.22542
 100 │  true     48   1.21344
 101 │  true     49   1.21575
 102 │  true     50   1.21185
               87 rows omitted
…
julia> mod = model(rr)
Jchemo.Model{typeof(Jchemo.rr), Base.Pairs{Symbol, Union{}, Tuple{}, @NamedTuple{}}}(Jchemo.rr, nothing, Base.Pairs{Symbol, Union{}, Tuple{}, @NamedTuple{}}())

julia> res = gridscore(mod, Xcal, ycal, Xval, yval; score = rmsep, lb)
181×2 DataFrame
 Row │ lb              y1
     │ Float64         Float64
─────┼──────────────────────────
   1 │    1.0e-15       1.14649
   2 │    1.25893e-15   1.14649
   3 │    1.58489e-15   1.14649
   4 │    1.99526e-15   1.14649
   5 │    2.51189e-15   1.14649
   6 │    3.16228e-15   1.14649
   7 │    3.98107e-15   1.14649
   8 │    5.01187e-15   1.14649
  ⋮  │       ⋮            ⋮
 175 │  251.189        20.3433
 176 │  316.228        20.3433
 177 │  398.107        20.3433
 178 │  501.187        20.3433
 179 │  630.957        20.3433
 180 │  794.328        20.3433
 181 │ 1000.0          20.3433
                166 rows omitted

julia> zres = res[res.y1 .< 2, :]
116×2 DataFrame
 Row │ lb           y1
     │ Float64      Float64
─────┼──────────────────────
   1 │ 1.0e-15      1.14649
   2 │ 1.25893e-15  1.14649
   3 │ 1.58489e-15  1.14649
   4 │ 1.99526e-15  1.14649
   5 │ 2.51189e-15  1.14649
   6 │ 3.16228e-15  1.14649
   7 │ 3.98107e-15  1.14649
   8 │ 5.01187e-15  1.14649
  ⋮  │      ⋮          ⋮
 110 │ 7.94328e-5   1.42139
 111 │ 0.0001       1.46632
 112 │ 0.000125893  1.52321
 113 │ 0.000158489  1.59283
 114 │ 0.000199526  1.67675
 115 │ 0.000251189  1.77925
 116 │ 0.000316228  1.90692
            101 rows omitted
…
Covselr

julia> nlv = 0:40
0:40

julia> pars = mpar(msparse = [:hard], nvar = [1])
(msparse = Any[:hard], nvar = Any[1])

julia> mod = model(splskern)
Jchemo.Model{typeof(Jchemo.splskern), Base.Pairs{Symbol, Union{}, Tuple{}, @NamedTuple{}}}(Jchemo.splskern, nothing, Base.Pairs{Symbol, Union{}, Tuple{}, @NamedTuple{}}())

julia> res = gridscore(mod, Xcal, ycal, Xval, yval; score = rmsep, pars, nlv, verbose = false)
41×4 DataFrame
 Row │ msparse  nvar  nlv    y1
     │ Any      Any   Int64  Float64
─────┼────────────────────────────────
   1 │ hard     1         0  20.3433
   2 │ hard     1         1   8.68789
   3 │ hard     1         2   5.32872
   4 │ hard     1         3   3.78152
   5 │ hard     1         4   3.67647
   6 │ hard     1         5   3.33811
   7 │ hard     1         6   2.83914
   8 │ hard     1         7   2.69399
  ⋮  │    ⋮      ⋮      ⋮       ⋮
  35 │ hard     1        34   1.27967
  36 │ hard     1        35   1.2803
  37 │ hard     1        36   1.27626
  38 │ hard     1        37   1.2612
  39 │ hard     1        38   1.25716
  40 │ hard     1        39   1.25448
  41 │ hard     1        40   1.25109
                       26 rows omitted
…
julia> mod = model(krr)
Jchemo.Model{typeof(Jchemo.krr), Base.Pairs{Symbol, Union{}, Tuple{}, @NamedTuple{}}}(Jchemo.krr, nothing, Base.Pairs{Symbol, Union{}, Tuple{}, @NamedTuple{}}())

julia> res = gridscore(mod, zXcal, zycal, Xval, yval; score = rmsep, pars, lb, verbose = false)
171×3 DataFrame
 Row │ gamma       lb          y1
     │ Float64     Float64     Float64
─────┼──────────────────────────────────
   1 │      0.001     1.0e-15  61.8668
   2 │      0.001     1.0e-14  61.8668
   3 │      0.001     1.0e-13  61.8668
   4 │      0.001     1.0e-12  61.8657
   5 │      0.001     1.0e-11  61.7635
   6 │      0.001     1.0e-10  59.5165
   7 │      0.001     1.0e-9   57.5317
   8 │      0.001     1.0e-8   23.4862
  ⋮  │     ⋮           ⋮          ⋮
 165 │ 100000.0       0.001     4.55306
 166 │ 100000.0       0.01      4.87317
 167 │ 100000.0       0.1      11.1001
 168 │ 100000.0       1.0      20.0576
 169 │ 100000.0      10.0      20.3465
 170 │ 100000.0     100.0      20.3494
 171 │ 100000.0    1000.0      20.3494
                        156 rows omitted
…
julia> mod = model(kplsr)
Jchemo.Model{typeof(Jchemo.kplsr), Base.Pairs{Symbol, Union{}, Tuple{}, @NamedTuple{}}}(Jchemo.kplsr, nothing, Base.Pairs{Symbol, Union{}, Tuple{}, @NamedTuple{}}())

julia> res = gridscore(mod, zXcal, zycal, Xval, yval; score = rmsep, pars, nlv, verbose = false)
909×3 DataFrame
 Row │ gamma       nlv    y1
     │ Float64     Int64  Float64
─────┼─────────────────────────────
   1 │      0.001      0  20.347
   2 │      0.001      1   8.7465
   3 │      0.001      2   5.48908
   4 │      0.001      3   3.80201
   5 │      0.001      4   3.72518
   6 │      0.001      5   3.41051
   7 │      0.001      6   2.88706
   8 │      0.001      7   2.67331
  ⋮  │     ⋮         ⋮       ⋮
 903 │ 100000.0       94   4.3951
 904 │ 100000.0       95   4.39544
 905 │ 100000.0       96   4.39551
 906 │ 100000.0       97   4.39556
 907 │ 100000.0       98   4.39574
 908 │ 100000.0       99   4.39572
 909 │ 100000.0      100   4.39575
                   894 rows omitted
…
julia> pars = mpar(gamma = gamma)
(gamma = [0.001, 0.010000000000000002, 0.1, 1.0, 10.0, 100.0, 1000.0, 10000.0, 100000.0],)

julia> length(pars[1])
9

julia> mod = model(dkplsr)
Jchemo.Model{typeof(Jchemo.dkplsr), Base.Pairs{Symbol, Union{}, Tuple{}, @NamedTuple{}}}(Jchemo.dkplsr, nothing, Base.Pairs{Symbol, Union{}, Tuple{}, @NamedTuple{}}())

julia> res = gridscore(mod, Xcal, ycal, Xval, yval; score = rmsep, pars, nlv, verbose = false)
909×3 DataFrame
 Row │ gamma       nlv    y1
     │ Float64     Int64  Float64
─────┼─────────────────────────────
   1 │      0.001      0  20.3433
   2 │      0.001      1  16.1318
   3 │      0.001      2  12.7652
   4 │      0.001      3   7.3274
   5 │      0.001      4   6.21003
   6 │      0.001      5   4.41977
   7 │      0.001      6   3.55368
   8 │      0.001      7   3.39907
  ⋮  │     ⋮         ⋮       ⋮
 903 │ 100000.0       94   2.78508
 904 │ 100000.0       95   2.78849
 905 │ 100000.0       96   2.79006
 906 │ 100000.0       97   2.79364
 907 │ 100000.0       98   2.79267
 908 │ 100000.0       99   2.79135
 909 │ 100000.0      100   2.79353
                   894 rows omitted
…
:nlvdis => 25:metric => :mah:h => 6.0:k => 500
:nlvdis => 15:metric => :mah:h => Inf:k => 500
:nlvdis => 25:metric => :mah:h => Inf:k => 500
:nlvdis => 15:metric => :mah:h => 1.0:k => 1000
:nlvdis => 25:metric => :mah:h => 1.0:k => 1000
:nlvdis => 15:metric => :mah:h => 2.0:k => 1000
:nlvdis => 25:metric => :mah:h => 2.0:k => 1000
:nlvdis => 15:metric => :mah:h => 4.0:k => 1000
:nlvdis => 25:metric => :mah:h => 4.0:k => 1000
:nlvdis => 15:metric => :mah:h => 6.0:k => 1000
:nlvdis => 25:metric => :mah:h => 6.0:k => 1000
:nlvdis => 15:metric => :mah:h => Inf:k => 1000
:nlvdis => 25:metric => :mah:h => Inf:k => 1000
-- End.
1050×6 DataFrame
  Row │ nlvdis  metric  h    k     nlv    y1
      │ Any     Any     Any  Any   Int64  Float64
──────┼────────────────────────────────────────────
    1 │ 15      mah     1.0  150       0  2.23947
    2 │ 15      mah     1.0  150       1  1.5715
    3 │ 15      mah     1.0  150       2  1.20592
    4 │ 15      mah     1.0  150       3  1.01019
    5 │ 15      mah     1.0  150       4  0.892088
    6 │ 15      mah     1.0  150       5  0.827255
    7 │ 15      mah     1.0  150       6  0.782202
    8 │ 15      mah     1.0  150       7  0.759872
  ⋮   │   ⋮       ⋮      ⋮    ⋮      ⋮       ⋮
 1044 │ 25      mah     Inf  1000     14  1.12829
 1045 │ 25      mah     Inf  1000     15  1.10056
 1046 │ 25      mah     Inf  1000     16  1.05399
 1047 │ 25      mah     Inf  1000     17  1.0659
 1048 │ 25      mah     Inf  1000     18  1.05478
 1049 │ 25      mah     Inf  1000     19  1.05286
 1050 │ 25      mah     Inf  1000     20  1.01429
                                  1035 rows omitted
…
julia> pars = mpar(nlv = nlv, nlvdis = nlvdis, 
           metric = metric, h = h, k = k)
(nlv = Any[0:20, 5:20, 10:20, 0:20, 5:20, 10:20, 0:20, 5:20, 10:20, 0:20  …  10:20, 0:20, 5:20, 10:20, 0:20, 5:20, 10:20, 0:20, 5:20, 10:20], nlvdis = Any[15, 15, 15, 25, 25, 25, 15, 15, 15, 25  …  15, 25, 25, 25, 15, 15, 15, 25, 25, 25], metric = Any[:mah, :mah, :mah, :mah, :mah, :mah, :mah, :mah, :mah, :mah  …  :mah, :mah, :mah, :mah, :mah, :mah, :mah, :mah, :mah, :mah], h = Any[1, 1, 1, 1, 1, 1, 2, 2, 2, 2  …  2, 2, 2, 2, 4, 4, 4, 4, 4, 4], k = Any[150, 150, 150, 150, 150, 150, 150, 150, 150, 150  …  1000, 1000, 1000, 1000, 1000, 1000, 1000, 1000, 1000, 1000])

julia> length(pars[1])
90

julia> mod = model(lwplsravg)
Jchemo.Model{typeof(Jchemo.lwplsravg), Base.Pairs{Symbol, Union{}, Tuple{}, @NamedTuple{}}}(Jchemo.lwplsravg, nothing, Base.Pairs{Symbol, Union{}, Tuple{}, @NamedTuple{}}())

julia> res = gridscore(mod, Xcal, ycal, Xval, yval; score = rmsep, pars, verbose = false)
90×6 DataFrame
 Row │ nlv    nlvdis  metric  h    k     y1
     │ Any    Any     Any     Any  Any   Float64
─────┼────────────────────────────────────────────
   1 │ 0:20   15      mah     1    150   0.709475
   2 │ 5:20   15      mah     1    150   0.686548
   3 │ 10:20  15      mah     1    150   0.707813
   4 │ 0:20   25      mah     1    150   0.76571
   5 │ 5:20   25      mah     1    150   0.739304
   6 │ 10:20  25      mah     1    150   0.784664
   7 │ 0:20   15      mah     2    150   0.707475
   8 │ 5:20   15      mah     2    150   0.660783
  ⋮  │   ⋮      ⋮       ⋮      ⋮    ⋮       ⋮
  84 │ 10:20  25      mah     2    1000  0.882927
  85 │ 0:20   15      mah     4    1000  1.11964
  86 │ 5:20   15      mah     4    1000  0.942568
  87 │ 10:20  15      mah     4    1000  0.927136
  88 │ 0:20   25      mah     4    1000  1.12484
  89 │ 5:20   25      mah     4    1000  0.937614
  90 │ 10:20  25      mah     4    1000  0.912847
                                   75 rows omitted
…
:nlvdis => 25:metric => :mah:h => 4.0:k => 1000
:nlvdis => 0:metric => :eucl:h => 6.0:k => 1000
:nlvdis => 15:metric => :eucl:h => 6.0:k => 1000
:nlvdis => 25:metric => :eucl:h => 6.0:k => 1000
:nlvdis => 0:metric => :mah:h => 6.0:k => 1000
:nlvdis => 15:metric => :mah:h => 6.0:k => 1000
:nlvdis => 25:metric => :mah:h => 6.0:k => 1000
:nlvdis => 0:metric => :eucl:h => Inf:k => 1000
:nlvdis => 15:metric => :eucl:h => Inf:k => 1000
:nlvdis => 25:metric => :eucl:h => Inf:k => 1000
:nlvdis => 0:metric => :mah:h => Inf:k => 1000
:nlvdis => 15:metric => :mah:h => Inf:k => 1000
:nlvdis => 25:metric => :mah:h => Inf:k => 1000
-- End.
3150×6 DataFrame
  Row │ nlvdis  metric  h    k     nlv    y1
      │ Any     Any     Any  Any   Int64  Float64
──────┼────────────────────────────────────────────
    1 │ 0       eucl    1.0  150       0  1.70732
    2 │ 0       eucl    1.0  150       1  1.24517
    3 │ 0       eucl    1.0  150       2  0.994328
    4 │ 0       eucl    1.0  150       3  0.932658
    5 │ 0       eucl    1.0  150       4  0.844391
    6 │ 0       eucl    1.0  150       5  0.806308
    7 │ 0       eucl    1.0  150       6  0.770344
    8 │ 0       eucl    1.0  150       7  0.764102
  ⋮   │   ⋮       ⋮      ⋮    ⋮      ⋮       ⋮
 3144 │ 25      mah     Inf  1000     14  1.08552
 3145 │ 25      mah     Inf  1000     15  1.08563
 3146 │ 25      mah     Inf  1000     16  1.0852
 3147 │ 25      mah     Inf  1000     17  1.08128
 3148 │ 25      mah     Inf  1000     18  1.08322
 3149 │ 25      mah     Inf  1000     19  1.08723
 3150 │ 25      mah     Inf  1000     20  1.08509
                                  3135 rows omitted
…
julia> pars = mpar(nlvdis = nlvdis, metric = metric, h = h, k = k)
(nlvdis = Any[15, 20, 15, 20, 15, 20, 15, 20, 15, 20  …  15, 20, 15, 20, 15, 20, 15, 20, 15, 20], metric = Any[:mah, :mah, :mah, :mah, :mah, :mah, :mah, :mah, :mah, :mah  …  :mah, :mah, :mah, :mah, :mah, :mah, :mah, :mah, :mah, :mah], h = Any[1.0, 1.0, 2.0, 2.0, 4.0, 4.0, 6.0, 6.0, Inf, Inf  …  1.0, 1.0, 2.0, 2.0, 4.0, 4.0, 6.0, 6.0, Inf, Inf], k = Any[1, 1, 1, 1, 1, 1, 1, 1, 1, 1  …  95, 95, 95, 95, 95, 95, 95, 95, 95, 95])

julia> length(pars[1])
110

julia> mod = model(knnr)
Jchemo.Model{typeof(Jchemo.knnr), Base.Pairs{Symbol, Union{}, Tuple{}, @NamedTuple{}}}(Jchemo.knnr, nothing, Base.Pairs{Symbol, Union{}, Tuple{}, @NamedTuple{}}())

julia> res = gridscore(mod, Xcal, ycal, Xval, yval; score = rmsep, pars, verbose = false)
110×5 DataFrame
 Row │ nlvdis  metric  h    k    y1
     │ Any     Any     Any  Any  Float64
─────┼───────────────────────────────────
   1 │ 15      mah     1.0  1    1.54085
   2 │ 20      mah     1.0  1    1.54085
   3 │ 15      mah     2.0  1    1.54085
   4 │ 20      mah     2.0  1    1.54085
   5 │ 15      mah     4.0  1    1.54085
   6 │ 20      mah     4.0  1    1.54085
   7 │ 15      mah     6.0  1    1.54085
   8 │ 20      mah     6.0  1    1.54085
  ⋮  │   ⋮       ⋮      ⋮    ⋮      ⋮
 104 │ 20      mah     2.0  95   2.02585
 105 │ 15      mah     4.0  95   2.1981
 106 │ 20      mah     4.0  95   2.1981
 107 │ 15      mah     6.0  95   2.2596
 108 │ 20      mah     6.0  95   2.2596
 109 │ 15      mah     Inf  95   2.52435
 110 │ 20      mah     Inf  95   2.52435
                          95 rows omitted
…
julia> max_depth = [6; 10; 20; 2000]
4-element Vector{Int64}:
    6
   10
   20
 2000

julia> pars = mpar(n_trees = n_trees, n_subfeatures = n_subfeatures, max_depth = max_depth)
(n_trees = Real[100, 100, 100, 100, 100, 100, 100, 100, 100, 100, 100, 100, 100, 100, 100, 100, 100, 100, 100, 100], n_subfeatures = Real[5.0, 88.75, 172.5, 256.25, 340.0, 5.0, 88.75, 172.5, 256.25, 340.0, 5.0, 88.75, 172.5, 256.25, 340.0, 5.0, 88.75, 172.5, 256.25, 340.0], max_depth = Real[6, 6, 6, 6, 6, 10, 10, 10, 10, 10, 20, 20, 20, 20, 20, 2000, 2000, 2000, 2000, 2000])

julia> length(pars[1])
20

julia> res = gridscore(mod, Xcal, ycal, Xval, yval; score = rmsep, pars, verbose = false)
20×4 DataFrame
 Row │ n_trees  n_subfeatures  max_depth  y1
     │ Real     Real           Real       Float64
─────┼────────────────────────────────────────────
   1 │     100           5.0           6  1.70834
   2 │     100          88.75          6  1.70834
   3 │     100         172.5           6  1.70834
   4 │     100         256.25          6  1.70834
   5 │     100         340.0           6  1.70834
   6 │     100           5.0          10  1.70834
   7 │     100          88.75         10  1.70834
   8 │     100         172.5          10  1.70834
  ⋮  │    ⋮           ⋮            ⋮         ⋮
  14 │     100         256.25         20  1.70834
  15 │     100         340.0          20  1.70834
  16 │     100           5.0        2000  1.70834
  17 │     100          88.75       2000  1.70834
  18 │     100         172.5        2000  1.70834
  19 │     100         256.25       2000  1.70834
  20 │     100         340.0        2000  1.70834
                                    5 rows omitted
…
