gridcv_all_models_tecator.jl
…
julia> nlv = 0:20
0:20

julia> pars = mpar(scal = [false; true])
(scal = Bool[0, 1],)

julia> length(pars[1])
2

julia> model = plskern()
Jchemo.JchemoModel{typeof(plskern), Base.Pairs{Symbol, Union{}, Tuple{}, @NamedTuple{}}}(Jchemo.plskern, nothing, Base.Pairs{Symbol, Union{}, Tuple{}, @NamedTuple{}}())

julia> res = gridscore(model, Xcal, ycal, Xval, yval; score = rmsep, pars, nlv)
42×3 DataFrame
 Row │ scal   nlv    y1
     │ Bool   Int64  Float64
─────┼────────────────────────
   1 │ false      0  11.4413
   2 │ false      1   2.60962
   3 │ false      2   2.14654
   4 │ false      3   2.00965
   5 │ false      4   2.00913
   6 │ false      5   2.12849
   7 │ false      6   2.14724
   8 │ false      7   2.05219
  ⋮  │   ⋮      ⋮       ⋮
  36 │  true     14   1.85822
  37 │  true     15   1.8691
  38 │  true     16   1.93775
  39 │  true     17   1.9957
  40 │  true     18   1.90711
  41 │  true     19   1.95534
  42 │  true     20   1.97262
               27 rows omitted
…
julia> model = rr()
Jchemo.JchemoModel{typeof(rr), Base.Pairs{Symbol, Union{}, Tuple{}, @NamedTuple{}}}(Jchemo.rr, nothing, Base.Pairs{Symbol, Union{}, Tuple{}, @NamedTuple{}}())

julia> res = gridscore(model, Xcal, ycal, Xval, yval; score = rmsep, lb)
181×2 DataFrame
 Row │ lb              y1
     │ Float64         Float64
─────┼──────────────────────────
   1 │    1.0e-15       6.83455
   2 │    1.25893e-15   6.83455
   3 │    1.58489e-15   6.83455
   4 │    1.99526e-15   6.83455
   5 │    2.51189e-15   6.83455
   6 │    3.16228e-15   6.83455
   7 │    3.98107e-15   6.83455
   8 │    5.01187e-15   6.83455
  ⋮  │       ⋮            ⋮
 175 │  251.189        11.4413
 176 │  316.228        11.4413
 177 │  398.107        11.4413
 178 │  501.187        11.4413
 179 │  630.957        11.4413
 180 │  794.328        11.4413
 181 │ 1000.0          11.4413
                166 rows omitted
…
Covselr

julia> nlv = 0:20
0:20

julia> pars = mpar(msparse = [:hard], nvar = [1])
(msparse = Any[:hard], nvar = Any[1])

julia> model = splskern()
Jchemo.JchemoModel{typeof(splskern), Base.Pairs{Symbol, Union{}, Tuple{}, @NamedTuple{}}}(Jchemo.splskern, nothing, Base.Pairs{Symbol, Union{}, Tuple{}, @NamedTuple{}}())

julia> res = gridscore(model, Xcal, ycal, Xval, yval; score = rmsep, pars, nlv, verbose = false)
21×4 DataFrame
 Row │ msparse  nvar  nlv    y1
     │ Any      Any   Int64  Float64
─────┼────────────────────────────────
   1 │ hard     1         0  11.4413
   2 │ hard     1         1   2.60962
   3 │ hard     1         2   2.14654
   4 │ hard     1         3   2.00965
   5 │ hard     1         4   2.00913
   6 │ hard     1         5   2.12849
   7 │ hard     1         6   2.14724
   8 │ hard     1         7   2.05219
  ⋮  │    ⋮      ⋮      ⋮       ⋮
  15 │ hard     1        14   1.88505
  16 │ hard     1        15   1.8316
  17 │ hard     1        16   1.76682
  18 │ hard     1        17   1.76193
  19 │ hard     1        18   1.68668
  20 │ hard     1        19   1.61844
  21 │ hard     1        20   1.5659
                        6 rows omitted
…
julia> pars = mpar(gamma = gamma)
(gamma = [0.001, 0.010000000000000002, 0.1, 1.0, 10.0, 100.0, 1000.0, 10000.0, 100000.0],)

julia> length(pars[1])
9

julia> model = krr()
Jchemo.JchemoModel{typeof(krr), Base.Pairs{Symbol, Union{}, Tuple{}, @NamedTuple{}}}(Jchemo.krr, nothing, Base.Pairs{Symbol, Union{}, Tuple{}, @NamedTuple{}}())

julia> res = gridscore(model, Xcal, ycal, Xval, yval; score = rmsep, pars, lb, verbose = false)
189×3 DataFrame
 Row │ gamma       lb            y1
     │ Float64     Float64       Float64
─────┼─────────────────────────────────────
   1 │      0.001       1.0e-15  111.737
   2 │      0.001       1.0e-14  111.737
   3 │      0.001       1.0e-13  111.737
   4 │      0.001       1.0e-12  111.737
   5 │      0.001       1.0e-11  111.736
   6 │      0.001       1.0e-10  111.716
   7 │      0.001       1.0e-9   109.679
   8 │      0.001       1.0e-8    38.1013
  ⋮  │     ⋮            ⋮            ⋮
 183 │ 100000.0         0.1        8.7213
 184 │ 100000.0         1.0       11.3421
 185 │ 100000.0        10.0       11.4403
 186 │ 100000.0       100.0       11.4413
 187 │ 100000.0      1000.0       11.4413
 188 │ 100000.0     10000.0       11.4413
 189 │ 100000.0    100000.0       11.4413
                           174 rows omitted
…
julia> pars = mpar(gamma = gamma)
(gamma = [0.001, 0.010000000000000002, 0.1, 1.0, 10.0, 100.0, 1000.0, 10000.0, 100000.0],)

julia> length(pars[1])
9

julia> model = kplsr()
Jchemo.JchemoModel{typeof(kplsr), Base.Pairs{Symbol, Union{}, Tuple{}, @NamedTuple{}}}(Jchemo.kplsr, nothing, Base.Pairs{Symbol, Union{}, Tuple{}, @NamedTuple{}}())

julia> res = gridscore(model, Xcal, ycal, Xval, yval; score = rmsep, pars, nlv, verbose = false)
279×3 DataFrame
 Row │ gamma       nlv    y1
     │ Float64     Int64  Float64
─────┼─────────────────────────────
   1 │      0.001      0  11.4413
   2 │      0.001      1   2.60962
   3 │      0.001      2   2.14652
   4 │      0.001      3   2.00957
   5 │      0.001      4   2.00891
   6 │      0.001      5   2.1284
   7 │      0.001      6   2.147
   8 │      0.001      7   2.05079
  ⋮  │     ⋮         ⋮       ⋮
 273 │ 100000.0       24   7.65535
 274 │ 100000.0       25   7.65535
 275 │ 100000.0       26   7.65535
 276 │ 100000.0       27   7.65535
 277 │ 100000.0       28   7.65535
 278 │ 100000.0       29   7.65535
 279 │ 100000.0       30   7.65535
                   264 rows omitted
…
julia> pars = mpar(gamma = gamma)
(gamma = [0.001, 0.010000000000000002, 0.1, 1.0, 10.0, 100.0, 1000.0, 10000.0, 100000.0],)

julia> length(pars[1])
9

julia> model = dkplsr()
Jchemo.JchemoModel{typeof(dkplsr), Base.Pairs{Symbol, Union{}, Tuple{}, @NamedTuple{}}}(Jchemo.dkplsr, nothing, Base.Pairs{Symbol, Union{}, Tuple{}, @NamedTuple{}}())

julia> res = gridscore(model, Xcal, ycal, Xval, yval; score = rmsep, pars, nlv, verbose = false)
279×3 DataFrame
 Row │ gamma       nlv    y1
     │ Float64     Int64  Float64
─────┼─────────────────────────────
   1 │      0.001      0  11.4413
   2 │      0.001      1   4.87428
   3 │      0.001      2   2.0996
   4 │      0.001      3   1.33745
   5 │      0.001      4   1.24527
   6 │      0.001      5   1.36255
   7 │      0.001      6   1.26923
   8 │      0.001      7   1.28909
  ⋮  │     ⋮         ⋮       ⋮
 273 │ 100000.0       24   8.29097
 274 │ 100000.0       25   8.28999
 275 │ 100000.0       26   8.28856
 276 │ 100000.0       27   8.28825
 277 │ 100000.0       28   8.28763
 278 │ 100000.0       29   8.28676
 279 │ 100000.0       30   8.28388
                   264 rows omitted
…
:nlvdis => 15:metric => :mah:h => 6.0:k => 50
:nlvdis => 10:metric => :mah:h => Inf:k => 50
:nlvdis => 15:metric => :mah:h => Inf:k => 50
:nlvdis => 10:metric => :mah:h => 1.0:k => 100
:nlvdis => 15:metric => :mah:h => 1.0:k => 100
:nlvdis => 10:metric => :mah:h => 2.0:k => 100
:nlvdis => 15:metric => :mah:h => 2.0:k => 100
:nlvdis => 10:metric => :mah:h => 4.0:k => 100
:nlvdis => 15:metric => :mah:h => 4.0:k => 100
:nlvdis => 10:metric => :mah:h => 6.0:k => 100
:nlvdis => 15:metric => :mah:h => 6.0:k => 100
:nlvdis => 10:metric => :mah:h => Inf:k => 100
:nlvdis => 15:metric => :mah:h => Inf:k => 100
-- End.
480×6 DataFrame
 Row │ nlvdis  metric  h    k    nlv    y1
     │ Any     Any     Any  Any  Int64  Float64
─────┼──────────────────────────────────────────
   1 │ 10      mah     1.0  30       0  4.81831
   2 │ 10      mah     1.0  30       1  1.30855
   3 │ 10      mah     1.0  30       2  1.05728
   4 │ 10      mah     1.0  30       3  1.09934
   5 │ 10      mah     1.0  30       4  1.29377
   6 │ 10      mah     1.0  30       5  1.24188
   7 │ 10      mah     1.0  30       6  1.17504
   8 │ 10      mah     1.0  30       7  1.09871
  ⋮  │   ⋮       ⋮      ⋮    ⋮     ⋮       ⋮
 474 │ 15      mah     Inf  100      9  1.8815
 475 │ 15      mah     Inf  100     10  1.92016
 476 │ 15      mah     Inf  100     11  1.97113
 477 │ 15      mah     Inf  100     12  2.01196
 478 │ 15      mah     Inf  100     13  2.03304
 479 │ 15      mah     Inf  100     14  2.03084
 480 │ 15      mah     Inf  100     15  1.9217
                                465 rows omitted
…
:nlv => 1:10:nlvdis => 10:metric => :mah:h => 5.0:k => 100
:nlv => 0:5:nlvdis => 15:metric => :mah:h => 5.0:k => 100
:nlv => 0:10:nlvdis => 15:metric => :mah:h => 5.0:k => 100
:nlv => 1:5:nlvdis => 15:metric => :mah:h => 5.0:k => 100
:nlv => 1:10:nlvdis => 15:metric => :mah:h => 5.0:k => 100
:nlv => 0:5:nlvdis => 10:metric => :mah:h => Inf:k => 100
:nlv => 0:10:nlvdis => 10:metric => :mah:h => Inf:k => 100
:nlv => 1:5:nlvdis => 10:metric => :mah:h => Inf:k => 100
:nlv => 1:10:nlvdis => 10:metric => :mah:h => Inf:k => 100
:nlv => 0:5:nlvdis => 15:metric => :mah:h => Inf:k => 100
:nlv => 0:10:nlvdis => 15:metric => :mah:h => Inf:k => 100
:nlv => 1:5:nlvdis => 15:metric => :mah:h => Inf:k => 100
:nlv => 1:10:nlvdis => 15:metric => :mah:h => Inf:k => 100
-- End.
96×6 DataFrame
 Row │ nlv   nlvdis  metric  h    k    y1
     │ Any   Any     Any     Any  Any  Float64
─────┼─────────────────────────────────────────
   1 │ 0:5   10      mah     1.0  30   1.38566
   2 │ 0:10  10      mah     1.0  30   1.15189
   3 │ 1:5   10      mah     1.0  30   1.11782
   4 │ 1:10  10      mah     1.0  30   1.04005
   5 │ 0:5   15      mah     1.0  30   1.45928
   6 │ 0:10  15      mah     1.0  30   1.25974
   7 │ 1:5   15      mah     1.0  30   1.01882
   8 │ 1:10  15      mah     1.0  30   1.14183
  ⋮  │  ⋮      ⋮       ⋮      ⋮    ⋮      ⋮
  90 │ 0:10  10      mah     Inf  100  2.36073
  91 │ 1:5   10      mah     Inf  100  2.05833
  92 │ 1:10  10      mah     Inf  100  1.93931
  93 │ 0:5   15      mah     Inf  100  3.05787
  94 │ 0:10  15      mah     Inf  100  2.35658
  95 │ 1:5   15      mah     Inf  100  2.04797
  96 │ 1:10  15      mah     Inf  100  1.93474
                                81 rows omitted
…
julia> pars = mpar(nlvdis = nlvdis, metric = metric, h = h, k = k)
(nlvdis = Any[15, 20, 15, 20, 15, 20, 15, 20, 15, 20  …  15, 20, 15, 20, 15, 20, 15, 20, 15, 20], metric = Any[:eucl, :eucl, :mah, :mah, :eucl, :eucl, :mah, :mah, :eucl, :eucl  …  :mah, :mah, :eucl, :eucl, :mah, :mah, :eucl, :eucl, :mah, :mah], h = Any[1.0, 1.0, 1.0, 1.0, 2.0, 2.0, 2.0, 2.0, 4.0, 4.0  …  4.0, 4.0, 6.0, 6.0, 6.0, 6.0, Inf, Inf, Inf, Inf], k = Any[1, 1, 1, 1, 1, 1, 1, 1, 1, 1  …  45, 45, 45, 45, 45, 45, 45, 45, 45, 45])

julia> length(pars[1])
120

julia> model = knnr()
Jchemo.JchemoModel{typeof(knnr), Base.Pairs{Symbol, Union{}, Tuple{}, @NamedTuple{}}}(Jchemo.knnr, nothing, Base.Pairs{Symbol, Union{}, Tuple{}, @NamedTuple{}}())

julia> res = gridscore(model, Xcal, ycal, Xval, yval; score = rmsep, pars)
120×5 DataFrame
 Row │ nlvdis  metric  h    k    y1
     │ Any     Any     Any  Any  Float64
─────┼───────────────────────────────────
   1 │ 15      eucl    1.0  1    2.01487
   2 │ 20      eucl    1.0  1    2.01487
   3 │ 15      mah     1.0  1    3.38769
   4 │ 20      mah     1.0  1    3.38769
   5 │ 15      eucl    2.0  1    2.01487
   6 │ 20      eucl    2.0  1    2.01487
   7 │ 15      mah     2.0  1    3.38769
   8 │ 20      mah     2.0  1    3.38769
  ⋮  │   ⋮       ⋮      ⋮    ⋮      ⋮
 114 │ 20      eucl    6.0  45   5.11557
 115 │ 15      mah     6.0  45   6.71799
 116 │ 20      mah     6.0  45   6.71799
 117 │ 15      eucl    Inf  45   5.63355
 118 │ 20      eucl    Inf  45   5.63355
 119 │ 15      mah     Inf  45   7.29361
 120 │ 20      mah     Inf  45   7.29361
                         105 rows omitted
…
julia> model = rfr()
Jchemo.JchemoModel{typeof(rfr), Base.Pairs{Symbol, Union{}, Tuple{}, @NamedTuple{}}}(Jchemo.rfr, nothing, Base.Pairs{Symbol, Union{}, Tuple{}, @NamedTuple{}}())

julia> pars = mpar(n_trees = n_trees, n_subfeatures = n_subfeatures, max_depth = max_depth)
(n_trees = Real[200, 200, 200, 200, 200, 200, 200, 200, 200, 200  …  200, 200, 200, 200, 200, 200, 200, 200, 200, 200], n_subfeatures = Real[10.0, 20.0, 30.0, 40.0, 50.0, 60.0, 69.99999999999999, 80.00000000000001, 90.0, 100.0  …  10.0, 20.0, 30.0, 40.0, 50.0, 60.0, 69.99999999999999, 80.00000000000001, 90.0, 100.0], max_depth = Real[6, 6, 6, 6, 6, 6, 6, 6, 6, 6  …  2000, 2000, 2000, 2000, 2000, 2000, 2000, 2000, 2000, 2000])

julia> length(pars[1])
50

julia> res = gridscore(model, Xcal, ycal, Xval, yval; score = rmsep, pars)
50×4 DataFrame
 Row │ n_trees  n_subfeatures  max_depth  y1
     │ Real     Real           Real       Float64
─────┼────────────────────────────────────────────
   1 │     200           10.0          6  1.73963
   2 │     200           20.0          6  1.70164
   3 │     200           30.0          6  1.74453
   4 │     200           40.0          6  1.84361
   5 │     200           50.0          6  1.83317
   6 │     200           60.0          6  1.71541
   7 │     200           70.0          6  1.92629
   8 │     200           80.0          6  1.80605
  ⋮  │    ⋮           ⋮            ⋮         ⋮
  44 │     200           40.0       2000  1.87365
  45 │     200           50.0       2000  1.79381
  46 │     200           60.0       2000  1.84721
  47 │     200           70.0       2000  1.82378
  48 │     200           80.0       2000  1.80419
  49 │     200           90.0       2000  1.92211
  50 │     200          100.0       2000  1.846
                                   35 rows omitted
…
