gridcv_all_models_tecator.jl
…
julia> nlv = 0:50
0:50

julia> pars = mpar(scal = [false; true])
(scal = Bool[0, 1],)

julia> length(pars[1])
2

julia> mod = model(plskern)
Jchemo.Model{typeof(Jchemo.plskern), Base.Pairs{Symbol, Union{}, Tuple{}, @NamedTuple{}}}(Jchemo.plskern, nothing, Base.Pairs{Symbol, Union{}, Tuple{}, @NamedTuple{}}())

julia> res = gridcv(mod, Xtrain, ytrain; segm, score = rmsep, pars, nlv).res
102×3 DataFrame
 Row │ nlv    scal   y1
     │ Int64  Bool   Float64
─────┼────────────────────────
   1 │     0  false  12.6115
   2 │     0   true  12.6115
   3 │     1  false   2.4926
   4 │     1   true   2.74992
   5 │     2  false   2.34164
   6 │     2   true   2.3615
   7 │     3  false   2.30404
   8 │     3   true   2.38229
  ⋮  │   ⋮      ⋮       ⋮
  96 │    47   true   4.86799
  97 │    48  false   5.27244
  98 │    48   true   4.92958
  99 │    49  false   5.35947
 100 │    49   true   4.98786
 101 │    50  false   5.44544
 102 │    50   true   5.0795
               87 rows omitted
…
julia> mod = model(rr)
Jchemo.Model{typeof(Jchemo.rr), Base.Pairs{Symbol, Union{}, Tuple{}, @NamedTuple{}}}(Jchemo.rr, nothing, Base.Pairs{Symbol, Union{}, Tuple{}, @NamedTuple{}}())

julia> res = gridcv(mod, Xtrain, ytrain; segm, score = rmsep, lb).res
181×2 DataFrame
 Row │ lb              y1
     │ Float64         Float64
─────┼──────────────────────────
   1 │    1.0e-15       7.52954
   2 │    1.25893e-15   7.52954
   3 │    1.58489e-15   7.52954
   4 │    1.99526e-15   7.52954
   5 │    2.51189e-15   7.52954
   6 │    3.16228e-15   7.52954
   7 │    3.98107e-15   7.52954
   8 │    5.01187e-15   7.52954
  ⋮  │       ⋮            ⋮
 175 │  251.189        12.6115
 176 │  316.228        12.6115
 177 │  398.107        12.6115
 178 │  501.187        12.6115
 179 │  630.957        12.6115
 180 │  794.328        12.6115
 181 │ 1000.0          12.6115
                166 rows omitted
…
Covselr

julia> nlv = 0:20
0:20

julia> pars = mpar(msparse = [:hard], nvar = [1])
(msparse = Any[:hard], nvar = Any[1])

julia> mod = model(splskern)
Jchemo.Model{typeof(Jchemo.splskern), Base.Pairs{Symbol, Union{}, Tuple{}, @NamedTuple{}}}(Jchemo.splskern, nothing, Base.Pairs{Symbol, Union{}, Tuple{}, @NamedTuple{}}())

julia> res = gridcv(mod, Xtrain, ytrain; segm, score = rmsep, pars, nlv, 
           verbose = false).res
21×4 DataFrame
 Row │ nlv    msparse  nvar  y1
     │ Int64  Any      Any   Float64
─────┼────────────────────────────────
   1 │     0  hard     1     12.6115
   2 │     1  hard     1      2.4926
   3 │     2  hard     1      2.34164
   4 │     3  hard     1      2.30404
   5 │     4  hard     1      2.23795
   6 │     5  hard     1      2.23859
   7 │     6  hard     1      2.2289
   8 │     7  hard     1      2.231
  ⋮  │   ⋮       ⋮      ⋮       ⋮
  15 │    14  hard     1      2.76322
  16 │    15  hard     1      2.84993
  17 │    16  hard     1      2.75751
  18 │    17  hard     1      2.71155
  19 │    18  hard     1      2.64517
  20 │    19  hard     1      2.70352
  21 │    20  hard     1      2.83877
                        6 rows omitted
…
julia> pars = mpar(gamma = gamma)
(gamma = [0.001, 0.010000000000000002, 0.1, 1.0, 10.0, 100.0, 1000.0, 10000.0, 100000.0],)

julia> length(pars[1])
9

julia> mod = model(krr)
Jchemo.Model{typeof(Jchemo.krr), Base.Pairs{Symbol, Union{}, Tuple{}, @NamedTuple{}}}(Jchemo.krr, nothing, Base.Pairs{Symbol, Union{}, Tuple{}, @NamedTuple{}}())

julia> res = gridcv(mod, Xtrain, ytrain; segm, score = rmsep, pars, lb, 
           verbose = false).res
189×3 DataFrame
 Row │ lb            gamma       y1
     │ Float64       Float64     Float64
─────┼─────────────────────────────────────
   1 │      1.0e-15       0.001  314.677
   2 │      1.0e-14       0.001  314.677
   3 │      1.0e-13       0.001  314.677
   4 │      1.0e-12       0.001  314.676
   5 │      1.0e-11       0.001  314.653
   6 │      1.0e-10       0.001  312.312
   7 │      1.0e-9        0.001  209.679
   8 │      1.0e-8        0.001   24.0769
  ⋮  │      ⋮            ⋮           ⋮
 183 │      0.1      100000.0     10.2427
 184 │      1.0      100000.0     12.5301
 185 │     10.0      100000.0     12.6107
 186 │    100.0      100000.0     12.6115
 187 │   1000.0      100000.0     12.6115
 188 │  10000.0      100000.0     12.6115
 189 │ 100000.0      100000.0     12.6115
                           174 rows omitted
…
julia> pars = mpar(gamma = gamma)
(gamma = [0.001, 0.010000000000000002, 0.1, 1.0, 10.0, 100.0, 1000.0, 10000.0, 100000.0],)

julia> length(pars[1])
9

julia> mod = model(kplsr)
Jchemo.Model{typeof(Jchemo.kplsr), Base.Pairs{Symbol, Union{}, Tuple{}, @NamedTuple{}}}(Jchemo.kplsr, nothing, Base.Pairs{Symbol, Union{}, Tuple{}, @NamedTuple{}}())

julia> res = gridcv(mod, Xtrain, ytrain; segm, score = rmsep, pars, nlv, 
           verbose = false).res
279×3 DataFrame
 Row │ nlv    gamma       y1
     │ Int64  Float64     Float64
─────┼─────────────────────────────
   1 │     0       0.001  12.6115
   2 │     1       0.001   2.49259
   3 │     2       0.001   2.34163
   4 │     3       0.001   2.30399
   5 │     4       0.001   2.23775
   6 │     5       0.001   2.23829
   7 │     6       0.001   2.22832
   8 │     7       0.001   2.22961
  ⋮  │   ⋮        ⋮          ⋮
 273 │    24  100000.0     9.27358
 274 │    25  100000.0     9.27359
 275 │    26  100000.0     9.2736
 276 │    27  100000.0     9.2736
 277 │    28  100000.0     9.2736
 278 │    29  100000.0     9.2736
 279 │    30  100000.0     9.2736
                   264 rows omitted
…
julia> pars = mpar(gamma = gamma)
(gamma = [0.001, 0.010000000000000002, 0.1, 1.0, 10.0, 100.0, 1000.0, 10000.0, 100000.0],)

julia> length(pars[1])
9

julia> mod = model(dkplsr)
Jchemo.Model{typeof(Jchemo.dkplsr), Base.Pairs{Symbol, Union{}, Tuple{}, @NamedTuple{}}}(Jchemo.dkplsr, nothing, Base.Pairs{Symbol, Union{}, Tuple{}, @NamedTuple{}}())

julia> res = gridcv(mod, Xtrain, ytrain; segm, score = rmsep, pars, nlv, verbose = false).res
279×3 DataFrame
 Row │ nlv    gamma       y1
     │ Int64  Float64     Float64
─────┼─────────────────────────────
   1 │     0       0.001  12.6115
   2 │     1       0.001   4.87619
   3 │     2       0.001   1.9684
   4 │     3       0.001   1.60057
   5 │     4       0.001   1.61172
   6 │     5       0.001   1.61449
   7 │     6       0.001   1.5463
   8 │     7       0.001   1.50659
  ⋮  │   ⋮        ⋮          ⋮
 273 │    24  100000.0     9.14552
 274 │    25  100000.0     9.14578
 275 │    26  100000.0     9.14595
 276 │    27  100000.0     9.14611
 277 │    28  100000.0     9.14619
 278 │    29  100000.0     9.14627
 279 │    30  100000.0     9.14631
                   264 rows omitted
…
julia> pars = mpar(nlvdis = nlvdis, metric = metric, h = h, k = k)
(nlvdis = Any[10, 15, 10, 15, 10, 15, 10, 15, 10, 15  …  10, 15, 10, 15, 10, 15, 10, 15, 10, 15], metric = Any[:mah, :mah, :mah, :mah, :mah, :mah, :mah, :mah, :mah, :mah  …  :mah, :mah, :mah, :mah, :mah, :mah, :mah, :mah, :mah, :mah], h = Any[1.0, 1.0, 2.0, 2.0, 4.0, 4.0, 6.0, 6.0, Inf, Inf  …  1.0, 1.0, 2.0, 2.0, 4.0, 4.0, 6.0, 6.0, Inf, Inf], k = Any[30, 30, 30, 30, 30, 30, 30, 30, 30, 30  …  100, 100, 100, 100, 100, 100, 100, 100, 100, 100])

julia> length(pars[1])
30

julia> mod = model(lwplsr)
Jchemo.Model{typeof(Jchemo.lwplsr), Base.Pairs{Symbol, Union{}, Tuple{}, @NamedTuple{}}}(Jchemo.lwplsr, nothing, Base.Pairs{Symbol, Union{}, Tuple{}, @NamedTuple{}}())

julia> res = gridcv(mod, Xtrain, ytrain; segm, score = rmsep, pars, nlv, 
           verbose = true).res
/ rep=1 segm=1 segm=2 segm=3 segm=4 / rep=2 segm=1 segm=2 segm=3 segm=4 / rep=3 segm=1 segm=2 segm=3 segm=4 / rep=4 segm=1 segm=2 segm=3 segm=4 / rep=5 segm=1 segm=2 segm=3 segm=4 / rep=6 segm=1 segm=2 segm=3 segm=4 / rep=7 segm=1 segm=2 segm=3 segm=4 / rep=8 segm=1 segm=2 segm=3 segm=4 / rep=9 segm=1 segm=2 segm=3 segm=4 / rep=10 segm=1 segm=2 segm=3 segm=4 / rep=11 segm=1 segm=2 segm=3 segm=4 / rep=12 segm=1 segm=2 segm=3 segm=4 / rep=13 segm=1 segm=2 segm=3 segm=4 / rep=14 segm=1 segm=2 segm=3 segm=4 / rep=15 segm=1 segm=2 segm=3 segm=4 / rep=16 segm=1 segm=2 segm=3 segm=4 / rep=17 segm=1 segm=2 segm=3 segm=4 / rep=18 segm=1 segm=2 segm=3 segm=4 / rep=19 segm=1 segm=2 segm=3 segm=4 / rep=20 segm=1 segm=2 segm=3 segm=4 / End.
480×6 DataFrame
 Row │ nlv    nlvdis  metric  h    k    y1
     │ Int64  Any     Any     Any  Any  Float64
─────┼──────────────────────────────────────────
   1 │     0  10      mah     1.0  30   5.28692
   2 │     1  10      mah     1.0  30   1.33794
   3 │     2  10      mah     1.0  30   1.27075
   4 │     3  10      mah     1.0  30   1.2853
   5 │     4  10      mah     1.0  30   1.36238
   6 │     5  10      mah     1.0  30   1.41241
   7 │     6  10      mah     1.0  30   1.51048
   8 │     7  10      mah     1.0  30   1.58681
  ⋮  │   ⋮      ⋮       ⋮      ⋮    ⋮      ⋮
 474 │     9  15      mah     Inf  100  2.16272
 475 │    10  15      mah     Inf  100  2.17199
 476 │    11  15      mah     Inf  100  2.1993
 477 │    12  15      mah     Inf  100  2.34294
 478 │    13  15      mah     Inf  100  2.55345
 479 │    14  15      mah     Inf  100  2.70217
 480 │    15  15      mah     Inf  100  2.79665
                                465 rows omitted
…
julia> pars = mpar(nlv = nlv, nlvdis = nlvdis, metric = metric, h = h, k = k)
(nlv = Any[0:5, 0:10, 1:5, 1:10, 0:5, 0:10, 1:5, 1:10, 0:5, 0:10  …  1:5, 1:10, 0:5, 0:10, 1:5, 1:10, 0:5, 0:10, 1:5, 1:10], nlvdis = Any[10, 10, 10, 10, 15, 15, 15, 15, 10, 10  …  15, 15, 10, 10, 10, 10, 15, 15, 15, 15], metric = Any[:mah, :mah, :mah, :mah, :mah, :mah, :mah, :mah, :mah, :mah  …  :mah, :mah, :mah, :mah, :mah, :mah, :mah, :mah, :mah, :mah], h = Any[1.0, 1.0, 1.0, 1.0, 1.0, 1.0, 1.0, 1.0, 2.0, 2.0  …  5.0, 5.0, Inf, Inf, Inf, Inf, Inf, Inf, Inf, Inf], k = Any[30, 30, 30, 30, 30, 30, 30, 30, 30, 30  …  100, 100, 100, 100, 100, 100, 100, 100, 100, 100])

julia> length(pars[1])
96

julia> mod = model(lwplsravg)
Jchemo.Model{typeof(Jchemo.lwplsravg), Base.Pairs{Symbol, Union{}, Tuple{}, @NamedTuple{}}}(Jchemo.lwplsravg, nothing, Base.Pairs{Symbol, Union{}, Tuple{}, @NamedTuple{}}())

julia> res = gridcv(mod, Xtrain, ytrain; segm, score = rmsep, pars, verbose = true).res
/ rep=1 segm=1 segm=2 segm=3 segm=4 / rep=2 segm=1 segm=2 segm=3 segm=4 / rep=3 segm=1 segm=2 segm=3 segm=4 / rep=4 segm=1 segm=2 segm=3 segm=4 / rep=5 segm=1 segm=2 segm=3 segm=4 / rep=6 segm=1 segm=2 segm=3 segm=4 / rep=7 segm=1 segm=2 segm=3 segm=4 / rep=8 segm=1 segm=2 segm=3 segm=4 / rep=9 segm=1 segm=2 segm=3 segm=4 / rep=10 segm=1 segm=2 segm=3 segm=4 / rep=11 segm=1 segm=2 segm=3 segm=4 / rep=12 segm=1 segm=2 segm=3 segm=4 / rep=13 segm=1 segm=2 segm=3 segm=4 / rep=14 segm=1 segm=2 segm=3 segm=4 / rep=15 segm=1 segm=2 segm=3 segm=4 / rep=16 segm=1 segm=2 segm=3 segm=4 / rep=17 segm=1 segm=2 segm=3 segm=4 / rep=18 segm=1 segm=2 segm=3 segm=4 / rep=19 segm=1 segm=2 segm=3 segm=4 / rep=20 segm=1 segm=2 segm=3 segm=4 / End.
96×6 DataFrame
 Row │ nlv   nlvdis  metric  h    k    y1
     │ Any   Any     Any     Any  Any  Float64
─────┼─────────────────────────────────────────
   1 │ 0:5   10      mah     1.0  30   1.51495
   2 │ 0:10  10      mah     1.0  30   1.40996
   3 │ 1:5   10      mah     1.0  30   1.20198
   4 │ 1:10  10      mah     1.0  30   1.31853
   5 │ 0:5   15      mah     1.0  30   1.60848
   6 │ 0:10  15      mah     1.0  30   1.44998
   7 │ 1:5   15      mah     1.0  30   1.27201
   8 │ 1:10  15      mah     1.0  30   1.38917
  ⋮  │  ⋮      ⋮       ⋮      ⋮    ⋮      ⋮
  90 │ 0:10  10      mah     Inf  100  2.37261
  91 │ 1:5   10      mah     Inf  100  2.19678
  92 │ 1:10  10      mah     Inf  100  2.10517
  93 │ 0:5   15      mah     Inf  100  3.01267
  94 │ 0:10  15      mah     Inf  100  2.38261
  95 │ 1:5   15      mah     Inf  100  2.20537
  96 │ 1:10  15      mah     Inf  100  2.11779
                                81 rows omitted
…
julia> pars = mpar(nlvdis = nlvdis, metric = metric, h = h, k = k)
(nlvdis = Any[15, 20, 15, 20, 15, 20, 15, 20, 15, 20  …  15, 20, 15, 20, 15, 20, 15, 20, 15, 20], metric = Any[:eucl, :eucl, :mah, :mah, :eucl, :eucl, :mah, :mah, :eucl, :eucl  …  :mah, :mah, :eucl, :eucl, :mah, :mah, :eucl, :eucl, :mah, :mah], h = Any[1.0, 1.0, 1.0, 1.0, 2.0, 2.0, 2.0, 2.0, 4.0, 4.0  …  4.0, 4.0, 6.0, 6.0, 6.0, 6.0, Inf, Inf, Inf, Inf], k = Any[1, 1, 1, 1, 1, 1, 1, 1, 1, 1  …  45, 45, 45, 45, 45, 45, 45, 45, 45, 45])

julia> length(pars[1])
120

julia> mod = model(knnr)
Jchemo.Model{typeof(Jchemo.knnr), Base.Pairs{Symbol, Union{}, Tuple{}, @NamedTuple{}}}(Jchemo.knnr, nothing, Base.Pairs{Symbol, Union{}, Tuple{}, @NamedTuple{}}())

julia> res = gridcv(mod, Xtrain, ytrain; segm, score = rmsep, pars).res
120×5 DataFrame
 Row │ nlvdis  metric  h    k    y1
     │ Any     Any     Any  Any  Float64
─────┼───────────────────────────────────
   1 │ 15      eucl    1.0  1    2.10875
   2 │ 20      eucl    1.0  1    2.10875
   3 │ 15      mah     1.0  1    3.50416
   4 │ 20      mah     1.0  1    3.50416
   5 │ 15      eucl    2.0  1    2.10875
   6 │ 20      eucl    2.0  1    2.10875
   7 │ 15      mah     2.0  1    3.50416
   8 │ 20      mah     2.0  1    3.50416
  ⋮  │   ⋮       ⋮      ⋮    ⋮      ⋮
 114 │ 20      eucl    6.0  45   6.27358
 115 │ 15      mah     6.0  45   7.26776
 116 │ 20      mah     6.0  45   7.26776
 117 │ 15      eucl    Inf  45   6.83429
 118 │ 20      eucl    Inf  45   6.83429
 119 │ 15      mah     Inf  45   7.88361
 120 │ 20      mah     Inf  45   7.88361
                         105 rows omitted
…
julia> pars = mpar(n_trees = n_trees, n_subfeatures = n_subfeatures, max_depth = max_depth)
(n_trees = Real[200, 200, 200, 200, 200, 200, 200, 200, 200, 200  …  200, 200, 200, 200, 200, 200, 200, 200, 200, 200], n_subfeatures = Real[10.0, 20.0, 30.0, 40.0, 50.0, 60.0, 69.99999999999999, 80.00000000000001, 90.0, 100.0  …  10.0, 20.0, 30.0, 40.0, 50.0, 60.0, 69.99999999999999, 80.00000000000001, 90.0, 100.0], max_depth = Real[6, 6, 6, 6, 6, 6, 6, 6, 6, 6  …  2000, 2000, 2000, 2000, 2000, 2000, 2000, 2000, 2000, 2000])

julia> length(pars[1])
50

julia> res = gridcv(mod, Xtrain, ytrain; segm, score = rmsep, pars).res
50×4 DataFrame
 Row │ n_trees  n_subfeatures  max_depth  y1
     │ Real     Real           Real       Float64
─────┼────────────────────────────────────────────
   1 │     200           10.0          6  2.10875
   2 │     200           20.0          6  2.10875
   3 │     200           30.0          6  2.10875
   4 │     200           40.0          6  2.10875
   5 │     200           50.0          6  2.10875
   6 │     200           60.0          6  2.10875
   7 │     200           70.0          6  2.10875
   8 │     200           80.0          6  2.10875
  ⋮  │    ⋮           ⋮            ⋮         ⋮
  44 │     200           40.0       2000  2.10875
  45 │     200           50.0       2000  2.10875
  46 │     200           60.0       2000  2.10875
  47 │     200           70.0       2000  2.10875
  48 │     200           80.0       2000  2.10875
  49 │     200           90.0       2000  2.10875
  50 │     200          100.0       2000  2.10875
                                   35 rows omitted
…
