gridcv - forages2 - kNN-Lwplsrda
…
julia> path_jdat = dirname(dirname(pathof(JchemoData)))
"C:\\Users\\lesnoff\\.julia\\packages\\JchemoData\\mSmTv"

julia> db = joinpath(path_jdat, "data/forages2.jld2")
"C:\\Users\\lesnoff\\.julia\\packages\\JchemoData\\mSmTv\\data/forages2.jld2"

julia> @load db dat
1-element Vector{Symbol}:
 :dat

julia> @names dat
(:X, :Y)

julia> X = dat.X
485×700 DataFrame
 Row │ 1100          1102          1104          1106          1108          1 ⋯
     │ Float64       Float64       Float64       Float64       Float64       F ⋯
─────┼──────────────────────────────────────────────────────────────────────────
   1 │ -0.000231591  -0.000175945  -8.48176e-5    2.05217e-5    0.000110094  0 ⋯
   2 │ -9.66352e-5   -3.30928e-5    5.64966e-5    0.000154135   0.000237725  0
   3 │ -0.000131769  -7.8398e-5     7.92223e-7    8.90044e-5    0.000160022  0
   4 │ -5.27109e-5   -1.38838e-5    3.73562e-5    8.87785e-5    0.000121518  0
   5 │ -4.13284e-5    1.46607e-5    8.7976e-5     0.000161825   0.000213816  0 ⋯
   6 │ -0.000562333  -0.000451182  -0.000256137  -1.91839e-5    0.000196847  0
   7 │  5.93643e-5    9.60385e-5    0.000130646   0.000152627   0.000151603  0
   8 │  4.55359e-5    7.99932e-5    0.000115881   0.000141024   0.000143214  0
  ⋮  │      ⋮             ⋮             ⋮             ⋮             ⋮          ⋱
 479 │ -0.00049819   -0.000428954  -0.000289552  -9.97032e-5    9.35608e-5   0 ⋯
 480 │ -1.30599e-5    1.87642e-5    6.16364e-5    0.000115375   0.000167888  0
 481 │ -0.000790809  -0.000707089  -0.000525597  -0.000272477  -1.50495e-5   0
 482 │ -0.000866662  -0.000767647  -0.000559022  -0.000274144   1.49724e-5   0
 483 │ -0.000788774  -0.000703783  -0.000521761  -0.000270395  -1.43285e-5   0 ⋯
 484 │ -0.00033791   -0.00028799   -0.000190344  -5.73166e-5    7.69177e-5   0
 485 │ -0.000790261  -0.000703107  -0.000519605  -0.000268478  -1.25069e-5   0
                                                695 columns and 470 rows omitted

julia> Y = dat.Y
485×4 DataFrame
 Row │ dm        ndf       typ                       test
     │ Float64?  Float64?  String                    Int64
─────┼─────────────────────────────────────────────────────
   1 │  92.23     37.58    Legume forages                1
   2 │  93.26     49.6462  Legume forages                0
   3 │  92.9      63.2939  Forage trees                  0
   4 │  94.44     51.6413  Cereal and grass forages      0
   5 │  93.16     46.5114  Legume forages                0
   6 │  93.44     40.8176  Legume forages                0
   7 │  94.02     56.9985  Cereal and grass forages      1
   8 │  94.18     69.1973  Cereal and grass forages      0
  ⋮  │    ⋮         ⋮                 ⋮                ⋮
 479 │  91.8668   26.1332  Legume forages                0
 480 │  91.4758   35.7111  Legume forages                1
 481 │  93.7303   55.5358  Legume forages                1
 482 │  93.2967   68.9812  Legume forages                0
 483 │  93.1954   39.1038  Legume forages                0
 484 │  93.17     48.8868  Legume forages                0
 485 │  93.2842   34.6457  Legume forages                1
                                           470 rows omitted
…
julia> nlv = 0:15
0:15

julia> pars = mpar(nlvdis = nlvdis, metric = metric, h = h, k = k)
(nlvdis = Any[15, 25, 15, 25, 15, 25, 15, 25, 15, 25  …  15, 25, 15, 25, 15, 25, 15, 25, 15, 25], metric = Any[:mah, :mah, :mah, :mah, :mah, :mah, :mah, :mah, :mah, :mah  …  :mah, :mah, :mah, :mah, :mah, :mah, :mah, :mah, :mah, :mah], h = Any[1.0, 1.0, 2.0, 2.0, 4.0, 4.0, 6.0, 6.0, Inf, Inf  …  1.0, 1.0, 2.0, 2.0, 4.0, 4.0, 6.0, 6.0, Inf, Inf], k = Any[30, 30, 30, 30, 30, 30, 30, 30, 30, 30  …  100, 100, 100, 100, 100, 100, 100, 100, 100, 100])

julia> length(pars[1])
30

julia> model = lwplsrda()
Jchemo.JchemoModel{typeof(Jchemo.lwplsrda), Base.Pairs{Symbol, Union{}, Tuple{}, @NamedTuple{}}}(Jchemo.lwplsrda, nothing, Base.Pairs{Symbol, Union{}, Tuple{}, @NamedTuple{}}())

julia> res = gridcv(model, Xtrain, ytrain; segm, score = merrp, pars, nlv).res
480×6 DataFrame
 Row │ nlv    nlvdis  metric  h    k    y1
     │ Int64  Any     Any     Any  Any  Float64
─────┼────────────────────────────────────────────
   1 │     0  15      mah     1.0  30   0.148711
   2 │     1  15      mah     1.0  30   0.121992
   3 │     2  15      mah     1.0  30   0.116857
   4 │     3  15      mah     1.0  30   0.10137
   5 │     4  15      mah     1.0  30   0.100427
   6 │     5  15      mah     1.0  30   0.0957206
   7 │     6  15      mah     1.0  30   0.0948936
   8 │     7  15      mah     1.0  30   0.0898406
  ⋮  │   ⋮      ⋮       ⋮      ⋮    ⋮       ⋮
 474 │     9  25      mah     Inf  100  0.101306
 475 │    10  25      mah     Inf  100  0.0855271
 476 │    11  25      mah     Inf  100  0.0835069
 477 │    12  25      mah     Inf  100  0.0947925
 478 │    13  25      mah     Inf  100  0.100173
 479 │    14  25      mah     Inf  100  0.0996132
 480 │    15  25      mah     Inf  100  0.101563
                                  465 rows omitted
…
