gridscore - mnistpct20 - kNN-Lwplsrda
…
julia> nlv = 0:15
0:15

julia> pars = mpar(nlvdis = nlvdis, metric = metric, h = h, k = k)
(nlvdis = Any[10, 20, 10, 20, 10, 20, 10, 20, 10, 20  …  10, 20, 10, 20, 10, 20, 10, 20, 10, 20], metric = Any[:mah, :mah, :mah, :mah, :mah, :mah, :mah, :mah, :mah, :mah  …  :mah, :mah, :mah, :mah, :mah, :mah, :mah, :mah, :mah, :mah], h = Any[1.0, 1.0, 2.0, 2.0, 5.0, 5.0, Inf, Inf, 1.0, 1.0  …  Inf, Inf, 1.0, 1.0, 2.0, 2.0, 5.0, 5.0, Inf, Inf], k = Any[200, 200, 200, 200, 200, 200, 200, 200, 300, 300  …  500, 500, 1000, 1000, 1000, 1000, 1000, 1000, 1000, 1000])

julia> length(pars[1])
32

julia> model = lwplsrda()
Jchemo.JchemoModel{typeof(lwplsrda), Base.Pairs{Symbol, Union{}, Tuple{}, @NamedTuple{}}}(Jchemo.lwplsrda, nothing, Base.Pairs{Symbol, Union{}, Tuple{}, @NamedTuple{}}())

julia> res = gridscore(model, Xcal, ycal, Xval, yval; score = errp, pars, nlv)
512×6 DataFrame
 Row │ nlvdis  metric  h    k     nlv    y1
     │ Any     Any     Any  Any   Int64  Float32
─────┼───────────────────────────────────────────
   1 │ 10      mah     1.0  200       0    0.082
   2 │ 10      mah     1.0  200       1    0.054
   3 │ 10      mah     1.0  200       2    0.046
   4 │ 10      mah     1.0  200       3    0.036
   5 │ 10      mah     1.0  200       4    0.033
   6 │ 10      mah     1.0  200       5    0.034
   7 │ 10      mah     1.0  200       6    0.033
   8 │ 10      mah     1.0  200       7    0.03
  ⋮  │   ⋮       ⋮      ⋮    ⋮      ⋮       ⋮
 506 │ 20      mah     Inf  1000      9    0.069
 507 │ 20      mah     Inf  1000     10    0.062
 508 │ 20      mah     Inf  1000     11    0.062
 509 │ 20      mah     Inf  1000     12    0.061
 510 │ 20      mah     Inf  1000     13    0.057
 511 │ 20      mah     Inf  1000     14    0.057
 512 │ 20      mah     Inf  1000     15    0.059
                                 497 rows omitted
…
