Pca - train vs test - sdod - cassav
…
julia> path_jdat = dirname(dirname(pathof(JchemoData)))
"C:\\Users\\lesnoff\\.julia\\packages\\JchemoData\\mSmTv"

julia> db = joinpath(path_jdat, "data/cassav.jld2")
"C:\\Users\\lesnoff\\.julia\\packages\\JchemoData\\mSmTv\\data/cassav.jld2"

julia> @load db dat
1-element Vector{Symbol}:
 :dat

julia> @names dat
(:X, :Y)

julia> X = dat.X
280×1050 DataFrame
 Row │ 400       402       404       406       408       410       412       4 ⋯
     │ Float64   Float64   Float64   Float64   Float64   Float64   Float64   F ⋯
─────┼──────────────────────────────────────────────────────────────────────────
   1 │ 0.399996  0.406522  0.413008  0.41958   0.426073  0.43219   0.438007  0 ⋯
   2 │ 0.460896  0.46706   0.475677  0.483438  0.490809  0.49877   0.506465  0
   3 │ 0.464731  0.471416  0.47828   0.48733   0.497117  0.503004  0.505579  0
   4 │ 0.429144  0.437479  0.445342  0.453407  0.461928  0.469427  0.476124  0
   5 │ 0.425608  0.43327   0.441     0.448621  0.456694  0.464105  0.470657  0 ⋯
   6 │ 0.461408  0.467013  0.475363  0.483059  0.489797  0.497071  0.504511  0
   7 │ 0.402156  0.409088  0.415101  0.420022  0.424786  0.429795  0.434885  0
   8 │ 0.461995  0.470442  0.479351  0.487484  0.49564   0.504616  0.514309  0
  ⋮  │    ⋮         ⋮         ⋮         ⋮         ⋮         ⋮         ⋮        ⋱
 274 │ 0.383799  0.391751  0.399985  0.408128  0.415971  0.42312   0.429895  0 ⋯
 275 │ 0.437543  0.44424   0.450811  0.458481  0.466192  0.473367  0.480564  0
 276 │ 0.405427  0.411816  0.420163  0.428361  0.436067  0.443758  0.450897  0
 277 │ 0.380983  0.390078  0.39886   0.408004  0.417239  0.425669  0.433701  0
 278 │ 0.428445  0.434246  0.441882  0.450842  0.458999  0.467012  0.475617  0 ⋯
 279 │ 0.361624  0.369857  0.378261  0.386469  0.394125  0.401357  0.408776  0
 280 │ 0.397323  0.402645  0.409765  0.417049  0.424135  0.430956  0.437025  0
                                               1043 columns and 265 rows omitted

julia> Y = dat.Y
280×2 DataFrame
 Row │ year   tbc
     │ Int64  Float64
─────┼─────────────────
   1 │  2009   1.58068
   2 │  2009   7.85516
   3 │  2009   1.77595
   4 │  2009   9.42472
   5 │  2009   6.33471
   6 │  2009   1.73723
   7 │  2009   5.29676
   8 │  2009   6.28836
  ⋮  │   ⋮       ⋮
 274 │  2013  15.4425
 275 │  2013  13.835
 276 │  2013  15.185
 277 │  2013  14.0937
 278 │  2013  12.2064
 279 │  2013   5.10569
 280 │  2013   8.46773
       265 rows omitted
…
