tecator - Gridcv all models
…
julia> nlv = 0:50
0:50

julia> pars = mpar(scal = [false; true])
(scal = Bool[0, 1],)

julia> length(pars[1])
2

julia> model = plskern()
Jchemo.JchemoModel{typeof(plskern), Base.Pairs{Symbol, Union{}, Tuple{}, @NamedTuple{}}}(Jchemo.plskern, nothing, Base.Pairs{Symbol, Union{}, Tuple{}, @NamedTuple{}}())

julia> res = gridcv(model, Xtrain, ytrain; segm, score = rmsep, pars, nlv).res
102×3 DataFrame
 Row │ nlv    scal   y1
     │ Int64  Bool   Float64
─────┼────────────────────────
   1 │     0  false  12.6061
   2 │     0   true  12.6061
   3 │     1  false   2.507
   4 │     1   true   2.75093
   5 │     2  false   2.33786
   6 │     2   true   2.34346
   7 │     3  false   2.29558
   8 │     3   true   2.37831
  ⋮  │   ⋮      ⋮       ⋮
  96 │    47   true   4.94853
  97 │    48  false   5.34638
  98 │    48   true   5.06719
  99 │    49  false   5.45362
 100 │    49   true   5.13705
 101 │    50  false   5.5725
 102 │    50   true   5.22001
               87 rows omitted
…
julia> model = rr()
Jchemo.JchemoModel{typeof(rr), Base.Pairs{Symbol, Union{}, Tuple{}, @NamedTuple{}}}(Jchemo.rr, nothing, Base.Pairs{Symbol, Union{}, Tuple{}, @NamedTuple{}}())

julia> res = gridcv(model, Xtrain, ytrain; segm, score = rmsep, lb).res
181×2 DataFrame
 Row │ lb              y1
     │ Float64         Float64
─────┼──────────────────────────
   1 │    1.0e-15       7.51142
   2 │    1.25893e-15   7.51142
   3 │    1.58489e-15   7.51142
   4 │    1.99526e-15   7.51142
   5 │    2.51189e-15   7.51142
   6 │    3.16228e-15   7.51142
   7 │    3.98107e-15   7.51142
   8 │    5.01187e-15   7.51142
  ⋮  │       ⋮            ⋮
 175 │  251.189        12.6061
 176 │  316.228        12.6061
 177 │  398.107        12.6061
 178 │  501.187        12.6061
 179 │  630.957        12.6061
 180 │  794.328        12.6061
 181 │ 1000.0          12.6061
                166 rows omitted
…
Covselr

julia> nlv = 0:20
0:20

julia> pars = mpar(msparse = [:hard], nvar = [1])
(msparse = Any[:hard], nvar = Any[1])

julia> model = splsr()
Jchemo.JchemoModel{typeof(splsr), Base.Pairs{Symbol, Union{}, Tuple{}, @NamedTuple{}}}(Jchemo.splsr, nothing, Base.Pairs{Symbol, Union{}, Tuple{}, @NamedTuple{}}())

julia> res = gridcv(model, Xtrain, ytrain; segm, score = rmsep, pars, nlv, verbose = false).res
21×4 DataFrame
 Row │ nlv    msparse  nvar  y1
     │ Int64  Any      Any   Float64
─────┼────────────────────────────────
   1 │     0  hard     1     12.6061
   2 │     1  hard     1      2.46308
   3 │     2  hard     1      2.53054
   4 │     3  hard     1      2.31045
   5 │     4  hard     1      2.26145
   6 │     5  hard     1      2.2021
   7 │     6  hard     1      2.23461
   8 │     7  hard     1      2.25959
  ⋮  │   ⋮       ⋮      ⋮       ⋮
  15 │    14  hard     1      2.48447
  16 │    15  hard     1      2.6106
  17 │    16  hard     1      2.6389
  18 │    17  hard     1      2.63164
  19 │    18  hard     1      2.56542
  20 │    19  hard     1      2.53685
  21 │    20  hard     1      2.5743
                        6 rows omitted
…
julia> pars = mpar(gamma = gamma)
(gamma = [0.001, 0.010000000000000002, 0.1, 1.0, 10.0, 100.0, 1000.0, 10000.0, 100000.0],)

julia> length(pars[1])
9

julia> model = krr()
Jchemo.JchemoModel{typeof(krr), Base.Pairs{Symbol, Union{}, Tuple{}, @NamedTuple{}}}(Jchemo.krr, nothing, Base.Pairs{Symbol, Union{}, Tuple{}, @NamedTuple{}}())

julia> res = gridcv(model, Xtrain, ytrain; segm, score = rmsep, pars, lb, verbose = false).res
189×3 DataFrame
 Row │ lb            gamma       y1
     │ Float64       Float64     Float64
─────┼─────────────────────────────────────
   1 │      1.0e-15       0.001  420.358
   2 │      1.0e-14       0.001  420.358
   3 │      1.0e-13       0.001  420.358
   4 │      1.0e-12       0.001  420.358
   5 │      1.0e-11       0.001  420.328
   6 │      1.0e-10       0.001  417.364
   7 │      1.0e-9        0.001  284.033
   8 │      1.0e-8        0.001   25.1597
  ⋮  │      ⋮            ⋮           ⋮
 183 │      0.1      100000.0     10.1331
 184 │      1.0      100000.0     12.5218
 185 │     10.0      100000.0     12.6052
 186 │    100.0      100000.0     12.6061
 187 │   1000.0      100000.0     12.6061
 188 │  10000.0      100000.0     12.6061
 189 │ 100000.0      100000.0     12.6061
                           174 rows omitted
…
julia> pars = mpar(gamma = gamma)
(gamma = [0.001, 0.010000000000000002, 0.1, 1.0, 10.0, 100.0, 1000.0, 10000.0, 100000.0],)

julia> length(pars[1])
9

julia> model = kplsr()
Jchemo.JchemoModel{typeof(kplsr), Base.Pairs{Symbol, Union{}, Tuple{}, @NamedTuple{}}}(Jchemo.kplsr, nothing, Base.Pairs{Symbol, Union{}, Tuple{}, @NamedTuple{}}())

julia> res = gridcv(model, Xtrain, ytrain; segm, score = rmsep, pars, nlv, verbose = false).res
279×3 DataFrame
 Row │ nlv    gamma       y1
     │ Int64  Float64     Float64
─────┼─────────────────────────────
   1 │     0       0.001  12.6061
   2 │     1       0.001   2.507
   3 │     2       0.001   2.33785
   4 │     3       0.001   2.29553
   5 │     4       0.001   2.20783
   6 │     5       0.001   2.19942
   7 │     6       0.001   2.19018
   8 │     7       0.001   2.20492
  ⋮  │   ⋮        ⋮          ⋮
 273 │    24  100000.0     9.11024
 274 │    25  100000.0     9.11025
 275 │    26  100000.0     9.11024
 276 │    27  100000.0     9.11025
 277 │    28  100000.0     9.11025
 278 │    29  100000.0     9.11025
 279 │    30  100000.0     9.11025
                   264 rows omitted
…
julia> pars = mpar(gamma = gamma)
(gamma = [0.001, 0.010000000000000002, 0.1, 1.0, 10.0, 100.0, 1000.0, 10000.0, 100000.0],)

julia> length(pars[1])
9

julia> model = dkplsr()
Jchemo.JchemoModel{typeof(dkplsr), Base.Pairs{Symbol, Union{}, Tuple{}, @NamedTuple{}}}(Jchemo.dkplsr, nothing, Base.Pairs{Symbol, Union{}, Tuple{}, @NamedTuple{}}())

julia> res = gridcv(model, Xtrain, ytrain; segm, score = rmsep, pars, nlv, verbose = false).res
279×3 DataFrame
 Row │ nlv    gamma       y1
     │ Int64  Float64     Float64
─────┼─────────────────────────────
   1 │     0       0.001  12.6061
   2 │     1       0.001   4.87321
   3 │     2       0.001   1.986
   4 │     3       0.001   1.59315
   5 │     4       0.001   1.60247
   6 │     5       0.001   1.61
   7 │     6       0.001   1.54605
   8 │     7       0.001   1.49427
  ⋮  │   ⋮        ⋮          ⋮
 273 │    24  100000.0     8.96798
 274 │    25  100000.0     8.96851
 275 │    26  100000.0     8.96912
 276 │    27  100000.0     8.96987
 277 │    28  100000.0     8.97049
 278 │    29  100000.0     8.97119
 279 │    30  100000.0     8.97151
                   264 rows omitted
…
julia> nlv = 0:15
0:15

julia> pars = mpar(nlvdis = nlvdis, metric = metric, h = h, k = k)
(nlvdis = Any[10, 15, 10, 15, 10, 15, 10, 15, 10, 15  …  10, 15, 10, 15, 10, 15, 10, 15, 10, 15], metric = Any[:mah, :mah, :mah, :mah, :mah, :mah, :mah, :mah, :mah, :mah  …  :mah, :mah, :mah, :mah, :mah, :mah, :mah, :mah, :mah, :mah], h = Any[1.0, 1.0, 2.0, 2.0, 4.0, 4.0, 6.0, 6.0, Inf, Inf  …  1.0, 1.0, 2.0, 2.0, 4.0, 4.0, 6.0, 6.0, Inf, Inf], k = Any[30, 30, 30, 30, 30, 30, 30, 30, 30, 30  …  100, 100, 100, 100, 100, 100, 100, 100, 100, 100])

julia> length(pars[1])
30

julia> model = lwplsr()
Jchemo.JchemoModel{typeof(lwplsr), Base.Pairs{Symbol, Union{}, Tuple{}, @NamedTuple{}}}(Jchemo.lwplsr, nothing, Base.Pairs{Symbol, Union{}, Tuple{}, @NamedTuple{}}())

julia> res = gridcv(model, Xtrain, ytrain; segm, score = rmsep, pars, nlv, verbose = true).res
/ rep=1 segm=1 segm=2 segm=3 segm=4 / rep=2 segm=1 segm=2 segm=3 segm=4 / rep=3 segm=1 segm=2 segm=3 segm=4 / rep=4 segm=1 segm=2 segm=3 segm=4 / rep=5 segm=1 segm=2 segm=3 segm=4 / rep=6 segm=1 segm=2 segm=3 segm=4 / rep=7 segm=1 segm=2 segm=3 segm=4 / rep=8 segm=1 segm=2 segm=3 segm=4 / rep=9 segm=1 segm=2 segm=3 segm=4 / rep=10 segm=1 segm=2 segm=3 segm=4 / rep=11 segm=1 segm=2 segm=3 segm=4 / rep=12 segm=1 segm=2 segm=3 segm=4 / rep=13 segm=1 segm=2 segm=3 segm=4 / rep=14 segm=1 segm=2 segm=3 segm=4 / rep=15 segm=1 segm=2 segm=3 segm=4 / rep=16 segm=1 segm=2 segm=3 segm=4 / rep=17 segm=1 segm=2 segm=3 segm=4 / rep=18 segm=1 segm=2 segm=3 segm=4 / rep=19 segm=1 segm=2 segm=3 segm=4 / rep=20 segm=1 segm=2 segm=3 segm=4 / End.
480×6 DataFrame
 Row │ nlv    nlvdis  metric  h    k    y1
     │ Int64  Any     Any     Any  Any  Float64
─────┼──────────────────────────────────────────
   1 │     0  10      mah     1.0  30   5.20712
   2 │     1  10      mah     1.0  30   1.3149
   3 │     2  10      mah     1.0  30   1.23827
   4 │     3  10      mah     1.0  30   1.24156
   5 │     4  10      mah     1.0  30   1.27682
   6 │     5  10      mah     1.0  30   1.3934
   7 │     6  10      mah     1.0  30   1.50329
   8 │     7  10      mah     1.0  30   1.59847
  ⋮  │   ⋮      ⋮       ⋮      ⋮    ⋮      ⋮
 474 │     9  15      mah     Inf  100  2.13201
 475 │    10  15      mah     Inf  100  2.15436
 476 │    11  15      mah     Inf  100  2.18074
 477 │    12  15      mah     Inf  100  2.31547
 478 │    13  15      mah     Inf  100  2.49412
 479 │    14  15      mah     Inf  100  2.65931
 480 │    15  15      mah     Inf  100  2.70836
                                465 rows omitted
…
julia> pars = mpar(nlv = nlv, nlvdis = nlvdis, metric = metric, h = h, k = k)
(nlv = Any[0:5, 0:10, 1:5, 1:10, 0:5, 0:10, 1:5, 1:10, 0:5, 0:10  …  1:5, 1:10, 0:5, 0:10, 1:5, 1:10, 0:5, 0:10, 1:5, 1:10], nlvdis = Any[10, 10, 10, 10, 15, 15, 15, 15, 10, 10  …  15, 15, 10, 10, 10, 10, 15, 15, 15, 15], metric = Any[:mah, :mah, :mah, :mah, :mah, :mah, :mah, :mah, :mah, :mah  …  :mah, :mah, :mah, :mah, :mah, :mah, :mah, :mah, :mah, :mah], h = Any[1.0, 1.0, 1.0, 1.0, 1.0, 1.0, 1.0, 1.0, 2.0, 2.0  …  5.0, 5.0, Inf, Inf, Inf, Inf, Inf, Inf, Inf, Inf], k = Any[30, 30, 30, 30, 30, 30, 30, 30, 30, 30  …  100, 100, 100, 100, 100, 100, 100, 100, 100, 100])

julia> length(pars[1])
96

julia> model = lwplsravg()
Jchemo.JchemoModel{typeof(lwplsravg), Base.Pairs{Symbol, Union{}, Tuple{}, @NamedTuple{}}}(Jchemo.lwplsravg, nothing, Base.Pairs{Symbol, Union{}, Tuple{}, @NamedTuple{}}())

julia> res = gridcv(model, Xtrain, ytrain; segm, score = rmsep, pars, verbose = true).res
/ rep=1 segm=1 segm=2 segm=3 segm=4 / rep=2 segm=1 segm=2 segm=3 segm=4 / rep=3 segm=1 segm=2 segm=3 segm=4 / rep=4 segm=1 segm=2 segm=3 segm=4 / rep=5 segm=1 segm=2 segm=3 segm=4 / rep=6 segm=1 segm=2 segm=3 segm=4 / rep=7 segm=1 segm=2 segm=3 segm=4 / rep=8 segm=1 segm=2 segm=3 segm=4 / rep=9 segm=1 segm=2 segm=3 segm=4 / rep=10 segm=1 segm=2 segm=3 segm=4 / rep=11 segm=1 segm=2 segm=3 segm=4 / rep=12 segm=1 segm=2 segm=3 segm=4 / rep=13 segm=1 segm=2 segm=3 segm=4 / rep=14 segm=1 segm=2 segm=3 segm=4 / rep=15 segm=1 segm=2 segm=3 segm=4 / rep=16 segm=1 segm=2 segm=3 segm=4 / rep=17 segm=1 segm=2 segm=3 segm=4 / rep=18 segm=1 segm=2 segm=3 segm=4 / rep=19 segm=1 segm=2 segm=3 segm=4 / rep=20 segm=1 segm=2 segm=3 segm=4 / End.
96×6 DataFrame
 Row │ nlv   nlvdis  metric  h    k    y1
     │ Any   Any     Any     Any  Any  Float64
─────┼─────────────────────────────────────────
   1 │ 0:5   10      mah     1.0  30   1.46613
   2 │ 0:10  10      mah     1.0  30   1.37623
   3 │ 1:5   10      mah     1.0  30   1.15198
   4 │ 1:10  10      mah     1.0  30   1.28184
   5 │ 0:5   15      mah     1.0  30   1.56845
   6 │ 0:10  15      mah     1.0  30   1.41282
   7 │ 1:5   15      mah     1.0  30   1.25617
   8 │ 1:10  15      mah     1.0  30   1.37634
  ⋮  │  ⋮      ⋮       ⋮      ⋮    ⋮      ⋮
  90 │ 0:10  10      mah     Inf  100  2.34635
  91 │ 1:5   10      mah     Inf  100  2.18398
  92 │ 1:10  10      mah     Inf  100  2.0867
  93 │ 0:5   15      mah     Inf  100  2.99157
  94 │ 0:10  15      mah     Inf  100  2.35657
  95 │ 1:5   15      mah     Inf  100  2.1893
  96 │ 1:10  15      mah     Inf  100  2.09475
                                81 rows omitted
…
julia> pars = mpar(nlvdis = nlvdis, metric = metric, h = h, k = k)
(nlvdis = Any[15, 20, 15, 20, 15, 20, 15, 20, 15, 20  …  15, 20, 15, 20, 15, 20, 15, 20, 15, 20], metric = Any[:eucl, :eucl, :mah, :mah, :eucl, :eucl, :mah, :mah, :eucl, :eucl  …  :mah, :mah, :eucl, :eucl, :mah, :mah, :eucl, :eucl, :mah, :mah], h = Any[1.0, 1.0, 1.0, 1.0, 2.0, 2.0, 2.0, 2.0, 4.0, 4.0  …  4.0, 4.0, 6.0, 6.0, 6.0, 6.0, Inf, Inf, Inf, Inf], k = Any[1, 1, 1, 1, 1, 1, 1, 1, 1, 1  …  45, 45, 45, 45, 45, 45, 45, 45, 45, 45])

julia> length(pars[1])
120

julia> model = knnr()
Jchemo.JchemoModel{typeof(knnr), Base.Pairs{Symbol, Union{}, Tuple{}, @NamedTuple{}}}(Jchemo.knnr, nothing, Base.Pairs{Symbol, Union{}, Tuple{}, @NamedTuple{}}())

julia> res = gridcv(model, Xtrain, ytrain; segm, score = rmsep, pars).res
120×5 DataFrame
 Row │ nlvdis  metric  h    k    y1
     │ Any     Any     Any  Any  Float64
─────┼───────────────────────────────────
   1 │ 15      eucl    1.0  1    2.07956
   2 │ 20      eucl    1.0  1    2.07956
   3 │ 15      mah     1.0  1    3.57099
   4 │ 20      mah     1.0  1    3.57099
   5 │ 15      eucl    2.0  1    2.07956
   6 │ 20      eucl    2.0  1    2.07956
   7 │ 15      mah     2.0  1    3.57099
   8 │ 20      mah     2.0  1    3.57099
  ⋮  │   ⋮       ⋮      ⋮    ⋮      ⋮
 114 │ 20      eucl    6.0  45   6.26234
 115 │ 15      mah     6.0  45   7.23026
 116 │ 20      mah     6.0  45   7.23026
 117 │ 15      eucl    Inf  45   6.8159
 118 │ 20      eucl    Inf  45   6.8159
 119 │ 15      mah     Inf  45   7.84051
 120 │ 20      mah     Inf  45   7.84051
                         105 rows omitted
…
julia> pars = mpar(n_trees = n_trees, n_subfeatures = n_subfeatures, max_depth = max_depth)
(n_trees = Real[200, 200, 200, 200, 200, 200, 200, 200, 200, 200  …  200, 200, 200, 200, 200, 200, 200, 200, 200, 200], n_subfeatures = Real[10.0, 20.0, 30.0, 40.0, 50.0, 60.0, 69.99999999999999, 80.00000000000001, 90.0, 100.0  …  10.0, 20.0, 30.0, 40.0, 50.0, 60.0, 69.99999999999999, 80.00000000000001, 90.0, 100.0], max_depth = Real[6, 6, 6, 6, 6, 6, 6, 6, 6, 6  …  2000, 2000, 2000, 2000, 2000, 2000, 2000, 2000, 2000, 2000])

julia> length(pars[1])
50

julia> model = rfr()
Jchemo.JchemoModel{typeof(rfr), Base.Pairs{Symbol, Union{}, Tuple{}, @NamedTuple{}}}(Jchemo.rfr, nothing, Base.Pairs{Symbol, Union{}, Tuple{}, @NamedTuple{}}())

julia> res = gridcv(model, Xtrain, ytrain; segm, score = rmsep, pars).res
50×4 DataFrame
 Row │ n_trees  n_subfeatures  max_depth  y1
     │ Real     Real           Real       Float64
─────┼────────────────────────────────────────────
   1 │     200           10.0          6  1.89028
   2 │     200           20.0          6  1.79532
   3 │     200           30.0          6  1.78685
   4 │     200           40.0          6  1.78359
   5 │     200           50.0          6  1.77049
   6 │     200           60.0          6  1.7778
   7 │     200           70.0          6  1.78194
   8 │     200           80.0          6  1.79068
  ⋮  │    ⋮           ⋮            ⋮         ⋮
  44 │     200           40.0       2000  1.76364
  45 │     200           50.0       2000  1.77712
  46 │     200           60.0       2000  1.78938
  47 │     200           70.0       2000  1.78086
  48 │     200           80.0       2000  1.78868
  49 │     200           90.0       2000  1.78122
  50 │     200          100.0       2000  1.79095
                                   35 rows omitted
…
