tecator - Gridscore all models
…
julia> nlv = 0:20
0:20

julia> pars = mpar(scal = [false; true])
(scal = Bool[0, 1],)

julia> length(pars[1])
2

julia> model = plskern()
Jchemo.JchemoModel{typeof(Jchemo.plskern), Base.Pairs{Symbol, Union{}, Tuple{}, @NamedTuple{}}}(Jchemo.plskern, nothing, Base.Pairs{Symbol, Union{}, Tuple{}, @NamedTuple{}}())

julia> res = gridscore(model, Xcal, ycal, Xval, yval; score = rmsep, pars, nlv)
42×3 DataFrame
 Row │ scal   nlv    y1
     │ Bool   Int64  Float64
─────┼────────────────────────
   1 │ false      0  13.3251
   2 │ false      1   2.14898
   3 │ false      2   2.30115
   4 │ false      3   2.58928
   5 │ false      4   2.40819
   6 │ false      5   2.26439
   7 │ false      6   1.98724
   8 │ false      7   2.01114
  ⋮  │   ⋮      ⋮       ⋮
  36 │  true     14   3.45083
  37 │  true     15   3.81904
  38 │  true     16   4.01348
  39 │  true     17   4.53498
  40 │  true     18   5.29341
  41 │  true     19   6.57835
  42 │  true     20   7.15994
               27 rows omitted
…
julia> model = rr()
Jchemo.JchemoModel{typeof(Jchemo.rr), Base.Pairs{Symbol, Union{}, Tuple{}, @NamedTuple{}}}(Jchemo.rr, nothing, Base.Pairs{Symbol, Union{}, Tuple{}, @NamedTuple{}}())

julia> res = gridscore(model, Xcal, ycal, Xval, yval; score = rmsep, lb)
181×2 DataFrame
 Row │ lb              y1
     │ Float64         Float64
─────┼─────────────────────────
   1 │    1.0e-15      12.1444
   2 │    1.25893e-15  12.1444
   3 │    1.58489e-15  12.1444
   4 │    1.99526e-15  12.1444
   5 │    2.51189e-15  12.1444
   6 │    3.16228e-15  12.1444
   7 │    3.98107e-15  12.1444
   8 │    5.01187e-15  12.1444
  ⋮  │       ⋮            ⋮
 175 │  251.189        13.3251
 176 │  316.228        13.3251
 177 │  398.107        13.3251
 178 │  501.187        13.3251
 179 │  630.957        13.3251
 180 │  794.328        13.3251
 181 │ 1000.0          13.3251
               166 rows omitted
…
Covselr

julia> nlv = 0:20
0:20

julia> pars = mpar(msparse = [:hard], nvar = [1])
(msparse = Any[:hard], nvar = Any[1])

julia> model = splskern()
Jchemo.JchemoModel{typeof(Jchemo.splskern), Base.Pairs{Symbol, Union{}, Tuple{}, @NamedTuple{}}}(Jchemo.splskern, nothing, Base.Pairs{Symbol, Union{}, Tuple{}, @NamedTuple{}}())

julia> res = gridscore(model, Xcal, ycal, Xval, yval; score = rmsep, pars, nlv, verbose = false)
21×4 DataFrame
 Row │ msparse  nvar  nlv    y1
     │ Any      Any   Int64  Float64
─────┼────────────────────────────────
   1 │ hard     1         0  13.3251
   2 │ hard     1         1   2.14898
   3 │ hard     1         2   2.30115
   4 │ hard     1         3   2.58928
   5 │ hard     1         4   2.40819
   6 │ hard     1         5   2.26439
   7 │ hard     1         6   1.98724
   8 │ hard     1         7   2.01114
  ⋮  │    ⋮      ⋮      ⋮       ⋮
  15 │ hard     1        14   2.91668
  16 │ hard     1        15   3.42382
  17 │ hard     1        16   3.7968
  18 │ hard     1        17   4.17544
  19 │ hard     1        18   4.79628
  20 │ hard     1        19   5.74648
  21 │ hard     1        20   6.28014
                        6 rows omitted
…
julia> pars = mpar(gamma = gamma)
(gamma = [0.001, 0.010000000000000002, 0.1, 1.0, 10.0, 100.0, 1000.0, 10000.0, 100000.0],)

julia> length(pars[1])
9

julia> model = krr()
Jchemo.JchemoModel{typeof(Jchemo.krr), Base.Pairs{Symbol, Union{}, Tuple{}, @NamedTuple{}}}(Jchemo.krr, nothing, Base.Pairs{Symbol, Union{}, Tuple{}, @NamedTuple{}}())

julia> res = gridscore(model, Xcal, ycal, Xval, yval; score = rmsep, pars, lb, verbose = false)
189×3 DataFrame
 Row │ gamma       lb            y1
     │ Float64     Float64       Float64
─────┼──────────────────────────────────────
   1 │      0.001       1.0e-15  3563.09
   2 │      0.001       1.0e-14  3563.09
   3 │      0.001       1.0e-13  3563.09
   4 │      0.001       1.0e-12  3563.08
   5 │      0.001       1.0e-11  3562.68
   6 │      0.001       1.0e-10  3523.3
   7 │      0.001       1.0e-9   1699.39
   8 │      0.001       1.0e-8     59.9699
  ⋮  │     ⋮            ⋮            ⋮
 183 │ 100000.0         0.1        11.2608
 184 │ 100000.0         1.0        13.2488
 185 │ 100000.0        10.0        13.3243
 186 │ 100000.0       100.0        13.3251
 187 │ 100000.0      1000.0        13.3251
 188 │ 100000.0     10000.0        13.3251
 189 │ 100000.0    100000.0        13.3251
                            174 rows omitted
…
julia> pars = mpar(gamma = gamma)
(gamma = [0.001, 0.010000000000000002, 0.1, 1.0, 10.0, 100.0, 1000.0, 10000.0, 100000.0],)

julia> length(pars[1])
9

julia> model = kplsr()
Jchemo.JchemoModel{typeof(Jchemo.kplsr), Base.Pairs{Symbol, Union{}, Tuple{}, @NamedTuple{}}}(Jchemo.kplsr, nothing, Base.Pairs{Symbol, Union{}, Tuple{}, @NamedTuple{}}())

julia> res = gridscore(model, Xcal, ycal, Xval, yval; score = rmsep, pars, nlv, verbose = false)
279×3 DataFrame
 Row │ gamma       nlv    y1
     │ Float64     Int64  Float64
─────┼─────────────────────────────
   1 │      0.001      0  13.3251
   2 │      0.001      1   2.14898
   3 │      0.001      2   2.30116
   4 │      0.001      3   2.58935
   5 │      0.001      4   2.40801
   6 │      0.001      5   2.26369
   7 │      0.001      6   1.98577
   8 │      0.001      7   2.00935
  ⋮  │     ⋮         ⋮       ⋮
 273 │ 100000.0       24  10.5772
 274 │ 100000.0       25  10.5772
 275 │ 100000.0       26  10.5772
 276 │ 100000.0       27  10.5772
 277 │ 100000.0       28  10.5772
 278 │ 100000.0       29  10.5772
 279 │ 100000.0       30  10.5772
                   264 rows omitted
…
julia> pars = mpar(gamma = gamma)
(gamma = [0.001, 0.010000000000000002, 0.1, 1.0, 10.0, 100.0, 1000.0, 10000.0, 100000.0],)

julia> length(pars[1])
9

julia> model = dkplsr()
Jchemo.JchemoModel{typeof(Jchemo.dkplsr), Base.Pairs{Symbol, Union{}, Tuple{}, @NamedTuple{}}}(Jchemo.dkplsr, nothing, Base.Pairs{Symbol, Union{}, Tuple{}, @NamedTuple{}}())

julia> res = gridscore(model, Xcal, ycal, Xval, yval; score = rmsep, pars, nlv, verbose = false)
279×3 DataFrame
 Row │ gamma       nlv    y1
     │ Float64     Int64  Float64
─────┼─────────────────────────────
   1 │      0.001      0  13.3251
   2 │      0.001      1   4.58702
   3 │      0.001      2   1.91319
   4 │      0.001      3   2.29209
   5 │      0.001      4   2.58423
   6 │      0.001      5   2.60663
   7 │      0.001      6   2.59338
   8 │      0.001      7   2.7012
  ⋮  │     ⋮         ⋮       ⋮
 273 │ 100000.0       24  10.1611
 274 │ 100000.0       25  10.1622
 275 │ 100000.0       26  10.1634
 276 │ 100000.0       27  10.1641
 277 │ 100000.0       28  10.1652
 278 │ 100000.0       29  10.1655
 279 │ 100000.0       30  10.1667
                   264 rows omitted
…
:nlvdis => 15:metric => :mah:h => 6.0:k => 50
:nlvdis => 10:metric => :mah:h => Inf:k => 50
:nlvdis => 15:metric => :mah:h => Inf:k => 50
:nlvdis => 10:metric => :mah:h => 1.0:k => 100
:nlvdis => 15:metric => :mah:h => 1.0:k => 100
:nlvdis => 10:metric => :mah:h => 2.0:k => 100
:nlvdis => 15:metric => :mah:h => 2.0:k => 100
:nlvdis => 10:metric => :mah:h => 4.0:k => 100
:nlvdis => 15:metric => :mah:h => 4.0:k => 100
:nlvdis => 10:metric => :mah:h => 6.0:k => 100
:nlvdis => 15:metric => :mah:h => 6.0:k => 100
:nlvdis => 10:metric => :mah:h => Inf:k => 100
:nlvdis => 15:metric => :mah:h => Inf:k => 100
-- End.
480×6 DataFrame
 Row │ nlvdis  metric  h    k    nlv    y1
     │ Any     Any     Any  Any  Int64  Float64
─────┼──────────────────────────────────────────
   1 │ 10      mah     1.0  30       0  6.31289
   2 │ 10      mah     1.0  30       1  1.57963
   3 │ 10      mah     1.0  30       2  1.91826
   4 │ 10      mah     1.0  30       3  1.63661
   5 │ 10      mah     1.0  30       4  2.09774
   6 │ 10      mah     1.0  30       5  2.34854
   7 │ 10      mah     1.0  30       6  2.14511
   8 │ 10      mah     1.0  30       7  2.56609
  ⋮  │   ⋮       ⋮      ⋮    ⋮     ⋮       ⋮
 474 │ 15      mah     Inf  100      9  2.16498
 475 │ 15      mah     Inf  100     10  2.4059
 476 │ 15      mah     Inf  100     11  2.38433
 477 │ 15      mah     Inf  100     12  2.5638
 478 │ 15      mah     Inf  100     13  2.85023
 479 │ 15      mah     Inf  100     14  2.81821
 480 │ 15      mah     Inf  100     15  3.28619
                                465 rows omitted
…
:nlv => 1:10:nlvdis => 10:metric => :mah:h => 5.0:k => 100
:nlv => 0:5:nlvdis => 15:metric => :mah:h => 5.0:k => 100
:nlv => 0:10:nlvdis => 15:metric => :mah:h => 5.0:k => 100
:nlv => 1:5:nlvdis => 15:metric => :mah:h => 5.0:k => 100
:nlv => 1:10:nlvdis => 15:metric => :mah:h => 5.0:k => 100
:nlv => 0:5:nlvdis => 10:metric => :mah:h => Inf:k => 100
:nlv => 0:10:nlvdis => 10:metric => :mah:h => Inf:k => 100
:nlv => 1:5:nlvdis => 10:metric => :mah:h => Inf:k => 100
:nlv => 1:10:nlvdis => 10:metric => :mah:h => Inf:k => 100
:nlv => 0:5:nlvdis => 15:metric => :mah:h => Inf:k => 100
:nlv => 0:10:nlvdis => 15:metric => :mah:h => Inf:k => 100
:nlv => 1:5:nlvdis => 15:metric => :mah:h => Inf:k => 100
:nlv => 1:10:nlvdis => 15:metric => :mah:h => Inf:k => 100
-- End.
96×6 DataFrame
 Row │ nlv   nlvdis  metric  h    k    y1
     │ Any   Any     Any     Any  Any  Float64
─────┼─────────────────────────────────────────
   1 │ 0:5   10      mah     1.0  30   2.18677
   2 │ 0:10  10      mah     1.0  30   2.07188
   3 │ 1:5   10      mah     1.0  30   1.77442
   4 │ 1:10  10      mah     1.0  30   1.96539
   5 │ 0:5   15      mah     1.0  30   2.35069
   6 │ 0:10  15      mah     1.0  30   2.34819
   7 │ 1:5   15      mah     1.0  30   1.90131
   8 │ 1:10  15      mah     1.0  30   2.27752
  ⋮  │  ⋮      ⋮       ⋮      ⋮    ⋮      ⋮
  90 │ 0:10  10      mah     Inf  100  2.78389
  91 │ 1:5   10      mah     Inf  100  2.12556
  92 │ 1:10  10      mah     Inf  100  1.96935
  93 │ 0:5   15      mah     Inf  100  3.73537
  94 │ 0:10  15      mah     Inf  100  2.83786
  95 │ 1:5   15      mah     Inf  100  2.12897
  96 │ 1:10  15      mah     Inf  100  2.03436
                                81 rows omitted
…
julia> pars = mpar(nlvdis = nlvdis, metric = metric, h = h, k = k)
(nlvdis = Any[15, 20, 15, 20, 15, 20, 15, 20, 15, 20  …  15, 20, 15, 20, 15, 20, 15, 20, 15, 20], metric = Any[:eucl, :eucl, :mah, :mah, :eucl, :eucl, :mah, :mah, :eucl, :eucl  …  :mah, :mah, :eucl, :eucl, :mah, :mah, :eucl, :eucl, :mah, :mah], h = Any[1.0, 1.0, 1.0, 1.0, 2.0, 2.0, 2.0, 2.0, 4.0, 4.0  …  4.0, 4.0, 6.0, 6.0, 6.0, 6.0, Inf, Inf, Inf, Inf], k = Any[1, 1, 1, 1, 1, 1, 1, 1, 1, 1  …  45, 45, 45, 45, 45, 45, 45, 45, 45, 45])

julia> length(pars[1])
120

julia> model = knnr()
Jchemo.JchemoModel{typeof(Jchemo.knnr), Base.Pairs{Symbol, Union{}, Tuple{}, @NamedTuple{}}}(Jchemo.knnr, nothing, Base.Pairs{Symbol, Union{}, Tuple{}, @NamedTuple{}}())

julia> res = gridscore(model, Xcal, ycal, Xval, yval; score = rmsep, pars)
120×5 DataFrame
 Row │ nlvdis  metric  h    k    y1
     │ Any     Any     Any  Any  Float64
─────┼───────────────────────────────────
   1 │ 15      eucl    1.0  1    2.25473
   2 │ 20      eucl    1.0  1    2.25473
   3 │ 15      mah     1.0  1    3.87192
   4 │ 20      mah     1.0  1    3.87192
   5 │ 15      eucl    2.0  1    2.25473
   6 │ 20      eucl    2.0  1    2.25473
   7 │ 15      mah     2.0  1    3.87192
   8 │ 20      mah     2.0  1    3.87192
  ⋮  │   ⋮       ⋮      ⋮    ⋮      ⋮
 114 │ 20      eucl    6.0  45   7.73606
 115 │ 15      mah     6.0  45   8.5882
 116 │ 20      mah     6.0  45   8.5882
 117 │ 15      eucl    Inf  45   8.39476
 118 │ 20      eucl    Inf  45   8.39476
 119 │ 15      mah     Inf  45   9.36741
 120 │ 20      mah     Inf  45   9.36741
                         105 rows omitted
…
julia> model = rfr()
Jchemo.JchemoModel{typeof(Jchemo.rfr), Base.Pairs{Symbol, Union{}, Tuple{}, @NamedTuple{}}}(Jchemo.rfr, nothing, Base.Pairs{Symbol, Union{}, Tuple{}, @NamedTuple{}}())

julia> pars = mpar(n_trees = n_trees, n_subfeatures = n_subfeatures, max_depth = max_depth)
(n_trees = Real[200, 200, 200, 200, 200, 200, 200, 200, 200, 200  …  200, 200, 200, 200, 200, 200, 200, 200, 200, 200], n_subfeatures = Real[10.0, 20.0, 30.0, 40.0, 50.0, 60.0, 69.99999999999999, 80.00000000000001, 90.0, 100.0  …  10.0, 20.0, 30.0, 40.0, 50.0, 60.0, 69.99999999999999, 80.00000000000001, 90.0, 100.0], max_depth = Real[6, 6, 6, 6, 6, 6, 6, 6, 6, 6  …  2000, 2000, 2000, 2000, 2000, 2000, 2000, 2000, 2000, 2000])

julia> length(pars[1])
50

julia> res = gridscore(model, Xcal, ycal, Xval, yval; score = rmsep, pars)
50×4 DataFrame
 Row │ n_trees  n_subfeatures  max_depth  y1
     │ Real     Real           Real       Float64
─────┼────────────────────────────────────────────
   1 │     200           10.0          6  2.33816
   2 │     200           20.0          6  2.2125
   3 │     200           30.0          6  2.04727
   4 │     200           40.0          6  2.28473
   5 │     200           50.0          6  2.23162
   6 │     200           60.0          6  2.20877
   7 │     200           70.0          6  2.22586
   8 │     200           80.0          6  2.20098
  ⋮  │    ⋮           ⋮            ⋮         ⋮
  44 │     200           40.0       2000  2.03517
  45 │     200           50.0       2000  2.34052
  46 │     200           60.0       2000  2.13162
  47 │     200           70.0       2000  2.01265
  48 │     200           80.0       2000  2.14075
  49 │     200           90.0       2000  2.13018
  50 │     200          100.0       2000  2.16091
                                   35 rows omitted
…
